Experiment No: 6818
Using fitness function Classic.Using 24 CPU threads.DatasetConfig {
    dataset_neg_path: "/home/farooqkz/ww_dataset/neg/",
    dataset_pos_path: "/home/farooqkz/ww_dataset/pos/",
    test_dataset_fraction: 0.8,
    extractor_config: MfccExtractorConfig {
        sample_rate: 48000,
        samples_per_frame: 18000,
        samples_per_shift: 18000,
        num_coefficients: 100,
        pre_emphasis_coefficient: 0.97,
    },
}
FirstStageConfig {
    population: 500,
    number_of_demes: 32,
    crossover_rate: 0.8,
    macro_mutation_rate: 0.01,
    micro_mutation_rate: 0.01,
    constant_mutation_rate: 0.02,
    changes_per_micro: 10,
    changes_per_macro: 10,
    reproduction_rate: 0.02,
    program_generation: ProgramGenerationConfig {
        range_up: 512,
        range_down: 16,
        instruction_gen: InstructionGenerationConfig {
            register_cells: 8,
            memory_cells: 132,
            jump_range: [
                1,
                32,
            ],
            instructions: [
                "Sum",
                "Multiply",
                "Load",
                "Sub",
                "CopyReg",
                "JumpZN",
                "MultiplyM",
                "SumM",
                "SubM",
                "Square",
                "JumpZP",
                "Sin",
                "Cos",
                "Sqrt",
            ],
        },
    },
    number_of_constants: 32,
    end_condition: EndCondition {
        minutes: None,
        generations: Some(
            20000,
        ),
        accuracy: None,
        diversity: None,
    },
    migration_rate: 0.05,
    migration_freq: 16,
    population_injection: 0,
    selection_pressure: Some(
        5,
    ),
    bucket_size: None,
    fitness_config: FitnessConfig {
        max_program_size: Some(
            1024,
        ),
    },
}
SecondStageConfig {
    population: 1000,
    crossover_rate: 0.8,
    mutation_rate: 0.01,
    reproduction_rate: 0.1,
    fitness_config: FitnessConfig {
        max_program_size: Some(
            1024,
        ),
    },
}
Reading files from disk...
I have 6511 positive and 83547 negative samples
Constructing initial population
Constructed initial population
[000:00:00] Gen 1 best/avg/worst/avg_ft/ft_div/avg_size -/+ 59.7701/80.0000 -/+ 55.3700/45.7300 -/+ 82.5670/2.5000 0.4579 0.0642 286.4
[000:00:01] Gen 2 best/avg/worst/avg_ft/ft_div/avg_size -/+ 59.7701/80.0000 -/+ 55.3016/46.8562 -/+ 76.0536/2.5000 0.4686 0.0631 291.6
[000:00:01] Gen 3 best/avg/worst/avg_ft/ft_div/avg_size -/+ 59.7701/80.0000 -/+ 55.4182/47.5450 -/+ 76.0536/2.5000 0.4760 0.0627 294.9
[000:00:02] Gen 4 best/avg/worst/avg_ft/ft_div/avg_size -/+ 59.7701/80.0000 -/+ 55.3664/48.1755 -/+ 78.3525/2.5000 0.4813 0.0623 296.6
[000:00:02] Gen 5 best/avg/worst/avg_ft/ft_div/avg_size -/+ 70.3065/77.5000 -/+ 55.0444/48.9606 -/+ 86.2069/2.5000 0.4847 0.0629 297.0
[000:00:02] Gen 6 best/avg/worst/avg_ft/ft_div/avg_size -/+ 61.1111/80.0000 -/+ 55.1142/49.3680 -/+ 87.3563/2.5000 0.4879 0.0634 299.1
[000:00:03] Gen 7 best/avg/worst/avg_ft/ft_div/avg_size -/+ 63.9847/87.5000 -/+ 55.2973/49.6489 -/+ 85.8238/2.5000 0.4915 0.0634 298.5
[000:00:03] Gen 8 best/avg/worst/avg_ft/ft_div/avg_size -/+ 63.9847/87.5000 -/+ 55.5107/49.8314 -/+ 86.5900/2.5000 0.4952 0.0626 299.2
[000:00:04] Gen 9 best/avg/worst/avg_ft/ft_div/avg_size -/+ 63.9847/87.5000 -/+ 55.4339/50.4697 -/+ 74.7126/2.5000 0.4986 0.0635 297.7
[000:00:04] Gen 10 best/avg/worst/avg_ft/ft_div/avg_size -/+ 63.9847/87.5000 -/+ 55.5881/50.6833 -/+ 81.8008/2.5000 0.5000 0.0653 297.2
[000:00:04] Gen 11 best/avg/worst/avg_ft/ft_div/avg_size -/+ 63.9847/87.5000 -/+ 55.8256/50.7875 -/+ 74.7126/2.5000 0.5023 0.0663 295.9
[000:00:05] Gen 12 best/avg/worst/avg_ft/ft_div/avg_size -/+ 63.9847/87.5000 -/+ 56.0415/51.1387 -/+ 86.5900/2.5000 0.5053 0.0673 292.3
[000:00:05] Gen 13 best/avg/worst/avg_ft/ft_div/avg_size -/+ 63.9847/87.5000 -/+ 56.1928/51.6198 -/+ 90.2299/2.5000 0.5092 0.0682 289.0
[000:00:06] Gen 14 best/avg/worst/avg_ft/ft_div/avg_size -/+ 63.9847/87.5000 -/+ 56.4378/51.9402 -/+ 77.7778/2.5000 0.5121 0.0695 286.7
[000:00:06] Gen 15 best/avg/worst/avg_ft/ft_div/avg_size -/+ 62.8352/87.5000 -/+ 56.6576/52.2441 -/+ 88.1226/2.5000 0.5151 0.0708 282.9
[000:00:06] Gen 16 best/avg/worst/avg_ft/ft_div/avg_size -/+ 62.8352/87.5000 -/+ 56.9168/52.5992 -/+ 83.7165/2.5000 0.5187 0.0652 278.6
[000:00:07] Gen 17 best/avg/worst/avg_ft/ft_div/avg_size -/+ 62.8352/87.5000 -/+ 57.3697/53.6531 -/+ 83.5249/2.5000 0.5317 0.0692 270.0
[000:00:07] Gen 18 best/avg/worst/avg_ft/ft_div/avg_size -/+ 62.8352/87.5000 -/+ 57.5730/53.9452 -/+ 77.9693/2.5000 0.5326 0.0730 262.7
[000:00:08] Gen 19 best/avg/worst/avg_ft/ft_div/avg_size -/+ 72.2222/80.0000 -/+ 58.2069/54.0258 -/+ 77.9693/2.5000 0.5352 0.0758 254.3
[000:00:08] Gen 20 best/avg/worst/avg_ft/ft_div/avg_size -/+ 61.6858/87.5000 -/+ 58.5798/54.2933 -/+ 88.8889/2.5000 0.5382 0.0788 246.3
[000:00:08] Gen 21 best/avg/worst/avg_ft/ft_div/avg_size -/+ 61.6858/87.5000 -/+ 58.9308/54.9212 -/+ 92.1456/2.5000 0.5429 0.0806 238.0
[000:00:08] Gen 22 best/avg/worst/avg_ft/ft_div/avg_size -/+ 65.5172/85.0000 -/+ 59.4356/55.3561 -/+ 87.5479/2.5000 0.5477 0.0821 230.8
[000:00:09] Gen 23 best/avg/worst/avg_ft/ft_div/avg_size -/+ 65.5172/85.0000 -/+ 59.8845/55.8625 -/+ 88.8889/2.5000 0.5534 0.0836 223.1
[000:00:09] Gen 24 best/avg/worst/avg_ft/ft_div/avg_size -/+ 57.0881/95.0000 -/+ 60.2026/56.5573 -/+ 82.3755/2.5000 0.5592 0.0842 214.1
[000:00:09] Gen 25 best/avg/worst/avg_ft/ft_div/avg_size -/+ 57.0881/95.0000 -/+ 60.7381/56.9375 -/+ 84.2912/2.5000 0.5643 0.0847 205.6
[000:00:10] Gen 26 best/avg/worst/avg_ft/ft_div/avg_size -/+ 57.0881/95.0000 -/+ 61.3196/57.3356 -/+ 83.3333/2.5000 0.5700 0.0843 199.4
[000:00:10] Gen 27 best/avg/worst/avg_ft/ft_div/avg_size -/+ 57.0881/95.0000 -/+ 61.7811/57.9491 -/+ 86.0153/2.5000 0.5767 0.0836 193.0
[000:00:10] Gen 28 best/avg/worst/avg_ft/ft_div/avg_size -/+ 57.0881/95.0000 -/+ 62.1073/58.3430 -/+ 63.9847/2.5000 0.5800 0.0843 188.4
[000:00:10] Gen 29 best/avg/worst/avg_ft/ft_div/avg_size -/+ 57.0881/95.0000 -/+ 62.6179/58.8456 -/+ 85.8238/2.5000 0.5861 0.0823 183.6
[000:00:10] Gen 30 best/avg/worst/avg_ft/ft_div/avg_size -/+ 61.8774/90.0000 -/+ 63.0324/59.4080 -/+ 84.4828/2.5000 0.5917 0.0811 179.7
[000:00:11] Gen 31 best/avg/worst/avg_ft/ft_div/avg_size -/+ 61.8774/90.0000 -/+ 63.3732/59.9027 -/+ 84.4828/2.5000 0.5963 0.0800 177.4
[000:00:11] Gen 32 best/avg/worst/avg_ft/ft_div/avg_size -/+ 61.4943/92.5000 -/+ 63.8091/60.1244 -/+ 87.1648/2.5000 0.5999 0.0666 174.2
[000:00:11] Gen 33 best/avg/worst/avg_ft/ft_div/avg_size -/+ 61.4943/92.5000 -/+ 64.4955/61.1702 -/+ 90.2299/2.5000 0.6136 0.0710 171.1
[000:00:11] Gen 34 best/avg/worst/avg_ft/ft_div/avg_size -/+ 61.4943/92.5000 -/+ 64.6106/61.3698 -/+ 89.8467/2.5000 0.6142 0.0731 169.3
[000:00:12] Gen 35 best/avg/worst/avg_ft/ft_div/avg_size -/+ 61.4943/92.5000 -/+ 64.8917/61.4966 -/+ 74.7126/2.5000 0.6151 0.0749 167.3
[000:00:12] Gen 36 best/avg/worst/avg_ft/ft_div/avg_size -/+ 61.4943/92.5000 -/+ 65.0957/61.7822 -/+ 91.9540/2.5000 0.6177 0.0749 166.3
[000:00:12] Gen 37 best/avg/worst/avg_ft/ft_div/avg_size -/+ 70.8812/90.0000 -/+ 65.3132/62.1519 -/+ 88.5057/2.5000 0.6205 0.0750 165.3
[000:00:12] Gen 38 best/avg/worst/avg_ft/ft_div/avg_size -/+ 70.8812/90.0000 -/+ 65.6513/62.4098 -/+ 88.5057/2.5000 0.6236 0.0746 165.2
[000:00:12] Gen 39 best/avg/worst/avg_ft/ft_div/avg_size -/+ 72.0307/90.0000 -/+ 65.9915/62.6817 -/+ 82.7586/2.5000 0.6272 0.0739 164.8
[000:00:13] Gen 40 best/avg/worst/avg_ft/ft_div/avg_size -/+ 64.3678/92.5000 -/+ 66.1585/62.9134 -/+ 82.7586/2.5000 0.6291 0.0741 165.4
[000:00:13] Gen 41 best/avg/worst/avg_ft/ft_div/avg_size -/+ 72.0307/90.0000 -/+ 66.3987/63.0394 -/+ 82.7586/2.5000 0.6312 0.0741 165.9
[000:00:13] Gen 42 best/avg/worst/avg_ft/ft_div/avg_size -/+ 68.3908/92.5000 -/+ 66.5868/63.2098 -/+ 82.7586/2.5000 0.6330 0.0743 165.1
[000:00:13] Gen 43 best/avg/worst/avg_ft/ft_div/avg_size -/+ 70.8812/90.0000 -/+ 67.0538/63.2608 -/+ 83.7165/2.5000 0.6359 0.0738 166.2
[000:00:13] Gen 44 best/avg/worst/avg_ft/ft_div/avg_size -/+ 70.8812/90.0000 -/+ 67.1598/63.5720 -/+ 69.3487/2.5000 0.6386 0.0732 167.4
[000:00:14] Gen 45 best/avg/worst/avg_ft/ft_div/avg_size -/+ 70.8812/90.0000 -/+ 67.2515/63.9775 -/+ 90.4215/2.5000 0.6413 0.0724 167.8
[000:00:14] Gen 46 best/avg/worst/avg_ft/ft_div/avg_size -/+ 70.8812/90.0000 -/+ 67.5766/64.0752 -/+ 91.7625/2.5000 0.6437 0.0713 170.3
[000:00:14] Gen 47 best/avg/worst/avg_ft/ft_div/avg_size -/+ 65.5172/92.5000 -/+ 67.7993/64.3188 -/+ 82.1839/2.5000 0.6466 0.0701 171.2
[000:00:14] Gen 48 best/avg/worst/avg_ft/ft_div/avg_size -/+ 65.5172/92.5000 -/+ 68.0071/64.4400 -/+ 74.3295/2.5000 0.6482 0.0573 171.9
[000:00:15] Gen 49 best/avg/worst/avg_ft/ft_div/avg_size -/+ 64.5594/92.5000 -/+ 68.4856/65.2194 -/+ 89.0805/2.5000 0.6575 0.0637 171.9
[000:00:15] Gen 50 best/avg/worst/avg_ft/ft_div/avg_size -/+ 64.5594/92.5000 -/+ 68.5996/65.0689 -/+ 87.3563/2.5000 0.6559 0.0664 173.6
[000:00:15] Gen 51 best/avg/worst/avg_ft/ft_div/avg_size -/+ 64.5594/92.5000 -/+ 68.6355/64.9187 -/+ 70.1149/2.5000 0.6543 0.0689 175.8
[000:00:15] Gen 52 best/avg/worst/avg_ft/ft_div/avg_size -/+ 64.5594/92.5000 -/+ 68.7405/65.0334 -/+ 86.5900/2.5000 0.6551 0.0696 177.9
[000:00:16] Gen 53 best/avg/worst/avg_ft/ft_div/avg_size -/+ 64.5594/92.5000 -/+ 68.9354/65.2197 -/+ 85.0575/2.5000 0.6573 0.0685 179.9
[000:00:16] Gen 54 best/avg/worst/avg_ft/ft_div/avg_size -/+ 72.4138/90.0000 -/+ 68.8191/65.3777 -/+ 87.3563/2.5000 0.6571 0.0697 182.7
[000:00:16] Gen 55 best/avg/worst/avg_ft/ft_div/avg_size -/+ 72.4138/90.0000 -/+ 68.9823/65.4130 -/+ 82.9502/2.5000 0.6584 0.0696 186.4
[000:00:16] Gen 56 best/avg/worst/avg_ft/ft_div/avg_size -/+ 72.4138/90.0000 -/+ 69.1858/65.6594 -/+ 75.2874/2.5000 0.6614 0.0679 188.5
[000:00:17] Gen 57 best/avg/worst/avg_ft/ft_div/avg_size -/+ 72.4138/90.0000 -/+ 69.2394/65.9195 -/+ 92.5287/2.5000 0.6638 0.0666 191.3
[000:00:17] Gen 58 best/avg/worst/avg_ft/ft_div/avg_size -/+ 74.3295/90.0000 -/+ 69.4162/65.9653 -/+ 80.8429/2.5000 0.6642 0.0672 194.8
[000:00:17] Gen 59 best/avg/worst/avg_ft/ft_div/avg_size -/+ 74.3295/90.0000 -/+ 69.4315/65.9203 -/+ 89.4636/2.5000 0.6639 0.0679 198.8
[000:00:17] Gen 60 best/avg/worst/avg_ft/ft_div/avg_size -/+ 74.3295/90.0000 -/+ 69.5189/66.2392 -/+ 89.0805/2.5000 0.6659 0.0673 201.2
[000:00:18] Gen 61 best/avg/worst/avg_ft/ft_div/avg_size -/+ 74.3295/90.0000 -/+ 69.7411/66.1734 -/+ 85.0575/2.5000 0.6673 0.0668 204.6
[000:00:18] Gen 62 best/avg/worst/avg_ft/ft_div/avg_size -/+ 74.3295/90.0000 -/+ 69.7449/66.3519 -/+ 92.3372/2.5000 0.6682 0.0670 207.3
[000:00:18] Gen 63 best/avg/worst/avg_ft/ft_div/avg_size -/+ 73.9464/92.5000 -/+ 69.9219/66.3328 -/+ 84.8659/2.5000 0.6685 0.0673 210.1
[000:00:19] Gen 64 best/avg/worst/avg_ft/ft_div/avg_size -/+ 73.9464/92.5000 -/+ 69.9697/66.3081 -/+ 86.2069/2.5000 0.6686 0.0546 212.7
[000:00:19] Gen 65 best/avg/worst/avg_ft/ft_div/avg_size -/+ 73.9464/92.5000 -/+ 70.3783/67.0283 -/+ 92.9119/2.5000 0.6774 0.0603 216.3
[000:00:19] Gen 66 best/avg/worst/avg_ft/ft_div/avg_size -/+ 73.9464/92.5000 -/+ 70.3164/66.8375 -/+ 89.2720/2.5000 0.6750 0.0632 218.8
[000:00:20] Gen 67 best/avg/worst/avg_ft/ft_div/avg_size -/+ 73.9464/92.5000 -/+ 70.3550/66.7833 -/+ 65.1341/2.5000 0.6741 0.0644 222.3
[000:00:20] Gen 68 best/avg/worst/avg_ft/ft_div/avg_size -/+ 73.9464/92.5000 -/+ 70.4027/66.8650 -/+ 65.1341/2.5000 0.6745 0.0649 225.3
[000:00:20] Gen 69 best/avg/worst/avg_ft/ft_div/avg_size -/+ 74.3295/92.5000 -/+ 70.5699/66.8041 -/+ 65.1341/2.5000 0.6751 0.0654 227.8
[000:00:21] Gen 70 best/avg/worst/avg_ft/ft_div/avg_size -/+ 74.3295/92.5000 -/+ 70.5789/66.9194 -/+ 88.5057/2.5000 0.6757 0.0655 230.5
[000:00:21] Gen 71 best/avg/worst/avg_ft/ft_div/avg_size -/+ 64.3678/95.0000 -/+ 70.7315/66.6456 -/+ 92.9119/2.5000 0.6746 0.0669 234.7
[000:00:21] Gen 72 best/avg/worst/avg_ft/ft_div/avg_size -/+ 64.3678/95.0000 -/+ 70.6858/66.9269 -/+ 88.6973/2.5000 0.6760 0.0664 239.1
[000:00:22] Gen 73 best/avg/worst/avg_ft/ft_div/avg_size -/+ 74.3295/92.5000 -/+ 70.7730/67.0800 -/+ 82.1839/2.5000 0.6776 0.0654 243.1
[000:00:22] Gen 74 best/avg/worst/avg_ft/ft_div/avg_size -/+ 74.3295/92.5000 -/+ 70.9125/67.2378 -/+ 76.6284/2.5000 0.6793 0.0647 243.8
[000:00:22] Gen 75 best/avg/worst/avg_ft/ft_div/avg_size -/+ 63.9847/95.0000 -/+ 70.7012/67.4617 -/+ 76.6284/2.5000 0.6790 0.0661 248.6
[000:00:23] Gen 76 best/avg/worst/avg_ft/ft_div/avg_size -/+ 63.9847/95.0000 -/+ 71.0341/67.3747 -/+ 93.4866/2.5000 0.6801 0.0658 250.9
[000:00:23] Gen 77 best/avg/worst/avg_ft/ft_div/avg_size -/+ 63.9847/95.0000 -/+ 71.1036/67.3041 -/+ 82.5670/2.5000 0.6799 0.0665 253.5
[000:00:23] Gen 78 best/avg/worst/avg_ft/ft_div/avg_size -/+ 63.9847/95.0000 -/+ 71.0098/67.6006 -/+ 92.9119/2.5000 0.6811 0.0662 258.2
[000:00:24] Gen 79 best/avg/worst/avg_ft/ft_div/avg_size -/+ 63.9847/95.0000 -/+ 71.0717/67.6834 -/+ 87.1648/2.5000 0.6818 0.0664 262.1
[000:00:24] Gen 80 best/avg/worst/avg_ft/ft_div/avg_size -/+ 63.9847/95.0000 -/+ 71.0918/67.8208 -/+ 87.1648/2.5000 0.6831 0.0532 263.7
[000:00:25] Gen 81 best/avg/worst/avg_ft/ft_div/avg_size -/+ 74.3295/92.5000 -/+ 71.4657/68.3036 -/+ 66.2835/2.5000 0.6894 0.0605 268.6
[000:00:25] Gen 82 best/avg/worst/avg_ft/ft_div/avg_size -/+ 74.3295/92.5000 -/+ 71.4234/68.0584 -/+ 67.8161/2.5000 0.6864 0.0640 270.1
[000:00:25] Gen 83 best/avg/worst/avg_ft/ft_div/avg_size -/+ 74.3295/92.5000 -/+ 71.4808/68.0013 -/+ 94.0613/2.5000 0.6862 0.0653 273.6
[000:00:26] Gen 84 best/avg/worst/avg_ft/ft_div/avg_size -/+ 74.3295/92.5000 -/+ 71.4796/67.9858 -/+ 91.9540/2.5000 0.6858 0.0661 277.8
[000:00:26] Gen 85 best/avg/worst/avg_ft/ft_div/avg_size -/+ 74.3295/92.5000 -/+ 71.5858/68.0919 -/+ 93.1034/2.5000 0.6866 0.0664 280.0
[000:00:27] Gen 86 best/avg/worst/avg_ft/ft_div/avg_size -/+ 74.3295/92.5000 -/+ 71.5687/68.0516 -/+ 92.7203/2.5000 0.6861 0.0670 284.3
[000:00:27] Gen 87 best/avg/worst/avg_ft/ft_div/avg_size -/+ 74.3295/92.5000 -/+ 71.5087/68.1513 -/+ 92.3372/2.5000 0.6865 0.0672 288.9
[000:00:28] Gen 88 best/avg/worst/avg_ft/ft_div/avg_size -/+ 74.3295/92.5000 -/+ 71.5384/68.1470 -/+ 90.4215/2.5000 0.6865 0.0676 293.4
[000:00:28] Gen 89 best/avg/worst/avg_ft/ft_div/avg_size -/+ 74.3295/92.5000 -/+ 71.7033/68.1370 -/+ 64.5594/2.5000 0.6872 0.0680 298.0
[000:00:29] Gen 90 best/avg/worst/avg_ft/ft_div/avg_size -/+ 74.3295/92.5000 -/+ 71.5359/68.4683 -/+ 64.5594/2.5000 0.6887 0.0670 300.7
[000:00:29] Gen 91 best/avg/worst/avg_ft/ft_div/avg_size -/+ 74.3295/92.5000 -/+ 71.8049/68.1300 -/+ 90.4215/2.5000 0.6876 0.0681 303.5
[000:00:29] Gen 92 best/avg/worst/avg_ft/ft_div/avg_size -/+ 79.8851/92.5000 -/+ 71.8489/68.2073 -/+ 92.7203/2.5000 0.6882 0.0679 306.3
[000:00:30] Gen 93 best/avg/worst/avg_ft/ft_div/avg_size -/+ 79.8851/92.5000 -/+ 71.8252/68.3919 -/+ 91.7625/2.5000 0.6893 0.0671 309.3
[000:00:30] Gen 94 best/avg/worst/avg_ft/ft_div/avg_size -/+ 79.8851/92.5000 -/+ 71.8885/68.2314 -/+ 91.7625/2.5000 0.6883 0.0682 313.8
[000:00:31] Gen 95 best/avg/worst/avg_ft/ft_div/avg_size -/+ 79.8851/92.5000 -/+ 71.9323/68.3520 -/+ 86.7816/2.5000 0.6892 0.0679 315.8
[000:00:31] Gen 96 best/avg/worst/avg_ft/ft_div/avg_size -/+ 79.8851/92.5000 -/+ 71.7996/68.6175 -/+ 79.5019/2.5000 0.6900 0.0543 320.7
[000:00:32] Gen 97 best/avg/worst/avg_ft/ft_div/avg_size -/+ 72.2222/95.0000 -/+ 72.2538/69.1750 -/+ 88.6973/2.5000 0.6979 0.0604 322.5
[000:00:32] Gen 98 best/avg/worst/avg_ft/ft_div/avg_size -/+ 72.2222/95.0000 -/+ 72.0809/68.8992 -/+ 88.6973/2.5000 0.6943 0.0643 326.7
[000:00:33] Gen 99 best/avg/worst/avg_ft/ft_div/avg_size -/+ 79.8851/92.5000 -/+ 72.0679/68.6739 -/+ 90.6130/2.5000 0.6922 0.0663 329.7
[000:00:33] Gen 100 best/avg/worst/avg_ft/ft_div/avg_size -/+ 79.8851/92.5000 -/+ 71.9817/68.6325 -/+ 80.6513/2.5000 0.6911 0.0678 331.1
[000:00:34] Gen 101 best/avg/worst/avg_ft/ft_div/avg_size -/+ 79.8851/92.5000 -/+ 72.0395/68.7309 -/+ 80.6513/2.5000 0.6917 0.0678 333.7
[000:00:34] Gen 102 best/avg/worst/avg_ft/ft_div/avg_size -/+ 79.8851/92.5000 -/+ 72.0869/68.8348 -/+ 80.6513/2.5000 0.6928 0.0675 335.8
[000:00:35] Gen 103 best/avg/worst/avg_ft/ft_div/avg_size -/+ 79.8851/92.5000 -/+ 72.1798/68.9030 -/+ 80.6513/2.5000 0.6941 0.0664 339.4
[000:00:35] Gen 104 best/avg/worst/avg_ft/ft_div/avg_size -/+ 79.8851/92.5000 -/+ 72.2175/68.9578 -/+ 91.7625/2.5000 0.6944 0.0664 340.3
[000:00:36] Gen 105 best/avg/worst/avg_ft/ft_div/avg_size -/+ 79.8851/92.5000 -/+ 72.1654/69.1130 -/+ 78.3525/2.5000 0.6953 0.0661 341.3
[000:00:36] Gen 106 best/avg/worst/avg_ft/ft_div/avg_size -/+ 72.4138/97.5000 -/+ 72.0461/69.1414 -/+ 65.7088/2.5000 0.6945 0.0674 343.0
[000:00:37] Gen 107 best/avg/worst/avg_ft/ft_div/avg_size -/+ 72.4138/97.5000 -/+ 72.1631/69.0297 -/+ 92.3372/2.5000 0.6942 0.0678 346.5
[000:00:38] Gen 108 best/avg/worst/avg_ft/ft_div/avg_size -/+ 72.4138/97.5000 -/+ 72.4394/68.7664 -/+ 65.7088/2.5000 0.6939 0.0686 348.8
[000:00:38] Gen 109 best/avg/worst/avg_ft/ft_div/avg_size -/+ 72.4138/97.5000 -/+ 72.3188/69.0139 -/+ 90.2299/2.5000 0.6947 0.0681 350.7
[000:00:39] Gen 110 best/avg/worst/avg_ft/ft_div/avg_size -/+ 72.4138/97.5000 -/+ 72.4355/69.0614 -/+ 65.7088/2.5000 0.6956 0.0676 352.8
[000:00:39] Gen 111 best/avg/worst/avg_ft/ft_div/avg_size -/+ 72.4138/97.5000 -/+ 72.3292/68.9684 -/+ 65.7088/2.5000 0.6944 0.0685 353.7
[000:00:40] Gen 112 best/avg/worst/avg_ft/ft_div/avg_size -/+ 72.4138/97.5000 -/+ 72.2804/69.0600 -/+ 65.7088/2.5000 0.6948 0.0545 356.0
[000:00:40] Gen 113 best/avg/worst/avg_ft/ft_div/avg_size -/+ 72.4138/97.5000 -/+ 72.6481/69.6388 -/+ 86.7816/2.5000 0.7021 0.0615 358.6
[000:00:41] Gen 114 best/avg/worst/avg_ft/ft_div/avg_size -/+ 72.4138/97.5000 -/+ 72.4567/69.4188 -/+ 89.8467/2.5000 0.6985 0.0652 359.2
[000:00:41] Gen 115 best/avg/worst/avg_ft/ft_div/avg_size -/+ 72.4138/97.5000 -/+ 72.4635/69.4258 -/+ 86.9732/2.5000 0.6979 0.0666 362.9
[000:00:42] Gen 116 best/avg/worst/avg_ft/ft_div/avg_size -/+ 72.6054/97.5000 -/+ 72.3838/69.2653 -/+ 89.2720/2.5000 0.6964 0.0682 364.7
[000:00:42] Gen 117 best/avg/worst/avg_ft/ft_div/avg_size -/+ 72.6054/97.5000 -/+ 72.3544/69.1567 -/+ 94.6360/2.5000 0.6955 0.0688 369.9
[000:00:43] Gen 118 best/avg/worst/avg_ft/ft_div/avg_size -/+ 72.6054/97.5000 -/+ 72.4765/69.1525 -/+ 86.0153/2.5000 0.6960 0.0692 372.4
[000:00:44] Gen 119 best/avg/worst/avg_ft/ft_div/avg_size -/+ 72.6054/97.5000 -/+ 72.5067/69.2797 -/+ 71.6475/2.5000 0.6971 0.0683 373.8
[000:00:44] Gen 120 best/avg/worst/avg_ft/ft_div/avg_size -/+ 72.6054/97.5000 -/+ 72.4276/69.3937 -/+ 71.6475/2.5000 0.6972 0.0684 375.2
[000:00:45] Gen 121 best/avg/worst/avg_ft/ft_div/avg_size -/+ 72.6054/97.5000 -/+ 72.4680/69.5716 -/+ 93.8697/2.5000 0.6983 0.0680 377.5
[000:00:45] Gen 122 best/avg/worst/avg_ft/ft_div/avg_size -/+ 72.6054/97.5000 -/+ 72.5094/69.5864 -/+ 87.3563/2.5000 0.6990 0.0675 380.0
[000:00:46] Gen 123 best/avg/worst/avg_ft/ft_div/avg_size -/+ 72.6054/97.5000 -/+ 72.4361/69.4409 -/+ 83.7165/2.5000 0.6974 0.0690 381.5
[000:00:46] Gen 124 best/avg/worst/avg_ft/ft_div/avg_size -/+ 72.6054/97.5000 -/+ 72.5674/69.4302 -/+ 88.3142/2.5000 0.6979 0.0684 382.0
[000:00:47] Gen 125 best/avg/worst/avg_ft/ft_div/avg_size -/+ 72.6054/97.5000 -/+ 72.5746/69.4411 -/+ 84.8659/2.5000 0.6983 0.0684 384.7
[000:00:48] Gen 126 best/avg/worst/avg_ft/ft_div/avg_size -/+ 72.6054/97.5000 -/+ 72.4092/69.7759 -/+ 84.8659/2.5000 0.6989 0.0684 383.8
[000:00:48] Gen 127 best/avg/worst/avg_ft/ft_div/avg_size -/+ 72.6054/97.5000 -/+ 72.3988/69.7250 -/+ 84.8659/2.5000 0.6981 0.0694 384.8
[000:00:49] Gen 128 best/avg/worst/avg_ft/ft_div/avg_size -/+ 72.6054/97.5000 -/+ 72.5494/69.7127 -/+ 84.8659/2.5000 0.6991 0.0550 387.0
[000:00:49] Gen 129 best/avg/worst/avg_ft/ft_div/avg_size -/+ 72.6054/97.5000 -/+ 72.9138/70.1314 -/+ 94.6360/2.5000 0.7055 0.0625 388.9
[000:00:50] Gen 130 best/avg/worst/avg_ft/ft_div/avg_size -/+ 72.6054/97.5000 -/+ 72.7653/69.8958 -/+ 84.8659/2.5000 0.7029 0.0651 389.9
[000:00:51] Gen 131 best/avg/worst/avg_ft/ft_div/avg_size -/+ 72.6054/97.5000 -/+ 72.7758/69.8941 -/+ 92.5287/2.5000 0.7023 0.0662 392.1
[000:00:51] Gen 132 best/avg/worst/avg_ft/ft_div/avg_size -/+ 72.6054/97.5000 -/+ 72.7543/69.6756 -/+ 92.5287/2.5000 0.7006 0.0676 392.6
[000:00:52] Gen 133 best/avg/worst/avg_ft/ft_div/avg_size -/+ 72.6054/97.5000 -/+ 72.5373/69.8891 -/+ 67.6245/2.5000 0.7007 0.0676 395.5
[000:00:52] Gen 134 best/avg/worst/avg_ft/ft_div/avg_size -/+ 72.6054/97.5000 -/+ 72.5811/69.9242 -/+ 79.3103/2.5000 0.7007 0.0682 396.4
[000:00:53] Gen 135 best/avg/worst/avg_ft/ft_div/avg_size -/+ 72.6054/97.5000 -/+ 72.7692/69.9308 -/+ 79.3103/2.5000 0.7019 0.0672 396.5
[000:00:54] Gen 136 best/avg/worst/avg_ft/ft_div/avg_size -/+ 72.6054/97.5000 -/+ 72.6680/69.9667 -/+ 79.3103/2.5000 0.7015 0.0679 396.6
[000:00:54] Gen 137 best/avg/worst/avg_ft/ft_div/avg_size -/+ 72.6054/97.5000 -/+ 72.7276/69.9320 -/+ 76.4368/2.5000 0.7020 0.0677 397.5
[000:00:55] Gen 138 best/avg/worst/avg_ft/ft_div/avg_size -/+ 72.6054/97.5000 -/+ 72.6263/69.9931 -/+ 76.4368/2.5000 0.7019 0.0677 398.8
[000:00:55] Gen 139 best/avg/worst/avg_ft/ft_div/avg_size -/+ 72.6054/97.5000 -/+ 72.6458/70.1203 -/+ 84.2912/2.5000 0.7024 0.0675 401.3
[000:00:56] Gen 140 best/avg/worst/avg_ft/ft_div/avg_size -/+ 72.6054/97.5000 -/+ 72.6462/70.1969 -/+ 84.2912/2.5000 0.7024 0.0681 402.5
[000:00:57] Gen 141 best/avg/worst/avg_ft/ft_div/avg_size -/+ 72.6054/97.5000 -/+ 72.7363/70.2477 -/+ 92.3372/2.5000 0.7033 0.0675 403.1
[000:00:57] Gen 142 best/avg/worst/avg_ft/ft_div/avg_size -/+ 72.6054/97.5000 -/+ 72.8051/70.2509 -/+ 92.5287/2.5000 0.7033 0.0680 407.1
[000:00:58] Gen 143 best/avg/worst/avg_ft/ft_div/avg_size -/+ 72.6054/97.5000 -/+ 72.7120/70.2436 -/+ 92.5287/2.5000 0.7025 0.0692 409.1
[000:00:58] Gen 144 best/avg/worst/avg_ft/ft_div/avg_size -/+ 72.6054/97.5000 -/+ 72.7158/70.2264 -/+ 88.5057/2.5000 0.7027 0.0553 409.8
[000:00:59] Gen 145 best/avg/worst/avg_ft/ft_div/avg_size -/+ 72.6054/97.5000 -/+ 73.0683/70.7220 -/+ 91.5709/2.5000 0.7095 0.0624 412.6
[000:01:00] Gen 146 best/avg/worst/avg_ft/ft_div/avg_size -/+ 72.6054/97.5000 -/+ 73.0491/70.6084 -/+ 94.4444/2.5000 0.7081 0.0642 413.6
[000:01:00] Gen 147 best/avg/worst/avg_ft/ft_div/avg_size -/+ 72.6054/97.5000 -/+ 73.0190/70.4342 -/+ 86.7816/2.5000 0.7064 0.0658 416.8
[000:01:01] Gen 148 best/avg/worst/avg_ft/ft_div/avg_size -/+ 72.6054/97.5000 -/+ 73.0146/70.4153 -/+ 57.6628/2.5000 0.7060 0.0662 418.5
[000:01:02] Gen 149 best/avg/worst/avg_ft/ft_div/avg_size -/+ 72.6054/97.5000 -/+ 73.0034/70.4172 -/+ 88.5057/2.5000 0.7059 0.0665 419.7
[000:01:02] Gen 150 best/avg/worst/avg_ft/ft_div/avg_size -/+ 72.6054/97.5000 -/+ 72.9059/70.4205 -/+ 89.8467/2.5000 0.7056 0.0666 421.5
[000:01:03] Gen 151 best/avg/worst/avg_ft/ft_div/avg_size -/+ 72.6054/97.5000 -/+ 72.9744/70.3869 -/+ 90.4215/2.5000 0.7057 0.0667 424.1
[000:01:03] Gen 152 best/avg/worst/avg_ft/ft_div/avg_size -/+ 72.6054/97.5000 -/+ 73.0277/70.5884 -/+ 90.4215/2.5000 0.7067 0.0668 427.1
[000:01:04] Gen 153 best/avg/worst/avg_ft/ft_div/avg_size -/+ 72.6054/97.5000 -/+ 73.0528/70.5563 -/+ 81.8008/2.5000 0.7069 0.0665 425.7
[000:01:05] Gen 154 best/avg/worst/avg_ft/ft_div/avg_size -/+ 72.6054/97.5000 -/+ 73.1567/70.4211 -/+ 81.8008/2.5000 0.7066 0.0668 425.3
[000:01:05] Gen 155 best/avg/worst/avg_ft/ft_div/avg_size -/+ 72.6054/97.5000 -/+ 73.1395/70.4453 -/+ 84.6743/2.5000 0.7063 0.0671 426.4
[000:01:06] Gen 156 best/avg/worst/avg_ft/ft_div/avg_size -/+ 72.6054/97.5000 -/+ 73.3455/70.1398 -/+ 85.8238/2.5000 0.7053 0.0684 428.0
[000:01:07] Gen 157 best/avg/worst/avg_ft/ft_div/avg_size -/+ 72.6054/97.5000 -/+ 73.4125/70.2358 -/+ 85.8238/2.5000 0.7064 0.0678 427.6
[000:01:07] Gen 158 best/avg/worst/avg_ft/ft_div/avg_size -/+ 72.6054/97.5000 -/+ 73.2472/70.4359 -/+ 84.2912/2.5000 0.7070 0.0675 429.6
[000:01:08] Gen 159 best/avg/worst/avg_ft/ft_div/avg_size -/+ 72.6054/97.5000 -/+ 73.3545/70.3592 -/+ 84.2912/2.5000 0.7072 0.0674 433.7
[000:01:09] Gen 160 best/avg/worst/avg_ft/ft_div/avg_size -/+ 72.6054/97.5000 -/+ 73.3929/70.3853 -/+ 81.6092/2.5000 0.7075 0.0539 434.7
[000:01:09] Gen 161 best/avg/worst/avg_ft/ft_div/avg_size -/+ 72.6054/97.5000 -/+ 73.7275/70.9230 -/+ 81.2261/2.5000 0.7145 0.0605 436.9
[000:01:10] Gen 162 best/avg/worst/avg_ft/ft_div/avg_size -/+ 72.6054/97.5000 -/+ 73.6043/70.7128 -/+ 81.2261/2.5000 0.7116 0.0637 436.8
[000:01:11] Gen 163 best/avg/worst/avg_ft/ft_div/avg_size -/+ 72.6054/97.5000 -/+ 73.4565/70.6994 -/+ 82.5670/2.5000 0.7107 0.0649 438.6
[000:01:11] Gen 164 best/avg/worst/avg_ft/ft_div/avg_size -/+ 72.6054/97.5000 -/+ 73.3969/70.5344 -/+ 82.5670/2.5000 0.7084 0.0670 437.8
[000:01:12] Gen 165 best/avg/worst/avg_ft/ft_div/avg_size -/+ 72.6054/97.5000 -/+ 73.4122/70.6241 -/+ 90.8046/2.5000 0.7095 0.0663 437.7
[000:01:13] Gen 166 best/avg/worst/avg_ft/ft_div/avg_size -/+ 72.6054/97.5000 -/+ 73.4591/70.5078 -/+ 59.7701/2.5000 0.7090 0.0666 438.3
[000:01:13] Gen 167 best/avg/worst/avg_ft/ft_div/avg_size -/+ 72.6054/97.5000 -/+ 73.4100/70.5581 -/+ 86.0153/2.5000 0.7087 0.0673 441.2
[000:01:14] Gen 168 best/avg/worst/avg_ft/ft_div/avg_size -/+ 72.6054/97.5000 -/+ 73.4729/70.6756 -/+ 86.0153/2.5000 0.7099 0.0661 444.2
[000:01:15] Gen 169 best/avg/worst/avg_ft/ft_div/avg_size -/+ 72.6054/97.5000 -/+ 73.5411/70.6152 -/+ 86.0153/2.5000 0.7099 0.0664 446.6
[000:01:16] Gen 170 best/avg/worst/avg_ft/ft_div/avg_size -/+ 72.6054/97.5000 -/+ 73.4789/70.6670 -/+ 86.0153/2.5000 0.7096 0.0667 447.9
[000:01:16] Gen 171 best/avg/worst/avg_ft/ft_div/avg_size -/+ 72.6054/97.5000 -/+ 73.5833/70.7148 -/+ 81.0345/2.5000 0.7105 0.0661 452.2
[000:01:17] Gen 172 best/avg/worst/avg_ft/ft_div/avg_size -/+ 72.6054/97.5000 -/+ 73.5348/70.6831 -/+ 81.0345/2.5000 0.7102 0.0668 452.1
[000:01:18] Gen 173 best/avg/worst/avg_ft/ft_div/avg_size -/+ 79.6935/92.5000 -/+ 73.4808/70.7766 -/+ 85.6322/2.5000 0.7102 0.0672 453.0
[000:01:18] Gen 174 best/avg/worst/avg_ft/ft_div/avg_size -/+ 79.6935/92.5000 -/+ 73.4692/70.9425 -/+ 90.2299/2.5000 0.7111 0.0670 453.4
[000:01:19] Gen 175 best/avg/worst/avg_ft/ft_div/avg_size -/+ 80.2682/92.5000 -/+ 73.4900/70.9636 -/+ 84.8659/2.5000 0.7111 0.0670 455.5
[000:01:20] Gen 176 best/avg/worst/avg_ft/ft_div/avg_size -/+ 80.2682/92.5000 -/+ 73.5750/70.8902 -/+ 90.6130/2.5000 0.7108 0.0537 455.5
[000:01:20] Gen 177 best/avg/worst/avg_ft/ft_div/avg_size -/+ 80.2682/92.5000 -/+ 73.9756/71.1675 -/+ 90.8046/2.5000 0.7170 0.0609 459.0
[000:01:21] Gen 178 best/avg/worst/avg_ft/ft_div/avg_size -/+ 79.6935/92.5000 -/+ 73.7458/70.9545 -/+ 94.2529/2.5000 0.7138 0.0642 460.0
[000:01:22] Gen 179 best/avg/worst/avg_ft/ft_div/avg_size -/+ 79.6935/92.5000 -/+ 73.6554/70.9795 -/+ 90.0383/2.5000 0.7130 0.0653 459.9
[000:01:23] Gen 180 best/avg/worst/avg_ft/ft_div/avg_size -/+ 79.6935/92.5000 -/+ 73.6243/71.0942 -/+ 90.0383/2.5000 0.7132 0.0657 460.0
[000:01:23] Gen 181 best/avg/worst/avg_ft/ft_div/avg_size -/+ 79.6935/92.5000 -/+ 73.6377/71.0709 -/+ 89.6552/2.5000 0.7132 0.0657 460.2
[000:01:24] Gen 182 best/avg/worst/avg_ft/ft_div/avg_size -/+ 79.6935/92.5000 -/+ 73.6166/71.0269 -/+ 90.4215/2.5000 0.7127 0.0659 459.1
[000:01:25] Gen 183 best/avg/worst/avg_ft/ft_div/avg_size -/+ 79.6935/92.5000 -/+ 73.6646/70.9506 -/+ 90.4215/2.5000 0.7124 0.0663 458.1
[000:01:25] Gen 184 best/avg/worst/avg_ft/ft_div/avg_size -/+ 79.6935/92.5000 -/+ 73.7025/71.0723 -/+ 90.4215/2.5000 0.7134 0.0660 458.3
[000:01:26] Gen 185 best/avg/worst/avg_ft/ft_div/avg_size -/+ 79.6935/92.5000 -/+ 73.6314/70.9900 -/+ 84.4828/2.5000 0.7124 0.0668 457.9
[000:01:27] Gen 186 best/avg/worst/avg_ft/ft_div/avg_size -/+ 79.6935/92.5000 -/+ 73.9062/70.8641 -/+ 79.1188/2.5000 0.7128 0.0669 460.1
[000:01:27] Gen 187 best/avg/worst/avg_ft/ft_div/avg_size -/+ 79.6935/92.5000 -/+ 73.7105/71.1402 -/+ 80.0766/2.5000 0.7133 0.0666 461.3
[000:01:28] Gen 188 best/avg/worst/avg_ft/ft_div/avg_size -/+ 79.6935/92.5000 -/+ 73.7321/71.1922 -/+ 88.1226/2.5000 0.7142 0.0660 461.4
[000:01:29] Gen 189 best/avg/worst/avg_ft/ft_div/avg_size -/+ 79.6935/92.5000 -/+ 73.7220/71.3011 -/+ 88.1226/2.5000 0.7143 0.0666 461.9
[000:01:29] Gen 190 best/avg/worst/avg_ft/ft_div/avg_size -/+ 79.6935/92.5000 -/+ 73.7167/71.1836 -/+ 85.0575/2.5000 0.7134 0.0671 463.4
[000:01:30] Gen 191 best/avg/worst/avg_ft/ft_div/avg_size -/+ 79.6935/92.5000 -/+ 73.8020/71.2169 -/+ 85.0575/2.5000 0.7143 0.0667 465.9
[000:01:31] Gen 192 best/avg/worst/avg_ft/ft_div/avg_size -/+ 79.6935/92.5000 -/+ 73.7621/71.1530 -/+ 80.0766/2.5000 0.7135 0.0541 464.1
[000:01:32] Gen 193 best/avg/worst/avg_ft/ft_div/avg_size -/+ 79.6935/92.5000 -/+ 74.1515/71.4755 -/+ 98.0843/2.5000 0.7194 0.0616 466.9
[000:01:32] Gen 194 best/avg/worst/avg_ft/ft_div/avg_size -/+ 79.6935/92.5000 -/+ 73.9667/71.3156 -/+ 70.3065/2.5000 0.7164 0.0647 467.0
[000:01:33] Gen 195 best/avg/worst/avg_ft/ft_div/avg_size -/+ 79.6935/92.5000 -/+ 73.8032/71.3206 -/+ 70.3065/2.5000 0.7156 0.0654 467.3
[000:01:34] Gen 196 best/avg/worst/avg_ft/ft_div/avg_size -/+ 79.6935/92.5000 -/+ 73.7741/71.2256 -/+ 84.6743/2.5000 0.7143 0.0670 466.3
[000:01:34] Gen 197 best/avg/worst/avg_ft/ft_div/avg_size -/+ 78.7356/95.0000 -/+ 73.7704/71.2944 -/+ 86.5900/2.5000 0.7143 0.0676 468.8
[000:01:35] Gen 198 best/avg/worst/avg_ft/ft_div/avg_size -/+ 78.7356/95.0000 -/+ 73.8526/71.3766 -/+ 94.2529/2.5000 0.7153 0.0668 472.0
[000:01:36] Gen 199 best/avg/worst/avg_ft/ft_div/avg_size -/+ 78.7356/95.0000 -/+ 73.7975/71.3816 -/+ 91.1877/2.5000 0.7147 0.0675 473.4
[000:01:36] Gen 200 best/avg/worst/avg_ft/ft_div/avg_size -/+ 78.7356/95.0000 -/+ 73.7946/71.5275 -/+ 94.2529/2.5000 0.7159 0.0668 471.4
[000:01:37] Gen 201 best/avg/worst/avg_ft/ft_div/avg_size -/+ 78.7356/95.0000 -/+ 73.8377/71.6217 -/+ 77.2031/2.5000 0.7170 0.0659 475.5
[000:01:38] Gen 202 best/avg/worst/avg_ft/ft_div/avg_size -/+ 78.7356/95.0000 -/+ 73.7493/71.5552 -/+ 95.9770/2.5000 0.7161 0.0672 477.1
[000:01:39] Gen 203 best/avg/worst/avg_ft/ft_div/avg_size -/+ 78.7356/95.0000 -/+ 73.9028/71.4463 -/+ 95.9770/2.5000 0.7165 0.0668 478.0
[000:01:39] Gen 204 best/avg/worst/avg_ft/ft_div/avg_size -/+ 78.7356/95.0000 -/+ 74.0464/71.3872 -/+ 73.1801/2.5000 0.7172 0.0662 480.3
[000:01:40] Gen 205 best/avg/worst/avg_ft/ft_div/avg_size -/+ 78.7356/95.0000 -/+ 74.1421/71.2823 -/+ 88.3142/2.5000 0.7163 0.0671 479.5
[000:01:41] Gen 206 best/avg/worst/avg_ft/ft_div/avg_size -/+ 78.7356/95.0000 -/+ 73.9742/71.3383 -/+ 89.6552/2.5000 0.7159 0.0674 481.6
[000:01:42] Gen 207 best/avg/worst/avg_ft/ft_div/avg_size -/+ 78.7356/95.0000 -/+ 73.9580/71.2736 -/+ 89.6552/2.5000 0.7152 0.0681 480.7
[000:01:42] Gen 208 best/avg/worst/avg_ft/ft_div/avg_size -/+ 78.7356/95.0000 -/+ 73.9931/71.3159 -/+ 93.1034/2.5000 0.7160 0.0543 480.5
[000:01:43] Gen 209 best/avg/worst/avg_ft/ft_div/avg_size -/+ 78.7356/95.0000 -/+ 74.3085/71.9305 -/+ 87.7395/2.5000 0.7227 0.0609 482.0
[000:01:44] Gen 210 best/avg/worst/avg_ft/ft_div/avg_size -/+ 78.7356/95.0000 -/+ 74.0472/71.8327 -/+ 83.3333/2.5000 0.7202 0.0638 483.1
[000:01:44] Gen 211 best/avg/worst/avg_ft/ft_div/avg_size -/+ 78.7356/95.0000 -/+ 74.0637/71.5858 -/+ 83.3333/2.5000 0.7184 0.0657 483.1
[000:01:45] Gen 212 best/avg/worst/avg_ft/ft_div/avg_size -/+ 78.7356/95.0000 -/+ 74.1957/71.4923 -/+ 81.4176/2.5000 0.7183 0.0666 483.4
[000:01:46] Gen 213 best/avg/worst/avg_ft/ft_div/avg_size -/+ 78.7356/95.0000 -/+ 74.2285/71.3030 -/+ 80.2682/2.5000 0.7171 0.0671 484.4
[000:01:47] Gen 214 best/avg/worst/avg_ft/ft_div/avg_size -/+ 78.7356/95.0000 -/+ 74.1747/71.4417 -/+ 76.8199/2.5000 0.7177 0.0669 485.4
[000:01:47] Gen 215 best/avg/worst/avg_ft/ft_div/avg_size -/+ 78.7356/95.0000 -/+ 74.0006/71.3720 -/+ 80.2682/2.5000 0.7163 0.0685 484.2
[000:01:48] Gen 216 best/avg/worst/avg_ft/ft_div/avg_size -/+ 78.7356/95.0000 -/+ 74.0416/71.4894 -/+ 86.0153/2.5000 0.7172 0.0679 486.0
[000:01:49] Gen 217 best/avg/worst/avg_ft/ft_div/avg_size -/+ 78.7356/95.0000 -/+ 74.0005/71.3198 -/+ 86.0153/2.5000 0.7157 0.0690 484.9
[000:01:49] Gen 218 best/avg/worst/avg_ft/ft_div/avg_size -/+ 78.7356/95.0000 -/+ 73.8760/71.3783 -/+ 88.3142/2.5000 0.7154 0.0694 486.7
[000:01:50] Gen 219 best/avg/worst/avg_ft/ft_div/avg_size -/+ 78.7356/95.0000 -/+ 73.9152/71.5573 -/+ 86.3985/2.5000 0.7171 0.0682 489.2
[000:01:51] Gen 220 best/avg/worst/avg_ft/ft_div/avg_size -/+ 78.7356/95.0000 -/+ 73.9990/71.5550 -/+ 88.3142/2.5000 0.7176 0.0676 488.1
[000:01:52] Gen 221 best/avg/worst/avg_ft/ft_div/avg_size -/+ 78.7356/95.0000 -/+ 74.1275/71.5666 -/+ 89.2720/2.5000 0.7183 0.0674 488.1
[000:01:52] Gen 222 best/avg/worst/avg_ft/ft_div/avg_size -/+ 78.7356/95.0000 -/+ 74.0580/71.5473 -/+ 92.1456/2.5000 0.7175 0.0682 487.2
[000:01:53] Gen 223 best/avg/worst/avg_ft/ft_div/avg_size -/+ 78.7356/95.0000 -/+ 74.1253/71.6023 -/+ 85.6322/2.5000 0.7180 0.0678 488.4
[000:01:54] Gen 224 best/avg/worst/avg_ft/ft_div/avg_size -/+ 78.7356/95.0000 -/+ 74.0789/71.5423 -/+ 72.6054/2.5000 0.7174 0.0549 490.8
[000:01:55] Gen 225 best/avg/worst/avg_ft/ft_div/avg_size -/+ 78.7356/95.0000 -/+ 74.5241/72.0652 -/+ 93.1034/2.5000 0.7248 0.0610 494.5
[000:01:55] Gen 226 best/avg/worst/avg_ft/ft_div/avg_size -/+ 78.7356/95.0000 -/+ 74.3906/71.7102 -/+ 80.0766/2.5000 0.7209 0.0650 494.1
[000:01:56] Gen 227 best/avg/worst/avg_ft/ft_div/avg_size -/+ 78.7356/95.0000 -/+ 74.3488/71.6566 -/+ 80.0766/2.5000 0.7201 0.0661 494.3
[000:01:57] Gen 228 best/avg/worst/avg_ft/ft_div/avg_size -/+ 78.7356/95.0000 -/+ 74.2308/71.7895 -/+ 84.4828/2.5000 0.7202 0.0663 494.5
[000:01:57] Gen 229 best/avg/worst/avg_ft/ft_div/avg_size -/+ 78.7356/95.0000 -/+ 74.2289/71.5456 -/+ 91.5709/2.5000 0.7184 0.0683 495.6
[000:01:58] Gen 230 best/avg/worst/avg_ft/ft_div/avg_size -/+ 78.7356/95.0000 -/+ 74.0080/71.6678 -/+ 91.5709/2.5000 0.7179 0.0689 496.6
[000:01:59] Gen 231 best/avg/worst/avg_ft/ft_div/avg_size -/+ 78.7356/95.0000 -/+ 74.0427/71.5236 -/+ 91.5709/2.5000 0.7169 0.0695 496.4
[000:02:00] Gen 232 best/avg/worst/avg_ft/ft_div/avg_size -/+ 78.7356/95.0000 -/+ 74.0829/71.5492 -/+ 77.3946/2.5000 0.7175 0.0689 497.9
[000:02:00] Gen 233 best/avg/worst/avg_ft/ft_div/avg_size -/+ 78.7356/95.0000 -/+ 74.0832/71.5884 -/+ 91.3793/2.5000 0.7178 0.0687 496.5
[000:02:01] Gen 234 best/avg/worst/avg_ft/ft_div/avg_size -/+ 78.7356/95.0000 -/+ 74.1177/71.6803 -/+ 86.3985/2.5000 0.7185 0.0681 498.9
[000:02:02] Gen 235 best/avg/worst/avg_ft/ft_div/avg_size -/+ 78.7356/95.0000 -/+ 74.2246/71.6122 -/+ 95.2107/2.5000 0.7188 0.0679 500.3
[000:02:03] Gen 236 best/avg/worst/avg_ft/ft_div/avg_size -/+ 78.7356/95.0000 -/+ 74.1924/71.6148 -/+ 92.7203/2.5000 0.7184 0.0685 501.3
[000:02:03] Gen 237 best/avg/worst/avg_ft/ft_div/avg_size -/+ 78.7356/95.0000 -/+ 73.9961/71.6437 -/+ 93.1034/2.5000 0.7178 0.0690 500.4
[000:02:04] Gen 238 best/avg/worst/avg_ft/ft_div/avg_size -/+ 78.7356/95.0000 -/+ 74.1042/71.5181 -/+ 92.5287/2.5000 0.7178 0.0688 500.5
[000:02:05] Gen 239 best/avg/worst/avg_ft/ft_div/avg_size -/+ 77.0115/97.5000 -/+ 74.1534/71.6202 -/+ 94.0613/2.5000 0.7186 0.0685 500.9
[000:02:06] Gen 240 best/avg/worst/avg_ft/ft_div/avg_size -/+ 77.0115/97.5000 -/+ 74.0818/71.6730 -/+ 91.7625/2.5000 0.7183 0.0553 502.2
[000:02:06] Gen 241 best/avg/worst/avg_ft/ft_div/avg_size -/+ 77.0115/97.5000 -/+ 74.4770/72.0923 -/+ 94.8276/2.5000 0.7247 0.0618 507.0
[000:02:07] Gen 242 best/avg/worst/avg_ft/ft_div/avg_size -/+ 77.0115/97.5000 -/+ 74.3156/71.7731 -/+ 92.7203/2.5000 0.7211 0.0659 506.0
[000:02:08] Gen 243 best/avg/worst/avg_ft/ft_div/avg_size -/+ 77.0115/97.5000 -/+ 74.2092/71.5075 -/+ 80.4598/2.5000 0.7185 0.0686 504.9
[000:02:09] Gen 244 best/avg/worst/avg_ft/ft_div/avg_size -/+ 77.0115/97.5000 -/+ 74.0880/71.4284 -/+ 92.5287/2.5000 0.7171 0.0700 503.8
[000:02:09] Gen 245 best/avg/worst/avg_ft/ft_div/avg_size -/+ 77.0115/97.5000 -/+ 74.0913/71.6269 -/+ 86.2069/2.5000 0.7183 0.0694 503.5
[000:02:10] Gen 246 best/avg/worst/avg_ft/ft_div/avg_size -/+ 77.0115/97.5000 -/+ 74.2042/71.6433 -/+ 86.2069/2.5000 0.7188 0.0691 504.4
[000:02:11] Gen 247 best/avg/worst/avg_ft/ft_div/avg_size -/+ 77.0115/97.5000 -/+ 74.1163/71.6020 -/+ 93.2950/2.5000 0.7177 0.0701 504.6
[000:02:12] Gen 248 best/avg/worst/avg_ft/ft_div/avg_size -/+ 77.0115/97.5000 -/+ 74.1596/71.7977 -/+ 95.2107/2.5000 0.7192 0.0692 506.2
[000:02:12] Gen 249 best/avg/worst/avg_ft/ft_div/avg_size -/+ 77.0115/97.5000 -/+ 74.1228/71.8403 -/+ 88.6973/2.5000 0.7194 0.0689 506.8
[000:02:13] Gen 250 best/avg/worst/avg_ft/ft_div/avg_size -/+ 78.7356/95.0000 -/+ 74.0694/71.8800 -/+ 74.3295/2.5000 0.7193 0.0693 510.0
[000:02:14] Gen 251 best/avg/worst/avg_ft/ft_div/avg_size -/+ 78.7356/95.0000 -/+ 74.0966/71.8263 -/+ 74.3295/2.5000 0.7193 0.0691 510.5
[000:02:14] Gen 252 best/avg/worst/avg_ft/ft_div/avg_size -/+ 78.7356/95.0000 -/+ 74.0883/71.8766 -/+ 74.3295/2.5000 0.7195 0.0689 510.2
[000:02:15] Gen 253 best/avg/worst/avg_ft/ft_div/avg_size -/+ 79.1188/95.0000 -/+ 74.2383/71.8538 -/+ 74.3295/2.5000 0.7201 0.0683 508.9
[000:02:16] Gen 254 best/avg/worst/avg_ft/ft_div/avg_size -/+ 79.1188/95.0000 -/+ 74.3509/71.5870 -/+ 74.3295/2.5000 0.7189 0.0691 508.5
[000:02:17] Gen 255 best/avg/worst/avg_ft/ft_div/avg_size -/+ 79.1188/95.0000 -/+ 74.2442/71.6281 -/+ 92.5287/2.5000 0.7187 0.0694 507.8
[000:02:17] Gen 256 best/avg/worst/avg_ft/ft_div/avg_size -/+ 79.1188/95.0000 -/+ 74.1555/71.7492 -/+ 63.6015/2.5000 0.7191 0.0557 507.7
[000:02:18] Gen 257 best/avg/worst/avg_ft/ft_div/avg_size -/+ 79.1188/95.0000 -/+ 74.5143/72.1916 -/+ 71.6475/2.5000 0.7254 0.0627 513.0
[000:02:19] Gen 258 best/avg/worst/avg_ft/ft_div/avg_size -/+ 79.1188/95.0000 -/+ 74.3983/71.9798 -/+ 71.6475/2.5000 0.7226 0.0650 510.7
[000:02:20] Gen 259 best/avg/worst/avg_ft/ft_div/avg_size -/+ 79.1188/95.0000 -/+ 74.3767/71.9966 -/+ 71.6475/2.5000 0.7224 0.0660 510.5
[000:02:20] Gen 260 best/avg/worst/avg_ft/ft_div/avg_size -/+ 79.1188/95.0000 -/+ 74.1966/71.9148 -/+ 92.5287/2.5000 0.7206 0.0679 510.2
[000:02:21] Gen 261 best/avg/worst/avg_ft/ft_div/avg_size -/+ 79.6935/95.0000 -/+ 74.2405/72.0255 -/+ 86.5900/2.5000 0.7214 0.0671 511.0
[000:02:22] Gen 262 best/avg/worst/avg_ft/ft_div/avg_size -/+ 79.6935/95.0000 -/+ 74.3478/71.8900 -/+ 86.5900/2.5000 0.7207 0.0681 509.9
[000:02:23] Gen 263 best/avg/worst/avg_ft/ft_div/avg_size -/+ 79.6935/95.0000 -/+ 74.3783/71.8333 -/+ 87.1648/2.5000 0.7207 0.0679 510.1
[000:02:23] Gen 264 best/avg/worst/avg_ft/ft_div/avg_size -/+ 79.6935/95.0000 -/+ 74.3246/71.8841 -/+ 87.1648/2.5000 0.7204 0.0682 512.0
[000:02:24] Gen 265 best/avg/worst/avg_ft/ft_div/avg_size -/+ 79.6935/95.0000 -/+ 74.4622/71.8008 -/+ 88.5057/2.5000 0.7206 0.0685 516.6
[000:02:25] Gen 266 best/avg/worst/avg_ft/ft_div/avg_size -/+ 79.6935/95.0000 -/+ 74.2512/71.7138 -/+ 88.5057/2.5000 0.7189 0.0697 517.6
[000:02:26] Gen 267 best/avg/worst/avg_ft/ft_div/avg_size -/+ 79.6935/95.0000 -/+ 74.2298/71.8820 -/+ 88.5057/2.5000 0.7201 0.0689 516.0
[000:02:26] Gen 268 best/avg/worst/avg_ft/ft_div/avg_size -/+ 79.6935/95.0000 -/+ 74.2515/71.8936 -/+ 87.1648/2.5000 0.7204 0.0691 516.5
[000:02:27] Gen 269 best/avg/worst/avg_ft/ft_div/avg_size -/+ 79.6935/95.0000 -/+ 74.1440/72.0614 -/+ 74.1379/2.5000 0.7207 0.0689 517.1
[000:02:28] Gen 270 best/avg/worst/avg_ft/ft_div/avg_size -/+ 79.6935/95.0000 -/+ 74.2486/71.9184 -/+ 73.5632/2.5000 0.7203 0.0696 516.9
[000:02:29] Gen 271 best/avg/worst/avg_ft/ft_div/avg_size -/+ 79.6935/95.0000 -/+ 74.2700/71.9973 -/+ 84.8659/2.5000 0.7209 0.0691 517.2
[000:02:29] Gen 272 best/avg/worst/avg_ft/ft_div/avg_size -/+ 79.6935/95.0000 -/+ 74.2935/71.9580 -/+ 81.2261/2.5000 0.7207 0.0557 519.6
[000:02:30] Gen 273 best/avg/worst/avg_ft/ft_div/avg_size -/+ 79.6935/95.0000 -/+ 74.6793/72.4834 -/+ 92.5287/2.5000 0.7278 0.0624 523.9
[000:02:31] Gen 274 best/avg/worst/avg_ft/ft_div/avg_size -/+ 79.6935/95.0000 -/+ 74.4202/71.9880 -/+ 85.4406/2.5000 0.7225 0.0673 522.4
[000:02:32] Gen 275 best/avg/worst/avg_ft/ft_div/avg_size -/+ 79.6935/95.0000 -/+ 74.3409/71.8230 -/+ 81.2261/2.5000 0.7208 0.0688 522.2
[000:02:33] Gen 276 best/avg/worst/avg_ft/ft_div/avg_size -/+ 79.6935/95.0000 -/+ 74.4250/71.9161 -/+ 81.2261/2.5000 0.7217 0.0684 521.1
[000:02:33] Gen 277 best/avg/worst/avg_ft/ft_div/avg_size -/+ 79.6935/95.0000 -/+ 74.3833/71.8975 -/+ 81.2261/2.5000 0.7212 0.0687 522.2
[000:02:34] Gen 278 best/avg/worst/avg_ft/ft_div/avg_size -/+ 79.6935/95.0000 -/+ 74.4559/71.9227 -/+ 89.0805/2.5000 0.7212 0.0693 520.7
[000:02:35] Gen 279 best/avg/worst/avg_ft/ft_div/avg_size -/+ 79.6935/95.0000 -/+ 74.3914/72.1466 -/+ 89.0805/2.5000 0.7226 0.0679 520.0
[000:02:36] Gen 280 best/avg/worst/avg_ft/ft_div/avg_size -/+ 79.6935/95.0000 -/+ 74.5132/72.1347 -/+ 80.2682/2.5000 0.7230 0.0678 521.0
[000:02:36] Gen 281 best/avg/worst/avg_ft/ft_div/avg_size -/+ 79.6935/95.0000 -/+ 74.3460/72.0683 -/+ 91.1877/2.5000 0.7218 0.0687 519.4
[000:02:37] Gen 282 best/avg/worst/avg_ft/ft_div/avg_size -/+ 79.6935/95.0000 -/+ 74.5035/72.0625 -/+ 80.8429/2.5000 0.7222 0.0686 521.2
[000:02:38] Gen 283 best/avg/worst/avg_ft/ft_div/avg_size -/+ 79.6935/95.0000 -/+ 74.4856/72.0625 -/+ 89.8467/2.5000 0.7223 0.0685 520.9
[000:02:39] Gen 284 best/avg/worst/avg_ft/ft_div/avg_size -/+ 79.6935/95.0000 -/+ 74.4473/72.0022 -/+ 94.2529/2.5000 0.7218 0.0688 520.2
[000:02:39] Gen 285 best/avg/worst/avg_ft/ft_div/avg_size -/+ 79.6935/95.0000 -/+ 74.4363/72.0642 -/+ 94.6360/2.5000 0.7222 0.0686 522.3
[000:02:40] Gen 286 best/avg/worst/avg_ft/ft_div/avg_size -/+ 79.6935/95.0000 -/+ 74.3443/72.0877 -/+ 89.0805/2.5000 0.7217 0.0689 520.7
[000:02:41] Gen 287 best/avg/worst/avg_ft/ft_div/avg_size -/+ 79.6935/95.0000 -/+ 74.2701/72.2511 -/+ 87.9310/2.5000 0.7221 0.0688 521.3
[000:02:42] Gen 288 best/avg/worst/avg_ft/ft_div/avg_size -/+ 79.6935/95.0000 -/+ 74.3615/72.0944 -/+ 87.9310/2.5000 0.7217 0.0559 522.3
[000:02:42] Gen 289 best/avg/worst/avg_ft/ft_div/avg_size -/+ 79.6935/95.0000 -/+ 74.8102/72.3553 -/+ 80.0766/2.5000 0.7276 0.0631 527.1
[000:02:43] Gen 290 best/avg/worst/avg_ft/ft_div/avg_size -/+ 79.6935/95.0000 -/+ 74.6415/72.2113 -/+ 80.0766/2.5000 0.7249 0.0658 524.3
[000:02:44] Gen 291 best/avg/worst/avg_ft/ft_div/avg_size -/+ 79.6935/95.0000 -/+ 74.4648/72.1027 -/+ 80.0766/2.5000 0.7232 0.0681 523.8
[000:02:45] Gen 292 best/avg/worst/avg_ft/ft_div/avg_size -/+ 79.6935/95.0000 -/+ 74.4732/72.0297 -/+ 85.6322/2.5000 0.7226 0.0687 523.0
[000:02:45] Gen 293 best/avg/worst/avg_ft/ft_div/avg_size -/+ 79.6935/95.0000 -/+ 74.4414/72.0537 -/+ 80.6513/2.5000 0.7223 0.0690 521.5
[000:02:46] Gen 294 best/avg/worst/avg_ft/ft_div/avg_size -/+ 79.6935/95.0000 -/+ 74.4103/72.0967 -/+ 85.6322/2.5000 0.7221 0.0694 521.0
[000:02:47] Gen 295 best/avg/worst/avg_ft/ft_div/avg_size -/+ 79.6935/95.0000 -/+ 74.4403/72.1063 -/+ 93.6782/2.5000 0.7222 0.0695 521.5
[000:02:48] Gen 296 best/avg/worst/avg_ft/ft_div/avg_size -/+ 79.6935/95.0000 -/+ 74.3603/72.1552 -/+ 84.0996/2.5000 0.7224 0.0691 522.1
[000:02:48] Gen 297 best/avg/worst/avg_ft/ft_div/avg_size -/+ 79.6935/95.0000 -/+ 74.4507/72.3298 -/+ 84.0996/2.5000 0.7241 0.0679 522.0
[000:02:49] Gen 298 best/avg/worst/avg_ft/ft_div/avg_size -/+ 79.6935/95.0000 -/+ 74.5414/72.2180 -/+ 71.6475/2.5000 0.7237 0.0683 523.4
[000:02:50] Gen 299 best/avg/worst/avg_ft/ft_div/avg_size -/+ 79.6935/95.0000 -/+ 74.4753/72.1998 -/+ 65.1341/2.5000 0.7231 0.0683 521.4
[000:02:51] Gen 300 best/avg/worst/avg_ft/ft_div/avg_size -/+ 79.6935/95.0000 -/+ 74.4312/72.3923 -/+ 71.6475/2.5000 0.7243 0.0674 520.3
[000:02:51] Gen 301 best/avg/worst/avg_ft/ft_div/avg_size -/+ 79.6935/95.0000 -/+ 74.3970/72.4128 -/+ 81.8008/2.5000 0.7238 0.0678 520.9
[000:02:52] Gen 302 best/avg/worst/avg_ft/ft_div/avg_size -/+ 79.6935/95.0000 -/+ 74.4191/72.3034 -/+ 84.8659/2.5000 0.7230 0.0689 520.8
[000:02:53] Gen 303 best/avg/worst/avg_ft/ft_div/avg_size -/+ 79.6935/95.0000 -/+ 74.5278/72.3287 -/+ 81.6092/2.5000 0.7240 0.0683 523.9
[000:02:54] Gen 304 best/avg/worst/avg_ft/ft_div/avg_size -/+ 79.6935/95.0000 -/+ 74.5068/72.1830 -/+ 81.6092/2.5000 0.7228 0.0561 527.5
[000:02:54] Gen 305 best/avg/worst/avg_ft/ft_div/avg_size -/+ 79.6935/95.0000 -/+ 74.9541/72.7264 -/+ 90.4215/2.5000 0.7302 0.0623 533.4
[000:02:55] Gen 306 best/avg/worst/avg_ft/ft_div/avg_size -/+ 79.6935/95.0000 -/+ 74.7565/72.5658 -/+ 87.7395/2.5000 0.7274 0.0654 534.4
[000:02:56] Gen 307 best/avg/worst/avg_ft/ft_div/avg_size -/+ 79.6935/95.0000 -/+ 74.7485/72.4939 -/+ 71.6475/2.5000 0.7271 0.0656 533.4
[000:02:57] Gen 308 best/avg/worst/avg_ft/ft_div/avg_size -/+ 79.6935/95.0000 -/+ 74.7037/72.2609 -/+ 88.6973/2.5000 0.7253 0.0674 534.1
[000:02:57] Gen 309 best/avg/worst/avg_ft/ft_div/avg_size -/+ 79.6935/95.0000 -/+ 74.5761/72.1538 -/+ 84.8659/2.5000 0.7238 0.0686 533.0
[000:02:58] Gen 310 best/avg/worst/avg_ft/ft_div/avg_size -/+ 79.6935/95.0000 -/+ 74.6257/72.0569 -/+ 95.7854/2.5000 0.7234 0.0689 533.9
[000:02:59] Gen 311 best/avg/worst/avg_ft/ft_div/avg_size -/+ 79.6935/95.0000 -/+ 74.4594/72.2380 -/+ 92.3372/2.5000 0.7234 0.0690 532.6
[000:03:00] Gen 312 best/avg/worst/avg_ft/ft_div/avg_size -/+ 79.6935/95.0000 -/+ 74.4184/72.0598 -/+ 92.3372/2.5000 0.7222 0.0697 532.3
[000:03:01] Gen 313 best/avg/worst/avg_ft/ft_div/avg_size -/+ 79.6935/95.0000 -/+ 74.5250/72.2156 -/+ 78.9272/2.5000 0.7235 0.0690 530.2
[000:03:01] Gen 314 best/avg/worst/avg_ft/ft_div/avg_size -/+ 79.6935/95.0000 -/+ 74.6261/72.2361 -/+ 78.9272/2.5000 0.7242 0.0686 533.0
[000:03:02] Gen 315 best/avg/worst/avg_ft/ft_div/avg_size -/+ 79.6935/95.0000 -/+ 74.5757/72.2731 -/+ 78.9272/2.5000 0.7239 0.0688 534.1
[000:03:03] Gen 316 best/avg/worst/avg_ft/ft_div/avg_size -/+ 79.6935/95.0000 -/+ 74.6075/72.4075 -/+ 78.9272/2.5000 0.7250 0.0677 534.5
[000:03:04] Gen 317 best/avg/worst/avg_ft/ft_div/avg_size -/+ 79.6935/95.0000 -/+ 74.5300/72.4752 -/+ 78.9272/2.5000 0.7251 0.0680 533.0
[000:03:04] Gen 318 best/avg/worst/avg_ft/ft_div/avg_size -/+ 79.6935/95.0000 -/+ 74.5227/72.5503 -/+ 90.4215/2.5000 0.7254 0.0677 535.0
[000:03:05] Gen 319 best/avg/worst/avg_ft/ft_div/avg_size -/+ 79.6935/95.0000 -/+ 74.6997/72.4780 -/+ 83.3333/2.5000 0.7258 0.0679 538.0
[000:03:06] Gen 320 best/avg/worst/avg_ft/ft_div/avg_size -/+ 79.6935/95.0000 -/+ 74.5690/72.4027 -/+ 83.3333/2.5000 0.7246 0.0559 535.6
[000:03:07] Gen 321 best/avg/worst/avg_ft/ft_div/avg_size -/+ 79.6935/95.0000 -/+ 74.9695/72.7908 -/+ 94.6360/2.5000 0.7305 0.0634 541.9
[000:03:08] Gen 322 best/avg/worst/avg_ft/ft_div/avg_size -/+ 79.6935/95.0000 -/+ 74.7897/72.5147 -/+ 95.5939/2.5000 0.7271 0.0667 540.8
[000:03:08] Gen 323 best/avg/worst/avg_ft/ft_div/avg_size -/+ 79.6935/95.0000 -/+ 74.7236/72.4633 -/+ 86.2069/2.5000 0.7258 0.0681 541.7
[000:03:09] Gen 324 best/avg/worst/avg_ft/ft_div/avg_size -/+ 79.6935/95.0000 -/+ 74.7374/72.3936 -/+ 93.4866/2.5000 0.7254 0.0685 541.0
[000:03:10] Gen 325 best/avg/worst/avg_ft/ft_div/avg_size -/+ 79.6935/95.0000 -/+ 74.7221/72.4072 -/+ 92.7203/2.5000 0.7251 0.0690 541.1
[000:03:11] Gen 326 best/avg/worst/avg_ft/ft_div/avg_size -/+ 79.6935/95.0000 -/+ 74.6361/72.2689 -/+ 86.3985/2.5000 0.7239 0.0695 538.7
[000:03:11] Gen 327 best/avg/worst/avg_ft/ft_div/avg_size -/+ 79.6935/95.0000 -/+ 74.7503/72.3692 -/+ 86.3985/2.5000 0.7255 0.0686 538.5
[000:03:12] Gen 328 best/avg/worst/avg_ft/ft_div/avg_size -/+ 79.6935/95.0000 -/+ 74.7374/72.3455 -/+ 90.0383/2.5000 0.7251 0.0690 540.7
[000:03:13] Gen 329 best/avg/worst/avg_ft/ft_div/avg_size -/+ 79.6935/95.0000 -/+ 74.7969/72.2289 -/+ 90.0383/2.5000 0.7246 0.0694 539.7
[000:03:14] Gen 330 best/avg/worst/avg_ft/ft_div/avg_size -/+ 79.6935/95.0000 -/+ 74.7255/72.3253 -/+ 91.9540/2.5000 0.7247 0.0694 538.3
[000:03:14] Gen 331 best/avg/worst/avg_ft/ft_div/avg_size -/+ 79.6935/95.0000 -/+ 74.7691/72.3100 -/+ 95.7854/2.5000 0.7250 0.0691 536.8
[000:03:15] Gen 332 best/avg/worst/avg_ft/ft_div/avg_size -/+ 79.6935/95.0000 -/+ 74.6562/72.4019 -/+ 87.1648/2.5000 0.7247 0.0688 535.4
[000:03:16] Gen 333 best/avg/worst/avg_ft/ft_div/avg_size -/+ 79.6935/95.0000 -/+ 74.6388/72.3594 -/+ 89.4636/2.5000 0.7245 0.0690 535.9
[000:03:17] Gen 334 best/avg/worst/avg_ft/ft_div/avg_size -/+ 79.6935/95.0000 -/+ 74.7115/72.3497 -/+ 86.7816/2.5000 0.7252 0.0687 534.9
[000:03:18] Gen 335 best/avg/worst/avg_ft/ft_div/avg_size -/+ 79.6935/95.0000 -/+ 74.6974/72.2650 -/+ 70.6897/2.5000 0.7247 0.0689 535.4
[000:03:18] Gen 336 best/avg/worst/avg_ft/ft_div/avg_size -/+ 91.9540/92.5000 -/+ 74.6445/72.2783 -/+ 70.6897/2.5000 0.7242 0.0564 536.1
[000:03:19] Gen 337 best/avg/worst/avg_ft/ft_div/avg_size -/+ 91.9540/92.5000 -/+ 74.8924/72.8347 -/+ 82.9502/2.5000 0.7308 0.0631 540.9
[000:03:20] Gen 338 best/avg/worst/avg_ft/ft_div/avg_size -/+ 91.9540/92.5000 -/+ 74.7954/72.5358 -/+ 81.2261/2.5000 0.7276 0.0662 537.7
[000:03:21] Gen 339 best/avg/worst/avg_ft/ft_div/avg_size -/+ 91.9540/92.5000 -/+ 74.7090/72.6587 -/+ 83.9080/2.5000 0.7275 0.0667 535.6
[000:03:21] Gen 340 best/avg/worst/avg_ft/ft_div/avg_size -/+ 91.9540/92.5000 -/+ 74.7157/72.4561 -/+ 83.9080/2.5000 0.7258 0.0684 535.3
[000:03:22] Gen 341 best/avg/worst/avg_ft/ft_div/avg_size -/+ 91.9540/92.5000 -/+ 74.5984/72.4016 -/+ 86.0153/2.5000 0.7246 0.0694 535.7
[000:03:23] Gen 342 best/avg/worst/avg_ft/ft_div/avg_size -/+ 91.9540/92.5000 -/+ 74.6155/72.4298 -/+ 86.0153/2.5000 0.7249 0.0697 535.2
[000:03:24] Gen 343 best/avg/worst/avg_ft/ft_div/avg_size -/+ 91.9540/92.5000 -/+ 74.5166/72.5500 -/+ 86.0153/2.5000 0.7251 0.0694 536.4
[000:03:25] Gen 344 best/avg/worst/avg_ft/ft_div/avg_size -/+ 91.9540/92.5000 -/+ 74.6340/72.5520 -/+ 91.1877/2.5000 0.7257 0.0691 536.7
[000:03:25] Gen 345 best/avg/worst/avg_ft/ft_div/avg_size -/+ 91.9540/92.5000 -/+ 74.7186/72.4783 -/+ 91.1877/2.5000 0.7259 0.0689 535.2
[000:03:26] Gen 346 best/avg/worst/avg_ft/ft_div/avg_size -/+ 91.9540/92.5000 -/+ 74.7307/72.3975 -/+ 87.5479/2.5000 0.7254 0.0691 535.7
[000:03:27] Gen 347 best/avg/worst/avg_ft/ft_div/avg_size -/+ 91.9540/92.5000 -/+ 74.6384/72.4584 -/+ 83.9080/2.5000 0.7252 0.0692 536.4
[000:03:28] Gen 348 best/avg/worst/avg_ft/ft_div/avg_size -/+ 91.9540/92.5000 -/+ 74.7344/72.4992 -/+ 90.9962/2.5000 0.7259 0.0687 538.2
[000:03:28] Gen 349 best/avg/worst/avg_ft/ft_div/avg_size -/+ 91.9540/92.5000 -/+ 74.6819/72.4916 -/+ 90.9962/2.5000 0.7257 0.0689 538.2
[000:03:29] Gen 350 best/avg/worst/avg_ft/ft_div/avg_size -/+ 73.9464/95.0000 -/+ 74.7041/72.4923 -/+ 79.5019/2.5000 0.7256 0.0693 537.0
[000:03:30] Gen 351 best/avg/worst/avg_ft/ft_div/avg_size -/+ 73.9464/95.0000 -/+ 74.6568/72.5914 -/+ 79.5019/2.5000 0.7263 0.0688 537.2
[000:03:31] Gen 352 best/avg/worst/avg_ft/ft_div/avg_size -/+ 73.9464/95.0000 -/+ 74.6027/72.3387 -/+ 79.5019/2.5000 0.7241 0.0572 536.6
[000:03:32] Gen 353 best/avg/worst/avg_ft/ft_div/avg_size -/+ 80.4598/95.0000 -/+ 74.9143/72.9145 -/+ 81.8008/2.5000 0.7313 0.0635 541.4
[000:03:32] Gen 354 best/avg/worst/avg_ft/ft_div/avg_size -/+ 81.4176/95.0000 -/+ 74.8088/72.6591 -/+ 89.0805/2.5000 0.7283 0.0663 540.5
[000:03:33] Gen 355 best/avg/worst/avg_ft/ft_div/avg_size -/+ 81.4176/95.0000 -/+ 74.5986/72.4697 -/+ 86.2069/2.5000 0.7255 0.0688 539.6
[000:03:34] Gen 356 best/avg/worst/avg_ft/ft_div/avg_size -/+ 81.4176/95.0000 -/+ 74.6402/72.3939 -/+ 89.0805/2.5000 0.7252 0.0691 538.0
[000:03:35] Gen 357 best/avg/worst/avg_ft/ft_div/avg_size -/+ 81.4176/95.0000 -/+ 74.6749/72.4605 -/+ 90.6130/2.5000 0.7255 0.0687 540.1
[000:03:35] Gen 358 best/avg/worst/avg_ft/ft_div/avg_size -/+ 81.4176/95.0000 -/+ 74.5305/72.3598 -/+ 86.7816/2.5000 0.7240 0.0699 538.7
[000:03:36] Gen 359 best/avg/worst/avg_ft/ft_div/avg_size -/+ 81.4176/95.0000 -/+ 74.6175/72.2545 -/+ 86.7816/2.5000 0.7234 0.0709 540.2
[000:03:37] Gen 360 best/avg/worst/avg_ft/ft_div/avg_size -/+ 81.4176/95.0000 -/+ 74.6186/72.2906 -/+ 86.7816/2.5000 0.7239 0.0702 539.6
[000:03:38] Gen 361 best/avg/worst/avg_ft/ft_div/avg_size -/+ 81.4176/95.0000 -/+ 74.6479/72.4417 -/+ 88.1226/2.5000 0.7247 0.0701 539.1
[000:03:38] Gen 362 best/avg/worst/avg_ft/ft_div/avg_size -/+ 81.4176/95.0000 -/+ 74.6123/72.5145 -/+ 71.8391/2.5000 0.7253 0.0701 539.7
[000:03:39] Gen 363 best/avg/worst/avg_ft/ft_div/avg_size -/+ 81.4176/95.0000 -/+ 74.5479/72.7345 -/+ 76.2452/2.5000 0.7262 0.0695 540.0
[000:03:40] Gen 364 best/avg/worst/avg_ft/ft_div/avg_size -/+ 81.4176/95.0000 -/+ 74.6809/72.6752 -/+ 94.2529/2.5000 0.7268 0.0693 543.4
[000:03:41] Gen 365 best/avg/worst/avg_ft/ft_div/avg_size -/+ 81.4176/95.0000 -/+ 74.5251/72.6761 -/+ 82.7586/2.5000 0.7258 0.0703 542.4
[000:03:42] Gen 366 best/avg/worst/avg_ft/ft_div/avg_size -/+ 81.4176/95.0000 -/+ 74.5250/72.7691 -/+ 93.4866/2.5000 0.7263 0.0695 537.8
[000:03:42] Gen 367 best/avg/worst/avg_ft/ft_div/avg_size -/+ 81.4176/95.0000 -/+ 74.4697/72.8611 -/+ 94.8276/2.5000 0.7266 0.0694 539.9
[000:03:43] Gen 368 best/avg/worst/avg_ft/ft_div/avg_size -/+ 81.4176/95.0000 -/+ 74.5907/72.7189 -/+ 88.1226/2.5000 0.7264 0.0566 541.0
[000:03:44] Gen 369 best/avg/worst/avg_ft/ft_div/avg_size -/+ 81.4176/95.0000 -/+ 74.9098/73.0150 -/+ 53.8314/2.5000 0.7314 0.0645 547.4
[000:03:45] Gen 370 best/avg/worst/avg_ft/ft_div/avg_size -/+ 81.4176/95.0000 -/+ 74.7092/72.6442 -/+ 74.5211/2.5000 0.7272 0.0679 544.3
[000:03:46] Gen 371 best/avg/worst/avg_ft/ft_div/avg_size -/+ 81.4176/95.0000 -/+ 74.6558/72.6047 -/+ 74.5211/2.5000 0.7261 0.0696 542.4
[000:03:46] Gen 372 best/avg/worst/avg_ft/ft_div/avg_size -/+ 81.4176/95.0000 -/+ 74.6580/72.5878 -/+ 74.5211/2.5000 0.7259 0.0701 542.8
[000:03:47] Gen 373 best/avg/worst/avg_ft/ft_div/avg_size -/+ 81.4176/95.0000 -/+ 74.6009/72.8145 -/+ 79.8851/2.5000 0.7270 0.0691 539.6
[000:03:48] Gen 374 best/avg/worst/avg_ft/ft_div/avg_size -/+ 81.4176/95.0000 -/+ 74.5819/72.6664 -/+ 86.2069/2.5000 0.7256 0.0703 538.4
[000:03:49] Gen 375 best/avg/worst/avg_ft/ft_div/avg_size -/+ 81.4176/95.0000 -/+ 74.5735/72.6450 -/+ 86.2069/2.5000 0.7255 0.0706 537.1
[000:03:49] Gen 376 best/avg/worst/avg_ft/ft_div/avg_size -/+ 82.5670/95.0000 -/+ 74.5187/72.8255 -/+ 82.1839/2.5000 0.7265 0.0698 537.9
[000:03:50] Gen 377 best/avg/worst/avg_ft/ft_div/avg_size -/+ 82.5670/95.0000 -/+ 74.5181/72.8055 -/+ 82.1839/2.5000 0.7261 0.0699 537.2
[000:03:51] Gen 378 best/avg/worst/avg_ft/ft_div/avg_size -/+ 83.3333/95.0000 -/+ 74.4370/72.8962 -/+ 93.4866/2.5000 0.7266 0.0696 537.0
[000:03:52] Gen 379 best/avg/worst/avg_ft/ft_div/avg_size -/+ 83.3333/95.0000 -/+ 74.5839/72.7558 -/+ 85.6322/2.5000 0.7265 0.0700 538.6
[000:03:52] Gen 380 best/avg/worst/avg_ft/ft_div/avg_size -/+ 83.3333/95.0000 -/+ 74.5434/72.8123 -/+ 83.5249/2.5000 0.7265 0.0700 535.9
[000:03:53] Gen 381 best/avg/worst/avg_ft/ft_div/avg_size -/+ 83.3333/95.0000 -/+ 74.5282/72.9117 -/+ 76.6284/2.5000 0.7272 0.0694 535.3
[000:03:54] Gen 382 best/avg/worst/avg_ft/ft_div/avg_size -/+ 83.3333/95.0000 -/+ 74.5291/72.6559 -/+ 77.3946/2.5000 0.7256 0.0710 535.9
[000:03:55] Gen 383 best/avg/worst/avg_ft/ft_div/avg_size -/+ 83.3333/95.0000 -/+ 74.5704/72.7908 -/+ 81.8008/2.5000 0.7268 0.0698 537.1
[000:03:56] Gen 384 best/avg/worst/avg_ft/ft_div/avg_size -/+ 83.3333/95.0000 -/+ 74.5186/72.6381 -/+ 59.7701/2.5000 0.7254 0.0577 538.0
[000:03:56] Gen 385 best/avg/worst/avg_ft/ft_div/avg_size -/+ 82.5670/95.0000 -/+ 74.9216/73.1750 -/+ 87.5479/2.5000 0.7323 0.0642 543.3
[000:03:57] Gen 386 best/avg/worst/avg_ft/ft_div/avg_size -/+ 82.5670/95.0000 -/+ 74.8142/72.8427 -/+ 35.4406/2.5000 0.7287 0.0676 543.4
[000:03:58] Gen 387 best/avg/worst/avg_ft/ft_div/avg_size -/+ 82.5670/95.0000 -/+ 74.6566/72.6114 -/+ 35.4406/2.5000 0.7262 0.0703 543.1
[000:03:59] Gen 388 best/avg/worst/avg_ft/ft_div/avg_size -/+ 82.5670/95.0000 -/+ 74.6539/72.7250 -/+ 35.4406/2.5000 0.7268 0.0699 543.1
[000:03:59] Gen 389 best/avg/worst/avg_ft/ft_div/avg_size -/+ 82.5670/95.0000 -/+ 74.7799/72.8784 -/+ 88.8889/2.5000 0.7284 0.0689 542.5
[000:04:00] Gen 390 best/avg/worst/avg_ft/ft_div/avg_size -/+ 82.5670/95.0000 -/+ 74.8552/72.8398 -/+ 81.4176/2.5000 0.7281 0.0688 543.4
[000:04:01] Gen 391 best/avg/worst/avg_ft/ft_div/avg_size -/+ 82.5670/95.0000 -/+ 74.8213/72.9045 -/+ 97.3180/2.5000 0.7282 0.0689 543.3
[000:04:02] Gen 392 best/avg/worst/avg_ft/ft_div/avg_size -/+ 82.5670/95.0000 -/+ 74.8496/72.8103 -/+ 91.9540/2.5000 0.7281 0.0689 544.8
[000:04:03] Gen 393 best/avg/worst/avg_ft/ft_div/avg_size -/+ 82.5670/95.0000 -/+ 74.7449/72.8928 -/+ 80.4598/2.5000 0.7278 0.0693 543.7
[000:04:03] Gen 394 best/avg/worst/avg_ft/ft_div/avg_size -/+ 82.5670/95.0000 -/+ 74.7274/72.9458 -/+ 56.7050/2.5000 0.7281 0.0689 544.4
[000:04:04] Gen 395 best/avg/worst/avg_ft/ft_div/avg_size -/+ 82.5670/95.0000 -/+ 74.6765/72.9536 -/+ 91.5709/2.5000 0.7278 0.0692 543.9
[000:04:05] Gen 396 best/avg/worst/avg_ft/ft_div/avg_size -/+ 82.5670/95.0000 -/+ 74.6606/72.9014 -/+ 95.2107/2.5000 0.7274 0.0693 545.2
[000:04:06] Gen 397 best/avg/worst/avg_ft/ft_div/avg_size -/+ 82.5670/95.0000 -/+ 74.5094/72.9000 -/+ 86.0153/2.5000 0.7268 0.0702 546.0
[000:04:06] Gen 398 best/avg/worst/avg_ft/ft_div/avg_size -/+ 82.5670/95.0000 -/+ 74.5871/72.8902 -/+ 72.4138/2.5000 0.7270 0.0705 547.6
[000:04:07] Gen 399 best/avg/worst/avg_ft/ft_div/avg_size -/+ 82.5670/95.0000 -/+ 74.6298/72.6516 -/+ 72.4138/2.5000 0.7259 0.0706 543.3
[000:04:08] Gen 400 best/avg/worst/avg_ft/ft_div/avg_size -/+ 82.5670/95.0000 -/+ 74.7896/72.6422 -/+ 72.4138/2.5000 0.7268 0.0573 540.7
[000:04:09] Gen 401 best/avg/worst/avg_ft/ft_div/avg_size -/+ 82.5670/95.0000 -/+ 75.1045/73.0581 -/+ 86.9732/2.5000 0.7325 0.0639 544.8
[000:04:10] Gen 402 best/avg/worst/avg_ft/ft_div/avg_size -/+ 82.5670/95.0000 -/+ 74.9595/72.6606 -/+ 92.1456/2.5000 0.7283 0.0678 544.7
[000:04:10] Gen 403 best/avg/worst/avg_ft/ft_div/avg_size -/+ 82.5670/95.0000 -/+ 74.8560/72.6205 -/+ 65.9004/2.5000 0.7270 0.0699 541.6
[000:04:11] Gen 404 best/avg/worst/avg_ft/ft_div/avg_size -/+ 82.5670/95.0000 -/+ 74.7554/72.5730 -/+ 89.2720/2.5000 0.7256 0.0714 539.2
[000:04:12] Gen 405 best/avg/worst/avg_ft/ft_div/avg_size -/+ 82.5670/95.0000 -/+ 74.6903/72.7008 -/+ 90.4215/2.5000 0.7266 0.0702 539.5
[000:04:13] Gen 406 best/avg/worst/avg_ft/ft_div/avg_size -/+ 82.5670/95.0000 -/+ 74.7074/72.6811 -/+ 84.8659/2.5000 0.7265 0.0704 541.7
[000:04:14] Gen 407 best/avg/worst/avg_ft/ft_div/avg_size -/+ 82.5670/95.0000 -/+ 74.7463/72.6064 -/+ 84.8659/2.5000 0.7263 0.0708 542.4
[000:04:14] Gen 408 best/avg/worst/avg_ft/ft_div/avg_size -/+ 82.5670/95.0000 -/+ 74.8569/72.7113 -/+ 82.9502/2.5000 0.7275 0.0699 544.0
[000:04:15] Gen 409 best/avg/worst/avg_ft/ft_div/avg_size -/+ 82.5670/95.0000 -/+ 74.7662/72.8664 -/+ 59.3870/2.5000 0.7279 0.0699 542.8
[000:04:16] Gen 410 best/avg/worst/avg_ft/ft_div/avg_size -/+ 82.5670/95.0000 -/+ 74.7456/72.6752 -/+ 82.9502/2.5000 0.7266 0.0710 541.6
[000:04:17] Gen 411 best/avg/worst/avg_ft/ft_div/avg_size -/+ 82.5670/95.0000 -/+ 74.7550/72.9088 -/+ 89.8467/2.5000 0.7281 0.0697 542.5
[000:04:17] Gen 412 best/avg/worst/avg_ft/ft_div/avg_size -/+ 82.5670/95.0000 -/+ 74.7536/72.8873 -/+ 93.4866/2.5000 0.7281 0.0696 544.3
[000:04:18] Gen 413 best/avg/worst/avg_ft/ft_div/avg_size -/+ 82.5670/95.0000 -/+ 74.6875/72.8738 -/+ 93.4866/2.5000 0.7275 0.0700 546.6
[000:04:19] Gen 414 best/avg/worst/avg_ft/ft_div/avg_size -/+ 82.5670/95.0000 -/+ 74.6941/72.7147 -/+ 88.6973/2.5000 0.7266 0.0706 544.0
[000:04:20] Gen 415 best/avg/worst/avg_ft/ft_div/avg_size -/+ 82.5670/95.0000 -/+ 74.6541/72.7884 -/+ 87.1648/2.5000 0.7266 0.0711 544.6
[000:04:21] Gen 416 best/avg/worst/avg_ft/ft_div/avg_size -/+ 82.5670/95.0000 -/+ 74.7151/72.8027 -/+ 87.1648/2.5000 0.7272 0.0575 544.5
[000:04:22] Gen 417 best/avg/worst/avg_ft/ft_div/avg_size -/+ 82.5670/95.0000 -/+ 75.1142/73.3142 -/+ 88.5057/2.5000 0.7336 0.0645 549.0
[000:04:22] Gen 418 best/avg/worst/avg_ft/ft_div/avg_size -/+ 82.5670/95.0000 -/+ 75.0702/72.8330 -/+ 92.9119/2.5000 0.7299 0.0679 549.4
[000:04:23] Gen 419 best/avg/worst/avg_ft/ft_div/avg_size -/+ 82.5670/95.0000 -/+ 74.9076/72.7528 -/+ 93.2950/2.5000 0.7284 0.0689 548.0
[000:04:24] Gen 420 best/avg/worst/avg_ft/ft_div/avg_size -/+ 82.5670/95.0000 -/+ 74.9221/72.6583 -/+ 93.4866/2.5000 0.7277 0.0698 545.1
[000:04:25] Gen 421 best/avg/worst/avg_ft/ft_div/avg_size -/+ 82.5670/95.0000 -/+ 74.9216/72.4981 -/+ 48.6590/2.5000 0.7265 0.0707 545.1
[000:04:25] Gen 422 best/avg/worst/avg_ft/ft_div/avg_size -/+ 82.5670/95.0000 -/+ 74.8752/72.6180 -/+ 48.6590/2.5000 0.7267 0.0710 546.8
[000:04:26] Gen 423 best/avg/worst/avg_ft/ft_div/avg_size -/+ 82.5670/95.0000 -/+ 74.8960/72.5752 -/+ 48.6590/2.5000 0.7267 0.0713 547.1
[000:04:27] Gen 424 best/avg/worst/avg_ft/ft_div/avg_size -/+ 82.5670/95.0000 -/+ 74.8167/72.7156 -/+ 93.6782/2.5000 0.7271 0.0706 544.9
[000:04:28] Gen 425 best/avg/worst/avg_ft/ft_div/avg_size -/+ 82.5670/95.0000 -/+ 74.8293/72.6800 -/+ 84.6743/2.5000 0.7270 0.0710 544.7
[000:04:29] Gen 426 best/avg/worst/avg_ft/ft_div/avg_size -/+ 82.5670/95.0000 -/+ 74.7416/72.7234 -/+ 92.5287/2.5000 0.7268 0.0711 543.4
[000:04:29] Gen 427 best/avg/worst/avg_ft/ft_div/avg_size -/+ 82.5670/95.0000 -/+ 74.7397/72.7114 -/+ 80.6513/2.5000 0.7269 0.0707 545.2
[000:04:30] Gen 428 best/avg/worst/avg_ft/ft_div/avg_size -/+ 82.5670/95.0000 -/+ 74.7440/72.7214 -/+ 92.5287/2.5000 0.7267 0.0708 545.2
[000:04:31] Gen 429 best/avg/worst/avg_ft/ft_div/avg_size -/+ 82.5670/95.0000 -/+ 74.6674/72.7614 -/+ 78.3525/2.5000 0.7264 0.0713 547.8
[000:04:32] Gen 430 best/avg/worst/avg_ft/ft_div/avg_size -/+ 82.5670/95.0000 -/+ 74.7714/72.8041 -/+ 78.3525/2.5000 0.7274 0.0702 546.6
[000:04:33] Gen 431 best/avg/worst/avg_ft/ft_div/avg_size -/+ 82.5670/95.0000 -/+ 74.6777/72.6219 -/+ 63.4100/2.5000 0.7255 0.0719 546.2
[000:04:33] Gen 432 best/avg/worst/avg_ft/ft_div/avg_size -/+ 82.5670/95.0000 -/+ 74.7147/72.4553 -/+ 63.4100/2.5000 0.7245 0.0597 550.1
[000:04:34] Gen 433 best/avg/worst/avg_ft/ft_div/avg_size -/+ 82.5670/95.0000 -/+ 75.1680/72.9336 -/+ 89.0805/2.5000 0.7318 0.0657 552.3
[000:04:35] Gen 434 best/avg/worst/avg_ft/ft_div/avg_size -/+ 82.5670/95.0000 -/+ 74.9256/72.8375 -/+ 81.6092/2.5000 0.7291 0.0685 548.5
[000:04:36] Gen 435 best/avg/worst/avg_ft/ft_div/avg_size -/+ 82.5670/95.0000 -/+ 74.9477/72.7472 -/+ 80.6513/2.5000 0.7282 0.0698 547.5
[000:04:37] Gen 436 best/avg/worst/avg_ft/ft_div/avg_size -/+ 82.5670/95.0000 -/+ 74.9818/72.7561 -/+ 95.7854/2.5000 0.7282 0.0699 549.2
[000:04:37] Gen 437 best/avg/worst/avg_ft/ft_div/avg_size -/+ 82.5670/95.0000 -/+ 74.9479/72.6363 -/+ 94.4444/2.5000 0.7273 0.0710 547.3
[000:04:38] Gen 438 best/avg/worst/avg_ft/ft_div/avg_size -/+ 80.6513/95.0000 -/+ 74.9810/72.5895 -/+ 83.3333/2.5000 0.7273 0.0710 548.7
[000:04:39] Gen 439 best/avg/worst/avg_ft/ft_div/avg_size -/+ 80.6513/95.0000 -/+ 74.9798/72.5494 -/+ 83.3333/2.5000 0.7271 0.0713 550.3
[000:04:40] Gen 440 best/avg/worst/avg_ft/ft_div/avg_size -/+ 80.6513/95.0000 -/+ 74.8567/72.5503 -/+ 90.6130/2.5000 0.7262 0.0720 551.7
[000:04:41] Gen 441 best/avg/worst/avg_ft/ft_div/avg_size -/+ 80.6513/95.0000 -/+ 74.9706/72.6884 -/+ 90.6130/2.5000 0.7279 0.0708 550.9
[000:04:41] Gen 442 best/avg/worst/avg_ft/ft_div/avg_size -/+ 80.6513/95.0000 -/+ 75.0280/72.7197 -/+ 84.4828/2.5000 0.7283 0.0705 552.7
[000:04:42] Gen 443 best/avg/worst/avg_ft/ft_div/avg_size -/+ 80.6513/95.0000 -/+ 74.9162/72.6869 -/+ 84.4828/2.5000 0.7274 0.0707 551.6
[000:04:43] Gen 444 best/avg/worst/avg_ft/ft_div/avg_size -/+ 80.6513/95.0000 -/+ 74.9098/72.6027 -/+ 89.2720/2.5000 0.7269 0.0717 552.3
[000:04:44] Gen 445 best/avg/worst/avg_ft/ft_div/avg_size -/+ 80.6513/95.0000 -/+ 75.0356/72.6364 -/+ 53.6398/2.5000 0.7277 0.0713 551.6
[000:04:44] Gen 446 best/avg/worst/avg_ft/ft_div/avg_size -/+ 80.6513/95.0000 -/+ 75.0357/72.5266 -/+ 53.6398/2.5000 0.7269 0.0714 552.7
[000:04:45] Gen 447 best/avg/worst/avg_ft/ft_div/avg_size -/+ 80.6513/95.0000 -/+ 74.9347/72.5656 -/+ 81.4176/2.5000 0.7266 0.0714 549.4
[000:04:46] Gen 448 best/avg/worst/avg_ft/ft_div/avg_size -/+ 82.5670/95.0000 -/+ 75.1220/72.4472 -/+ 90.6130/2.5000 0.7267 0.0589 551.2
[000:04:47] Gen 449 best/avg/worst/avg_ft/ft_div/avg_size -/+ 82.5670/95.0000 -/+ 75.3642/72.9077 -/+ 92.7203/2.5000 0.7324 0.0656 552.1
[000:04:48] Gen 450 best/avg/worst/avg_ft/ft_div/avg_size -/+ 82.5670/95.0000 -/+ 75.0955/72.6841 -/+ 89.8467/2.5000 0.7288 0.0691 550.1
[000:04:48] Gen 451 best/avg/worst/avg_ft/ft_div/avg_size -/+ 82.5670/95.0000 -/+ 74.9992/72.5992 -/+ 90.0383/2.5000 0.7272 0.0710 553.6
[000:04:49] Gen 452 best/avg/worst/avg_ft/ft_div/avg_size -/+ 80.6513/95.0000 -/+ 74.9011/72.7173 -/+ 87.1648/2.5000 0.7275 0.0709 551.8
[000:04:50] Gen 453 best/avg/worst/avg_ft/ft_div/avg_size -/+ 80.6513/95.0000 -/+ 75.0602/72.4342 -/+ 79.8851/2.5000 0.7267 0.0713 550.8
[000:04:51] Gen 454 best/avg/worst/avg_ft/ft_div/avg_size -/+ 82.5670/95.0000 -/+ 75.1249/72.4159 -/+ 79.8851/2.5000 0.7268 0.0716 550.2
[000:04:52] Gen 455 best/avg/worst/avg_ft/ft_div/avg_size -/+ 82.5670/95.0000 -/+ 75.1878/72.5509 -/+ 79.8851/2.5000 0.7282 0.0702 548.5
[000:04:52] Gen 456 best/avg/worst/avg_ft/ft_div/avg_size -/+ 82.5670/95.0000 -/+ 75.0073/72.3814 -/+ 61.1111/2.5000 0.7263 0.0720 545.3
[000:04:53] Gen 457 best/avg/worst/avg_ft/ft_div/avg_size -/+ 82.7586/95.0000 -/+ 75.0019/72.4383 -/+ 61.1111/2.5000 0.7262 0.0722 546.4
[000:04:54] Gen 458 best/avg/worst/avg_ft/ft_div/avg_size -/+ 82.7586/95.0000 -/+ 75.0586/72.1545 -/+ 83.5249/2.5000 0.7248 0.0733 548.0
[000:04:55] Gen 459 best/avg/worst/avg_ft/ft_div/avg_size -/+ 82.7586/95.0000 -/+ 74.9487/72.2181 -/+ 83.5249/2.5000 0.7243 0.0738 545.1
[000:04:56] Gen 460 best/avg/worst/avg_ft/ft_div/avg_size -/+ 82.7586/95.0000 -/+ 74.9105/72.3491 -/+ 77.3946/2.5000 0.7250 0.0732 542.8
[000:04:56] Gen 461 best/avg/worst/avg_ft/ft_div/avg_size -/+ 82.7586/95.0000 -/+ 74.8509/72.5100 -/+ 85.2490/2.5000 0.7255 0.0728 544.6
[000:04:57] Gen 462 best/avg/worst/avg_ft/ft_div/avg_size -/+ 82.7586/95.0000 -/+ 74.9692/72.4005 -/+ 85.2490/2.5000 0.7256 0.0727 545.8
[000:04:58] Gen 463 best/avg/worst/avg_ft/ft_div/avg_size -/+ 82.7586/95.0000 -/+ 75.0907/72.2847 -/+ 85.6322/2.5000 0.7253 0.0730 546.0
[000:04:59] Gen 464 best/avg/worst/avg_ft/ft_div/avg_size -/+ 82.7586/95.0000 -/+ 74.9634/72.4213 -/+ 91.1877/2.5000 0.7255 0.0598 547.8
[000:04:59] Gen 465 best/avg/worst/avg_ft/ft_div/avg_size -/+ 82.7586/95.0000 -/+ 75.2401/72.7000 -/+ 96.5517/2.5000 0.7307 0.0671 553.2
[000:05:00] Gen 466 best/avg/worst/avg_ft/ft_div/avg_size -/+ 82.7586/95.0000 -/+ 75.1384/72.4772 -/+ 91.3793/2.5000 0.7277 0.0701 551.5
[000:05:01] Gen 467 best/avg/worst/avg_ft/ft_div/avg_size -/+ 82.7586/95.0000 -/+ 75.1325/72.3856 -/+ 77.9693/2.5000 0.7272 0.0711 550.7
[000:05:02] Gen 468 best/avg/worst/avg_ft/ft_div/avg_size -/+ 82.7586/95.0000 -/+ 75.1983/72.2009 -/+ 77.9693/2.5000 0.7260 0.0722 550.8
[000:05:03] Gen 469 best/avg/worst/avg_ft/ft_div/avg_size -/+ 82.7586/95.0000 -/+ 75.2639/72.2914 -/+ 88.3142/2.5000 0.7269 0.0719 548.6
[000:05:03] Gen 470 best/avg/worst/avg_ft/ft_div/avg_size -/+ 82.7586/95.0000 -/+ 75.0218/72.2330 -/+ 59.0038/2.5000 0.7249 0.0735 549.1
[000:05:04] Gen 471 best/avg/worst/avg_ft/ft_div/avg_size -/+ 82.7586/95.0000 -/+ 74.9404/72.4403 -/+ 86.3985/2.5000 0.7255 0.0731 547.6
[000:05:05] Gen 472 best/avg/worst/avg_ft/ft_div/avg_size -/+ 82.7586/95.0000 -/+ 74.9405/72.5017 -/+ 80.2682/2.5000 0.7256 0.0730 546.7
[000:05:06] Gen 473 best/avg/worst/avg_ft/ft_div/avg_size -/+ 82.7586/95.0000 -/+ 74.9426/72.5623 -/+ 80.2682/2.5000 0.7264 0.0723 545.1
[000:05:07] Gen 474 best/avg/worst/avg_ft/ft_div/avg_size -/+ 82.7586/95.0000 -/+ 74.9476/72.7081 -/+ 90.0383/2.5000 0.7271 0.0718 546.2
[000:05:07] Gen 475 best/avg/worst/avg_ft/ft_div/avg_size -/+ 82.7586/95.0000 -/+ 74.9315/72.6350 -/+ 90.0383/2.5000 0.7267 0.0721 542.9
[000:05:08] Gen 476 best/avg/worst/avg_ft/ft_div/avg_size -/+ 82.7586/95.0000 -/+ 75.0384/72.5492 -/+ 94.2529/2.5000 0.7266 0.0724 542.5
[000:05:09] Gen 477 best/avg/worst/avg_ft/ft_div/avg_size -/+ 82.7586/95.0000 -/+ 75.0246/72.5577 -/+ 82.9502/2.5000 0.7268 0.0720 546.1
[000:05:10] Gen 478 best/avg/worst/avg_ft/ft_div/avg_size -/+ 82.7586/95.0000 -/+ 74.9553/72.6255 -/+ 92.1456/2.5000 0.7269 0.0717 544.0
[000:05:10] Gen 479 best/avg/worst/avg_ft/ft_div/avg_size -/+ 82.7586/95.0000 -/+ 74.9727/72.5139 -/+ 91.1877/2.5000 0.7261 0.0723 545.7
[000:05:11] Gen 480 best/avg/worst/avg_ft/ft_div/avg_size -/+ 82.7586/95.0000 -/+ 75.0662/72.3830 -/+ 94.2529/2.5000 0.7258 0.0598 545.4
[000:05:12] Gen 481 best/avg/worst/avg_ft/ft_div/avg_size -/+ 82.7586/95.0000 -/+ 75.2805/73.0033 -/+ 79.3103/2.5000 0.7326 0.0660 549.1
[000:05:13] Gen 482 best/avg/worst/avg_ft/ft_div/avg_size -/+ 82.7586/95.0000 -/+ 75.2203/72.7708 -/+ 93.4866/2.5000 0.7299 0.0693 549.9
[000:05:14] Gen 483 best/avg/worst/avg_ft/ft_div/avg_size -/+ 82.7586/95.0000 -/+ 75.2485/72.5497 -/+ 49.0421/2.5000 0.7279 0.0712 550.5
[000:05:14] Gen 484 best/avg/worst/avg_ft/ft_div/avg_size -/+ 82.7586/95.0000 -/+ 75.0857/72.5638 -/+ 49.0421/2.5000 0.7270 0.0723 549.4
[000:05:15] Gen 485 best/avg/worst/avg_ft/ft_div/avg_size -/+ 82.7586/95.0000 -/+ 74.9133/72.6930 -/+ 49.0421/2.5000 0.7266 0.0731 549.5
[000:05:16] Gen 486 best/avg/worst/avg_ft/ft_div/avg_size -/+ 82.7586/95.0000 -/+ 75.0221/72.6686 -/+ 49.0421/2.5000 0.7274 0.0722 548.8
[000:05:17] Gen 487 best/avg/worst/avg_ft/ft_div/avg_size -/+ 82.7586/95.0000 -/+ 74.9892/72.6605 -/+ 94.0613/2.5000 0.7271 0.0726 549.4
[000:05:18] Gen 488 best/avg/worst/avg_ft/ft_div/avg_size -/+ 82.7586/95.0000 -/+ 75.0487/72.5791 -/+ 86.2069/2.5000 0.7268 0.0727 548.0
[000:05:18] Gen 489 best/avg/worst/avg_ft/ft_div/avg_size -/+ 82.7586/95.0000 -/+ 75.0656/72.5391 -/+ 86.2069/2.5000 0.7269 0.0726 547.3
[000:05:19] Gen 490 best/avg/worst/avg_ft/ft_div/avg_size -/+ 82.7586/95.0000 -/+ 75.1180/72.6033 -/+ 75.4789/2.5000 0.7277 0.0717 547.9
[000:05:20] Gen 491 best/avg/worst/avg_ft/ft_div/avg_size -/+ 82.7586/95.0000 -/+ 75.1688/72.5689 -/+ 80.4598/2.5000 0.7277 0.0719 548.6
[000:05:21] Gen 492 best/avg/worst/avg_ft/ft_div/avg_size -/+ 82.7586/95.0000 -/+ 75.0450/72.5811 -/+ 88.3142/2.5000 0.7272 0.0722 547.4
[000:05:22] Gen 493 best/avg/worst/avg_ft/ft_div/avg_size -/+ 82.7586/95.0000 -/+ 75.1433/72.6355 -/+ 76.2452/2.5000 0.7277 0.0720 548.2
[000:05:22] Gen 494 best/avg/worst/avg_ft/ft_div/avg_size -/+ 82.7586/95.0000 -/+ 75.0662/72.6158 -/+ 86.2069/2.5000 0.7275 0.0719 547.4
[000:05:23] Gen 495 best/avg/worst/avg_ft/ft_div/avg_size -/+ 82.7586/95.0000 -/+ 74.9113/72.4788 -/+ 86.2069/2.5000 0.7257 0.0736 548.9
[000:05:24] Gen 496 best/avg/worst/avg_ft/ft_div/avg_size -/+ 82.7586/95.0000 -/+ 75.0647/72.5045 -/+ 77.5862/2.5000 0.7267 0.0599 546.2
[000:05:25] Gen 497 best/avg/worst/avg_ft/ft_div/avg_size -/+ 82.7586/95.0000 -/+ 75.4815/72.8941 -/+ 87.3563/2.5000 0.7326 0.0667 555.0
[000:05:26] Gen 498 best/avg/worst/avg_ft/ft_div/avg_size -/+ 82.9502/95.0000 -/+ 75.3521/72.5984 -/+ 87.3563/2.5000 0.7291 0.0706 553.1
[000:05:26] Gen 499 best/avg/worst/avg_ft/ft_div/avg_size -/+ 82.9502/95.0000 -/+ 75.2398/72.4133 -/+ 80.2682/2.5000 0.7273 0.0722 550.9
[000:05:27] Gen 500 best/avg/worst/avg_ft/ft_div/avg_size -/+ 82.9502/95.0000 -/+ 75.2034/72.4164 -/+ 69.7318/2.5000 0.7267 0.0730 549.8
[000:05:28] Gen 501 best/avg/worst/avg_ft/ft_div/avg_size -/+ 82.9502/95.0000 -/+ 75.1352/72.3814 -/+ 92.3372/2.5000 0.7261 0.0734 550.2
[000:05:29] Gen 502 best/avg/worst/avg_ft/ft_div/avg_size -/+ 82.9502/95.0000 -/+ 75.1673/72.4614 -/+ 84.6743/2.5000 0.7269 0.0730 550.5
[000:05:29] Gen 503 best/avg/worst/avg_ft/ft_div/avg_size -/+ 82.9502/95.0000 -/+ 75.2036/72.3617 -/+ 84.6743/2.5000 0.7263 0.0739 551.0
[000:05:30] Gen 504 best/avg/worst/avg_ft/ft_div/avg_size -/+ 82.9502/95.0000 -/+ 75.1329/72.5045 -/+ 71.8391/2.5000 0.7266 0.0738 550.0
[000:05:31] Gen 505 best/avg/worst/avg_ft/ft_div/avg_size -/+ 82.9502/95.0000 -/+ 75.0947/72.4066 -/+ 81.0345/2.5000 0.7256 0.0743 550.2
[000:05:32] Gen 506 best/avg/worst/avg_ft/ft_div/avg_size -/+ 82.9502/95.0000 -/+ 75.1496/72.4275 -/+ 81.4176/2.5000 0.7264 0.0734 550.1
[000:05:33] Gen 507 best/avg/worst/avg_ft/ft_div/avg_size -/+ 82.9502/95.0000 -/+ 75.2050/72.3859 -/+ 74.3295/2.5000 0.7263 0.0738 552.6
[000:05:33] Gen 508 best/avg/worst/avg_ft/ft_div/avg_size -/+ 82.9502/95.0000 -/+ 75.2381/72.5645 -/+ 74.3295/2.5000 0.7278 0.0729 550.5
[000:05:34] Gen 509 best/avg/worst/avg_ft/ft_div/avg_size -/+ 82.9502/95.0000 -/+ 75.2017/72.5534 -/+ 74.5211/2.5000 0.7273 0.0729 550.1
[000:05:35] Gen 510 best/avg/worst/avg_ft/ft_div/avg_size -/+ 82.9502/95.0000 -/+ 75.2161/72.5655 -/+ 74.1379/2.5000 0.7272 0.0728 548.8
[000:05:36] Gen 511 best/avg/worst/avg_ft/ft_div/avg_size -/+ 82.9502/95.0000 -/+ 75.2396/72.5972 -/+ 74.1379/2.5000 0.7277 0.0727 550.5
[000:05:36] Gen 512 best/avg/worst/avg_ft/ft_div/avg_size -/+ 82.9502/95.0000 -/+ 75.0948/72.6262 -/+ 75.0958/2.5000 0.7270 0.0601 552.8
[000:05:37] Gen 513 best/avg/worst/avg_ft/ft_div/avg_size -/+ 82.9502/95.0000 -/+ 75.4840/72.8878 -/+ 95.2107/2.5000 0.7326 0.0670 556.4
[000:05:38] Gen 514 best/avg/worst/avg_ft/ft_div/avg_size -/+ 82.9502/95.0000 -/+ 75.3938/72.5819 -/+ 46.9349/2.5000 0.7296 0.0699 553.3
[000:05:39] Gen 515 best/avg/worst/avg_ft/ft_div/avg_size -/+ 82.9502/95.0000 -/+ 75.4016/72.3073 -/+ 81.2261/2.5000 0.7276 0.0720 554.2
[000:05:40] Gen 516 best/avg/worst/avg_ft/ft_div/avg_size -/+ 82.9502/95.0000 -/+ 75.3824/72.2586 -/+ 81.2261/2.5000 0.7267 0.0730 553.8
[000:05:40] Gen 517 best/avg/worst/avg_ft/ft_div/avg_size -/+ 83.1418/95.0000 -/+ 75.3357/72.2820 -/+ 91.3793/2.5000 0.7265 0.0736 552.6
[000:05:41] Gen 518 best/avg/worst/avg_ft/ft_div/avg_size -/+ 83.1418/95.0000 -/+ 75.3296/72.2628 -/+ 80.8429/2.5000 0.7263 0.0739 555.9
[000:05:42] Gen 519 best/avg/worst/avg_ft/ft_div/avg_size -/+ 83.1418/95.0000 -/+ 75.2608/72.4344 -/+ 80.2682/2.5000 0.7269 0.0735 553.2
[000:05:43] Gen 520 best/avg/worst/avg_ft/ft_div/avg_size -/+ 83.1418/95.0000 -/+ 75.2338/72.4908 -/+ 80.2682/2.5000 0.7272 0.0732 553.1
[000:05:44] Gen 521 best/avg/worst/avg_ft/ft_div/avg_size -/+ 83.1418/95.0000 -/+ 75.2679/72.2411 -/+ 82.5670/2.5000 0.7258 0.0740 551.0
[000:05:44] Gen 522 best/avg/worst/avg_ft/ft_div/avg_size -/+ 83.1418/95.0000 -/+ 75.2072/72.4017 -/+ 95.9770/2.5000 0.7265 0.0732 552.3
[000:05:45] Gen 523 best/avg/worst/avg_ft/ft_div/avg_size -/+ 83.1418/95.0000 -/+ 75.1565/72.4047 -/+ 92.3372/2.5000 0.7264 0.0734 551.8
[000:05:46] Gen 524 best/avg/worst/avg_ft/ft_div/avg_size -/+ 83.1418/95.0000 -/+ 75.1157/72.4877 -/+ 95.7854/2.5000 0.7268 0.0734 552.4
[000:05:47] Gen 525 best/avg/worst/avg_ft/ft_div/avg_size -/+ 83.1418/95.0000 -/+ 75.1932/72.3041 -/+ 86.3985/2.5000 0.7256 0.0745 552.6
[000:05:48] Gen 526 best/avg/worst/avg_ft/ft_div/avg_size -/+ 83.1418/95.0000 -/+ 75.1506/72.4498 -/+ 91.3793/2.5000 0.7263 0.0738 551.6
[000:05:48] Gen 527 best/avg/worst/avg_ft/ft_div/avg_size -/+ 83.1418/95.0000 -/+ 75.2683/72.3105 -/+ 87.7395/2.5000 0.7263 0.0740 551.6
[000:05:49] Gen 528 best/avg/worst/avg_ft/ft_div/avg_size -/+ 83.1418/95.0000 -/+ 75.1338/72.4145 -/+ 91.5709/2.5000 0.7260 0.0611 549.3
[000:05:50] Gen 529 best/avg/worst/avg_ft/ft_div/avg_size -/+ 83.1418/95.0000 -/+ 75.4566/72.8887 -/+ 86.2069/2.5000 0.7323 0.0678 556.7
[000:05:51] Gen 530 best/avg/worst/avg_ft/ft_div/avg_size -/+ 83.1418/95.0000 -/+ 75.3879/72.5773 -/+ 86.2069/2.5000 0.7291 0.0711 555.0
[000:05:51] Gen 531 best/avg/worst/avg_ft/ft_div/avg_size -/+ 83.1418/95.0000 -/+ 75.2467/72.5014 -/+ 89.0805/2.5000 0.7276 0.0721 552.0
[000:05:52] Gen 532 best/avg/worst/avg_ft/ft_div/avg_size -/+ 83.1418/95.0000 -/+ 75.1424/72.4209 -/+ 89.0805/2.5000 0.7265 0.0731 548.5
[000:05:53] Gen 533 best/avg/worst/avg_ft/ft_div/avg_size -/+ 83.1418/95.0000 -/+ 75.0938/72.5459 -/+ 94.4444/2.5000 0.7269 0.0731 547.0
[000:05:54] Gen 534 best/avg/worst/avg_ft/ft_div/avg_size -/+ 83.1418/95.0000 -/+ 75.1188/72.5866 -/+ 92.1456/2.5000 0.7273 0.0732 544.4
[000:05:55] Gen 535 best/avg/worst/avg_ft/ft_div/avg_size -/+ 83.1418/95.0000 -/+ 74.9799/72.6545 -/+ 68.5824/2.5000 0.7270 0.0736 543.6
[000:05:55] Gen 536 best/avg/worst/avg_ft/ft_div/avg_size -/+ 83.1418/95.0000 -/+ 74.9435/72.7008 -/+ 92.1456/2.5000 0.7274 0.0732 544.1
[000:05:56] Gen 537 best/avg/worst/avg_ft/ft_div/avg_size -/+ 83.1418/95.0000 -/+ 74.9979/72.8002 -/+ 91.3793/2.5000 0.7279 0.0729 547.4
[000:05:57] Gen 538 best/avg/worst/avg_ft/ft_div/avg_size -/+ 83.1418/95.0000 -/+ 75.0522/72.6941 -/+ 80.8429/2.5000 0.7275 0.0738 547.2
[000:05:58] Gen 539 best/avg/worst/avg_ft/ft_div/avg_size -/+ 83.1418/95.0000 -/+ 75.1052/72.5522 -/+ 80.8429/2.5000 0.7266 0.0745 548.9
[000:05:59] Gen 540 best/avg/worst/avg_ft/ft_div/avg_size -/+ 83.1418/95.0000 -/+ 75.1753/72.5158 -/+ 86.5900/2.5000 0.7267 0.0741 549.7
[000:05:59] Gen 541 best/avg/worst/avg_ft/ft_div/avg_size -/+ 83.1418/95.0000 -/+ 75.1970/72.5345 -/+ 82.7586/2.5000 0.7271 0.0737 550.1
[000:06:00] Gen 542 best/avg/worst/avg_ft/ft_div/avg_size -/+ 83.1418/95.0000 -/+ 75.1886/72.4741 -/+ 77.9693/2.5000 0.7264 0.0745 548.6
[000:06:01] Gen 543 best/avg/worst/avg_ft/ft_div/avg_size -/+ 83.1418/95.0000 -/+ 75.2462/72.5725 -/+ 79.1188/2.5000 0.7274 0.0740 550.0
[000:06:02] Gen 544 best/avg/worst/avg_ft/ft_div/avg_size -/+ 83.1418/95.0000 -/+ 75.2408/72.4120 -/+ 95.2107/2.5000 0.7263 0.0615 550.9
[000:06:03] Gen 545 best/avg/worst/avg_ft/ft_div/avg_size -/+ 83.1418/95.0000 -/+ 75.4865/73.1723 -/+ 87.3563/2.5000 0.7342 0.0676 557.2
[000:06:03] Gen 546 best/avg/worst/avg_ft/ft_div/avg_size -/+ 83.1418/95.0000 -/+ 75.3971/72.8095 -/+ 93.2950/2.5000 0.7303 0.0712 555.7
[000:06:04] Gen 547 best/avg/worst/avg_ft/ft_div/avg_size -/+ 83.1418/95.0000 -/+ 75.4081/72.6150 -/+ 93.2950/2.5000 0.7291 0.0728 557.1
[000:06:05] Gen 548 best/avg/worst/avg_ft/ft_div/avg_size -/+ 83.1418/95.0000 -/+ 75.2825/72.5469 -/+ 79.1188/2.5000 0.7277 0.0738 557.8
[000:06:06] Gen 549 best/avg/worst/avg_ft/ft_div/avg_size -/+ 83.1418/95.0000 -/+ 75.2241/72.4661 -/+ 90.6130/2.5000 0.7266 0.0745 556.6
[000:06:06] Gen 550 best/avg/worst/avg_ft/ft_div/avg_size -/+ 83.1418/95.0000 -/+ 75.3251/72.4120 -/+ 87.3563/2.5000 0.7269 0.0744 553.6
[000:06:07] Gen 551 best/avg/worst/avg_ft/ft_div/avg_size -/+ 83.1418/95.0000 -/+ 75.3702/72.7480 -/+ 95.5939/2.5000 0.7290 0.0732 552.3
[000:06:08] Gen 552 best/avg/worst/avg_ft/ft_div/avg_size -/+ 83.1418/95.0000 -/+ 75.2526/72.7058 -/+ 82.3755/2.5000 0.7282 0.0736 552.1
[000:06:09] Gen 553 best/avg/worst/avg_ft/ft_div/avg_size -/+ 83.1418/95.0000 -/+ 75.1894/72.7064 -/+ 82.3755/2.5000 0.7276 0.0739 552.1
[000:06:10] Gen 554 best/avg/worst/avg_ft/ft_div/avg_size -/+ 83.1418/95.0000 -/+ 75.1848/72.5470 -/+ 82.3755/2.5000 0.7266 0.0746 552.0
[000:06:10] Gen 555 best/avg/worst/avg_ft/ft_div/avg_size -/+ 83.1418/95.0000 -/+ 75.2613/72.7494 -/+ 92.3372/2.5000 0.7283 0.0736 552.8
[000:06:11] Gen 556 best/avg/worst/avg_ft/ft_div/avg_size -/+ 83.1418/95.0000 -/+ 75.2766/72.4953 -/+ 69.7318/2.5000 0.7272 0.0745 554.3
[000:06:12] Gen 557 best/avg/worst/avg_ft/ft_div/avg_size -/+ 83.3333/95.0000 -/+ 75.1306/72.7019 -/+ 90.8046/2.5000 0.7280 0.0736 551.9
[000:06:13] Gen 558 best/avg/worst/avg_ft/ft_div/avg_size -/+ 83.3333/95.0000 -/+ 75.2218/72.6058 -/+ 91.7625/2.5000 0.7278 0.0736 551.7
[000:06:14] Gen 559 best/avg/worst/avg_ft/ft_div/avg_size -/+ 83.3333/95.0000 -/+ 75.1971/72.5659 -/+ 80.6513/2.5000 0.7274 0.0732 550.3
[000:06:14] Gen 560 best/avg/worst/avg_ft/ft_div/avg_size -/+ 83.3333/95.0000 -/+ 75.1504/72.7472 -/+ 80.2682/2.5000 0.7280 0.0602 549.7
[000:06:15] Gen 561 best/avg/worst/avg_ft/ft_div/avg_size -/+ 83.3333/95.0000 -/+ 75.4945/73.1970 -/+ 94.8276/2.5000 0.7344 0.0672 556.6
[000:06:16] Gen 562 best/avg/worst/avg_ft/ft_div/avg_size -/+ 83.3333/95.0000 -/+ 75.3225/73.0219 -/+ 80.2682/2.5000 0.7315 0.0701 555.2
[000:06:17] Gen 563 best/avg/worst/avg_ft/ft_div/avg_size -/+ 83.3333/95.0000 -/+ 75.2685/72.6562 -/+ 80.2682/2.5000 0.7286 0.0725 552.2
[000:06:18] Gen 564 best/avg/worst/avg_ft/ft_div/avg_size -/+ 83.3333/95.0000 -/+ 75.1915/72.7173 -/+ 80.2682/2.5000 0.7285 0.0723 554.1
[000:06:18] Gen 565 best/avg/worst/avg_ft/ft_div/avg_size -/+ 83.5249/95.0000 -/+ 75.2131/72.7392 -/+ 80.2682/2.5000 0.7285 0.0729 555.9
[000:06:19] Gen 566 best/avg/worst/avg_ft/ft_div/avg_size -/+ 83.5249/95.0000 -/+ 75.2281/72.8166 -/+ 81.0345/2.5000 0.7290 0.0730 556.2
[000:06:20] Gen 567 best/avg/worst/avg_ft/ft_div/avg_size -/+ 83.5249/95.0000 -/+ 75.2345/72.7823 -/+ 81.0345/2.5000 0.7288 0.0735 554.8
[000:06:21] Gen 568 best/avg/worst/avg_ft/ft_div/avg_size -/+ 83.5249/95.0000 -/+ 75.2023/72.6753 -/+ 56.5134/2.5000 0.7279 0.0738 554.7
[000:06:21] Gen 569 best/avg/worst/avg_ft/ft_div/avg_size -/+ 83.5249/95.0000 -/+ 75.1731/72.8228 -/+ 90.8046/2.5000 0.7288 0.0739 554.2
[000:06:22] Gen 570 best/avg/worst/avg_ft/ft_div/avg_size -/+ 83.5249/95.0000 -/+ 75.1858/72.8703 -/+ 90.8046/2.5000 0.7292 0.0735 558.3
[000:06:23] Gen 571 best/avg/worst/avg_ft/ft_div/avg_size -/+ 83.5249/95.0000 -/+ 75.2593/72.9127 -/+ 67.0498/2.5000 0.7297 0.0729 557.1
[000:06:24] Gen 572 best/avg/worst/avg_ft/ft_div/avg_size -/+ 83.5249/95.0000 -/+ 75.2930/72.8720 -/+ 67.0498/2.5000 0.7296 0.0723 559.4
[000:06:25] Gen 573 best/avg/worst/avg_ft/ft_div/avg_size -/+ 83.5249/95.0000 -/+ 75.2674/72.7658 -/+ 80.8429/2.5000 0.7288 0.0729 557.2
[000:06:25] Gen 574 best/avg/worst/avg_ft/ft_div/avg_size -/+ 83.5249/95.0000 -/+ 75.2336/72.7616 -/+ 80.6513/2.5000 0.7281 0.0737 554.6
[000:06:26] Gen 575 best/avg/worst/avg_ft/ft_div/avg_size -/+ 83.5249/95.0000 -/+ 75.1394/72.7983 -/+ 69.1571/2.5000 0.7277 0.0740 554.7
[000:06:27] Gen 576 best/avg/worst/avg_ft/ft_div/avg_size -/+ 83.5249/95.0000 -/+ 75.0896/72.8303 -/+ 69.1571/2.5000 0.7277 0.0611 553.6
[000:06:28] Gen 577 best/avg/worst/avg_ft/ft_div/avg_size -/+ 83.5249/95.0000 -/+ 75.5836/73.3814 -/+ 77.7778/2.5000 0.7358 0.0668 563.2
[000:06:29] Gen 578 best/avg/worst/avg_ft/ft_div/avg_size -/+ 83.5249/95.0000 -/+ 75.4043/73.0008 -/+ 91.5709/2.5000 0.7317 0.0705 562.4
[000:06:30] Gen 579 best/avg/worst/avg_ft/ft_div/avg_size -/+ 83.5249/95.0000 -/+ 75.3510/72.9314 -/+ 94.2529/2.5000 0.7302 0.0723 560.2
[000:06:30] Gen 580 best/avg/worst/avg_ft/ft_div/avg_size -/+ 83.5249/95.0000 -/+ 75.3109/72.7550 -/+ 94.2529/2.5000 0.7288 0.0736 559.4
[000:06:31] Gen 581 best/avg/worst/avg_ft/ft_div/avg_size -/+ 83.5249/95.0000 -/+ 75.3695/72.8011 -/+ 94.2529/2.5000 0.7292 0.0732 560.2
[000:06:32] Gen 582 best/avg/worst/avg_ft/ft_div/avg_size -/+ 83.5249/95.0000 -/+ 75.2383/72.8481 -/+ 83.3333/2.5000 0.7289 0.0734 561.2
[000:06:33] Gen 583 best/avg/worst/avg_ft/ft_div/avg_size -/+ 83.5249/95.0000 -/+ 75.3328/72.9331 -/+ 80.8429/2.5000 0.7299 0.0726 561.5
[000:06:34] Gen 584 best/avg/worst/avg_ft/ft_div/avg_size -/+ 83.5249/95.0000 -/+ 75.4035/72.9898 -/+ 74.9042/2.5000 0.7310 0.0721 562.3
[000:06:34] Gen 585 best/avg/worst/avg_ft/ft_div/avg_size -/+ 83.5249/95.0000 -/+ 75.4003/72.8908 -/+ 86.3985/2.5000 0.7300 0.0729 562.0
[000:06:35] Gen 586 best/avg/worst/avg_ft/ft_div/avg_size -/+ 83.5249/95.0000 -/+ 75.2889/73.0202 -/+ 86.3985/2.5000 0.7303 0.0727 561.3
[000:06:36] Gen 587 best/avg/worst/avg_ft/ft_div/avg_size -/+ 83.5249/95.0000 -/+ 75.1968/73.0252 -/+ 86.3985/2.5000 0.7295 0.0731 561.6
[000:06:37] Gen 588 best/avg/worst/avg_ft/ft_div/avg_size -/+ 83.5249/95.0000 -/+ 75.1277/72.9803 -/+ 86.3985/2.5000 0.7293 0.0737 560.6
[000:06:38] Gen 589 best/avg/worst/avg_ft/ft_div/avg_size -/+ 83.5249/95.0000 -/+ 75.1515/72.7094 -/+ 92.1456/2.5000 0.7280 0.0739 557.2
[000:06:38] Gen 590 best/avg/worst/avg_ft/ft_div/avg_size -/+ 83.5249/95.0000 -/+ 75.2694/72.7998 -/+ 93.2950/2.5000 0.7288 0.0733 555.9
[000:06:39] Gen 591 best/avg/worst/avg_ft/ft_div/avg_size -/+ 83.5249/95.0000 -/+ 75.2278/72.7487 -/+ 94.0613/2.5000 0.7284 0.0739 555.8
[000:06:40] Gen 592 best/avg/worst/avg_ft/ft_div/avg_size -/+ 81.8008/97.5000 -/+ 75.2833/72.6814 -/+ 94.2529/2.5000 0.7279 0.0616 554.3
[000:06:41] Gen 593 best/avg/worst/avg_ft/ft_div/avg_size -/+ 81.8008/97.5000 -/+ 75.6254/73.1036 -/+ 95.2107/2.5000 0.7343 0.0681 562.0
[000:06:42] Gen 594 best/avg/worst/avg_ft/ft_div/avg_size -/+ 81.8008/97.5000 -/+ 75.3060/73.1378 -/+ 92.1456/2.5000 0.7320 0.0702 561.7
[000:06:43] Gen 595 best/avg/worst/avg_ft/ft_div/avg_size -/+ 81.8008/97.5000 -/+ 75.2308/72.9961 -/+ 92.1456/2.5000 0.7306 0.0720 561.2
[000:06:43] Gen 596 best/avg/worst/avg_ft/ft_div/avg_size -/+ 81.8008/97.5000 -/+ 75.3557/72.6822 -/+ 80.4598/2.5000 0.7292 0.0729 560.0
[000:06:44] Gen 597 best/avg/worst/avg_ft/ft_div/avg_size -/+ 81.8008/97.5000 -/+ 75.3084/72.8542 -/+ 80.4598/2.5000 0.7295 0.0735 558.7
[000:06:45] Gen 598 best/avg/worst/avg_ft/ft_div/avg_size -/+ 81.8008/97.5000 -/+ 75.2203/72.9036 -/+ 80.4598/2.5000 0.7290 0.0738 558.3
[000:06:46] Gen 599 best/avg/worst/avg_ft/ft_div/avg_size -/+ 81.8008/97.5000 -/+ 75.0434/72.9688 -/+ 92.5287/2.5000 0.7286 0.0742 556.8
[000:06:47] Gen 600 best/avg/worst/avg_ft/ft_div/avg_size -/+ 81.8008/97.5000 -/+ 75.2032/72.8353 -/+ 86.2069/2.5000 0.7287 0.0742 557.3
[000:06:47] Gen 601 best/avg/worst/avg_ft/ft_div/avg_size -/+ 81.8008/97.5000 -/+ 75.2994/72.8153 -/+ 80.4598/2.5000 0.7289 0.0745 556.1
[000:06:48] Gen 602 best/avg/worst/avg_ft/ft_div/avg_size -/+ 81.8008/97.5000 -/+ 75.2822/72.8836 -/+ 80.4598/2.5000 0.7295 0.0741 556.1
[000:06:49] Gen 603 best/avg/worst/avg_ft/ft_div/avg_size -/+ 81.8008/97.5000 -/+ 75.2235/72.8987 -/+ 80.4598/2.5000 0.7289 0.0747 557.0
[000:06:50] Gen 604 best/avg/worst/avg_ft/ft_div/avg_size -/+ 81.8008/97.5000 -/+ 75.1611/73.0253 -/+ 67.6245/2.5000 0.7298 0.0743 558.8
[000:06:51] Gen 605 best/avg/worst/avg_ft/ft_div/avg_size -/+ 81.8008/97.5000 -/+ 75.2990/72.8056 -/+ 67.6245/2.5000 0.7291 0.0746 557.8
[000:06:51] Gen 606 best/avg/worst/avg_ft/ft_div/avg_size -/+ 81.8008/97.5000 -/+ 75.2440/72.9744 -/+ 79.5019/2.5000 0.7298 0.0741 557.2
[000:06:52] Gen 607 best/avg/worst/avg_ft/ft_div/avg_size -/+ 81.8008/97.5000 -/+ 75.1583/72.9811 -/+ 79.5019/2.5000 0.7293 0.0743 558.9
[000:06:53] Gen 608 best/avg/worst/avg_ft/ft_div/avg_size -/+ 81.8008/97.5000 -/+ 75.1241/72.9655 -/+ 79.5019/2.5000 0.7289 0.0611 561.8
[000:06:54] Gen 609 best/avg/worst/avg_ft/ft_div/avg_size -/+ 81.8008/97.5000 -/+ 75.4458/73.3986 -/+ 92.7203/2.5000 0.7351 0.0681 567.7
[000:06:55] Gen 610 best/avg/worst/avg_ft/ft_div/avg_size -/+ 81.8008/97.5000 -/+ 75.4640/73.1858 -/+ 84.2912/2.5000 0.7333 0.0701 563.7
[000:06:56] Gen 611 best/avg/worst/avg_ft/ft_div/avg_size -/+ 81.8008/97.5000 -/+ 75.3695/72.9227 -/+ 84.2912/2.5000 0.7308 0.0716 561.0
[000:06:56] Gen 612 best/avg/worst/avg_ft/ft_div/avg_size -/+ 81.8008/97.5000 -/+ 75.2695/72.9377 -/+ 83.9080/2.5000 0.7299 0.0729 559.2
[000:06:57] Gen 613 best/avg/worst/avg_ft/ft_div/avg_size -/+ 81.8008/97.5000 -/+ 75.2089/72.9439 -/+ 83.9080/2.5000 0.7299 0.0731 560.2
[000:06:58] Gen 614 best/avg/worst/avg_ft/ft_div/avg_size -/+ 81.8008/97.5000 -/+ 75.2528/72.9198 -/+ 80.2682/2.5000 0.7298 0.0731 561.4
[000:06:59] Gen 615 best/avg/worst/avg_ft/ft_div/avg_size -/+ 81.8008/97.5000 -/+ 75.2479/72.9109 -/+ 80.2682/2.5000 0.7295 0.0730 562.6
[000:07:00] Gen 616 best/avg/worst/avg_ft/ft_div/avg_size -/+ 81.8008/97.5000 -/+ 75.2269/72.6612 -/+ 63.2184/2.5000 0.7275 0.0749 559.8
[000:07:00] Gen 617 best/avg/worst/avg_ft/ft_div/avg_size -/+ 81.8008/97.5000 -/+ 75.1260/72.8956 -/+ 83.9080/2.5000 0.7285 0.0742 556.8
[000:07:01] Gen 618 best/avg/worst/avg_ft/ft_div/avg_size -/+ 81.8008/97.5000 -/+ 75.1942/72.8916 -/+ 83.9080/2.5000 0.7289 0.0739 557.5
[000:07:02] Gen 619 best/avg/worst/avg_ft/ft_div/avg_size -/+ 81.8008/97.5000 -/+ 75.2510/72.9688 -/+ 79.8851/2.5000 0.7299 0.0730 560.0
[000:07:03] Gen 620 best/avg/worst/avg_ft/ft_div/avg_size -/+ 81.8008/97.5000 -/+ 75.2662/72.9605 -/+ 50.7663/2.5000 0.7298 0.0736 558.3
[000:07:04] Gen 621 best/avg/worst/avg_ft/ft_div/avg_size -/+ 81.8008/97.5000 -/+ 75.1528/72.9823 -/+ 50.7663/2.5000 0.7294 0.0740 556.6
[000:07:04] Gen 622 best/avg/worst/avg_ft/ft_div/avg_size -/+ 84.0996/95.0000 -/+ 75.0557/73.2323 -/+ 90.6130/2.5000 0.7307 0.0727 559.3
[000:07:05] Gen 623 best/avg/worst/avg_ft/ft_div/avg_size -/+ 84.0996/95.0000 -/+ 75.0660/73.2623 -/+ 90.6130/2.5000 0.7308 0.0725 558.0
[000:07:06] Gen 624 best/avg/worst/avg_ft/ft_div/avg_size -/+ 84.0996/95.0000 -/+ 75.1114/73.1175 -/+ 91.5709/2.5000 0.7299 0.0601 560.6
[000:07:07] Gen 625 best/avg/worst/avg_ft/ft_div/avg_size -/+ 84.0996/95.0000 -/+ 75.5717/73.4555 -/+ 85.4406/2.5000 0.7363 0.0671 565.5
[000:07:08] Gen 626 best/avg/worst/avg_ft/ft_div/avg_size -/+ 84.0996/95.0000 -/+ 75.3764/73.2525 -/+ 85.4406/2.5000 0.7332 0.0700 564.7
[000:07:08] Gen 627 best/avg/worst/avg_ft/ft_div/avg_size -/+ 84.0996/95.0000 -/+ 75.2661/73.0167 -/+ 85.4406/2.5000 0.7307 0.0726 561.8
[000:07:09] Gen 628 best/avg/worst/avg_ft/ft_div/avg_size -/+ 84.0996/95.0000 -/+ 75.2103/72.8391 -/+ 93.8697/2.5000 0.7289 0.0740 559.9
[000:07:10] Gen 629 best/avg/worst/avg_ft/ft_div/avg_size -/+ 84.0996/95.0000 -/+ 75.1849/72.9264 -/+ 72.6054/2.5000 0.7293 0.0740 559.9
[000:07:11] Gen 630 best/avg/worst/avg_ft/ft_div/avg_size -/+ 84.0996/95.0000 -/+ 75.2788/72.8544 -/+ 82.1839/2.5000 0.7289 0.0746 563.2
[000:07:12] Gen 631 best/avg/worst/avg_ft/ft_div/avg_size -/+ 84.0996/95.0000 -/+ 75.2960/72.8603 -/+ 84.4828/2.5000 0.7294 0.0738 561.5
[000:07:13] Gen 632 best/avg/worst/avg_ft/ft_div/avg_size -/+ 84.0996/95.0000 -/+ 75.2474/72.9200 -/+ 84.4828/2.5000 0.7299 0.0735 561.4
[000:07:13] Gen 633 best/avg/worst/avg_ft/ft_div/avg_size -/+ 84.0996/95.0000 -/+ 75.1831/72.8827 -/+ 82.9502/2.5000 0.7293 0.0737 559.8
[000:07:14] Gen 634 best/avg/worst/avg_ft/ft_div/avg_size -/+ 84.0996/95.0000 -/+ 75.1996/72.8272 -/+ 86.0153/2.5000 0.7286 0.0743 561.0
[000:07:15] Gen 635 best/avg/worst/avg_ft/ft_div/avg_size -/+ 84.0996/95.0000 -/+ 75.1579/73.0277 -/+ 86.0153/2.5000 0.7296 0.0737 561.9
[000:07:16] Gen 636 best/avg/worst/avg_ft/ft_div/avg_size -/+ 84.0996/95.0000 -/+ 75.3326/72.8248 -/+ 81.6092/2.5000 0.7292 0.0741 560.4
[000:07:17] Gen 637 best/avg/worst/avg_ft/ft_div/avg_size -/+ 84.0996/95.0000 -/+ 75.3602/72.9598 -/+ 92.7203/2.5000 0.7300 0.0741 559.2
[000:07:17] Gen 638 best/avg/worst/avg_ft/ft_div/avg_size -/+ 84.0996/95.0000 -/+ 75.3166/72.9114 -/+ 92.7203/2.5000 0.7297 0.0740 558.9
[000:07:18] Gen 639 best/avg/worst/avg_ft/ft_div/avg_size -/+ 84.0996/95.0000 -/+ 75.3293/72.8458 -/+ 81.0345/2.5000 0.7297 0.0738 556.5
[000:07:19] Gen 640 best/avg/worst/avg_ft/ft_div/avg_size -/+ 84.0996/95.0000 -/+ 75.2588/72.7691 -/+ 92.7203/2.5000 0.7287 0.0615 557.1
[000:07:20] Gen 641 best/avg/worst/avg_ft/ft_div/avg_size -/+ 84.0996/95.0000 -/+ 75.6246/73.1853 -/+ 83.5249/2.5000 0.7348 0.0680 561.9
[000:07:21] Gen 642 best/avg/worst/avg_ft/ft_div/avg_size -/+ 84.0996/95.0000 -/+ 75.2835/72.9519 -/+ 83.5249/2.5000 0.7305 0.0718 557.8
[000:07:22] Gen 643 best/avg/worst/avg_ft/ft_div/avg_size -/+ 84.0996/95.0000 -/+ 75.1769/72.8691 -/+ 70.6897/2.5000 0.7294 0.0733 555.5
[000:07:22] Gen 644 best/avg/worst/avg_ft/ft_div/avg_size -/+ 84.0996/95.0000 -/+ 75.1324/72.7000 -/+ 67.6245/2.5000 0.7276 0.0747 555.1
[000:07:23] Gen 645 best/avg/worst/avg_ft/ft_div/avg_size -/+ 84.0996/95.0000 -/+ 75.2342/72.7373 -/+ 79.6935/2.5000 0.7285 0.0742 557.3
[000:07:24] Gen 646 best/avg/worst/avg_ft/ft_div/avg_size -/+ 84.2912/95.0000 -/+ 75.1953/72.7464 -/+ 79.6935/2.5000 0.7280 0.0746 556.8
[000:07:25] Gen 647 best/avg/worst/avg_ft/ft_div/avg_size -/+ 84.2912/95.0000 -/+ 75.3067/72.8055 -/+ 82.3755/2.5000 0.7293 0.0730 557.4
[000:07:26] Gen 648 best/avg/worst/avg_ft/ft_div/avg_size -/+ 84.2912/95.0000 -/+ 75.2517/72.8248 -/+ 81.8008/2.5000 0.7292 0.0736 558.2
[000:07:26] Gen 649 best/avg/worst/avg_ft/ft_div/avg_size -/+ 84.2912/95.0000 -/+ 75.2748/72.9116 -/+ 82.9502/2.5000 0.7298 0.0735 557.7
[000:07:27] Gen 650 best/avg/worst/avg_ft/ft_div/avg_size -/+ 84.2912/95.0000 -/+ 75.3684/72.8912 -/+ 82.9502/2.5000 0.7302 0.0732 558.2
[000:07:28] Gen 651 best/avg/worst/avg_ft/ft_div/avg_size -/+ 84.2912/95.0000 -/+ 75.2054/72.9934 -/+ 94.6360/2.5000 0.7303 0.0729 556.8
[000:07:29] Gen 652 best/avg/worst/avg_ft/ft_div/avg_size -/+ 84.2912/95.0000 -/+ 75.2517/72.9767 -/+ 58.2375/2.5000 0.7301 0.0738 559.2
[000:07:29] Gen 653 best/avg/worst/avg_ft/ft_div/avg_size -/+ 84.2912/95.0000 -/+ 75.1845/72.8369 -/+ 77.7778/2.5000 0.7288 0.0743 558.3
[000:07:30] Gen 654 best/avg/worst/avg_ft/ft_div/avg_size -/+ 84.2912/95.0000 -/+ 75.3686/72.5739 -/+ 77.7778/2.5000 0.7283 0.0748 559.7
[000:07:31] Gen 655 best/avg/worst/avg_ft/ft_div/avg_size -/+ 84.2912/95.0000 -/+ 75.2695/72.6830 -/+ 77.7778/2.5000 0.7284 0.0747 561.6
[000:07:32] Gen 656 best/avg/worst/avg_ft/ft_div/avg_size -/+ 84.2912/95.0000 -/+ 75.1921/72.9402 -/+ 83.9080/2.5000 0.7292 0.0610 561.5
[000:07:33] Gen 657 best/avg/worst/avg_ft/ft_div/avg_size -/+ 84.2912/95.0000 -/+ 75.5437/73.3619 -/+ 72.9885/2.5000 0.7358 0.0674 567.3
[000:07:34] Gen 658 best/avg/worst/avg_ft/ft_div/avg_size -/+ 84.2912/95.0000 -/+ 75.3814/73.0611 -/+ 91.3793/2.5000 0.7320 0.0714 565.3
[000:07:34] Gen 659 best/avg/worst/avg_ft/ft_div/avg_size -/+ 84.2912/95.0000 -/+ 75.1822/72.9398 -/+ 88.1226/2.5000 0.7293 0.0741 566.7
[000:07:35] Gen 660 best/avg/worst/avg_ft/ft_div/avg_size -/+ 84.2912/95.0000 -/+ 75.2012/72.9578 -/+ 76.6284/2.5000 0.7297 0.0735 564.7
[000:07:36] Gen 661 best/avg/worst/avg_ft/ft_div/avg_size -/+ 84.2912/95.0000 -/+ 75.2321/72.9125 -/+ 88.1226/2.5000 0.7293 0.0741 564.5
[000:07:37] Gen 662 best/avg/worst/avg_ft/ft_div/avg_size -/+ 84.2912/95.0000 -/+ 75.3270/73.1327 -/+ 88.1226/2.5000 0.7314 0.0724 564.9
[000:07:38] Gen 663 best/avg/worst/avg_ft/ft_div/avg_size -/+ 84.2912/95.0000 -/+ 75.2952/72.8334 -/+ 58.4291/2.5000 0.7293 0.0742 564.7
[000:07:38] Gen 664 best/avg/worst/avg_ft/ft_div/avg_size -/+ 84.2912/95.0000 -/+ 75.2963/72.9453 -/+ 81.8008/2.5000 0.7299 0.0735 563.5
[000:07:39] Gen 665 best/avg/worst/avg_ft/ft_div/avg_size -/+ 84.2912/95.0000 -/+ 75.1880/72.9291 -/+ 82.3755/2.5000 0.7295 0.0742 563.9
[000:07:40] Gen 666 best/avg/worst/avg_ft/ft_div/avg_size -/+ 84.2912/95.0000 -/+ 75.3068/72.8681 -/+ 81.2261/2.5000 0.7293 0.0747 563.6
[000:07:41] Gen 667 best/avg/worst/avg_ft/ft_div/avg_size -/+ 84.2912/95.0000 -/+ 75.1443/72.9506 -/+ 81.2261/2.5000 0.7288 0.0747 562.4
[000:07:42] Gen 668 best/avg/worst/avg_ft/ft_div/avg_size -/+ 84.2912/95.0000 -/+ 75.2240/72.9088 -/+ 79.8851/2.5000 0.7292 0.0744 562.7
[000:07:42] Gen 669 best/avg/worst/avg_ft/ft_div/avg_size -/+ 84.2912/95.0000 -/+ 75.1899/72.6787 -/+ 67.4330/2.5000 0.7276 0.0753 561.9
[000:07:43] Gen 670 best/avg/worst/avg_ft/ft_div/avg_size -/+ 84.2912/95.0000 -/+ 75.2574/72.8136 -/+ 67.4330/2.5000 0.7291 0.0741 559.6
[000:07:44] Gen 671 best/avg/worst/avg_ft/ft_div/avg_size -/+ 84.2912/95.0000 -/+ 75.2529/72.6641 -/+ 67.4330/2.5000 0.7276 0.0751 557.4
[000:07:45] Gen 672 best/avg/worst/avg_ft/ft_div/avg_size -/+ 84.2912/95.0000 -/+ 75.2287/72.7763 -/+ 67.4330/2.5000 0.7282 0.0616 558.6
[000:07:46] Gen 673 best/avg/worst/avg_ft/ft_div/avg_size -/+ 84.2912/95.0000 -/+ 75.5533/73.2169 -/+ 91.1877/2.5000 0.7349 0.0681 562.9
[000:07:46] Gen 674 best/avg/worst/avg_ft/ft_div/avg_size -/+ 84.2912/95.0000 -/+ 75.4379/73.0294 -/+ 83.1418/2.5000 0.7323 0.0707 563.5
[000:07:47] Gen 675 best/avg/worst/avg_ft/ft_div/avg_size -/+ 84.2912/95.0000 -/+ 75.3005/72.9562 -/+ 83.1418/2.5000 0.7307 0.0730 561.6
[000:07:48] Gen 676 best/avg/worst/avg_ft/ft_div/avg_size -/+ 84.2912/95.0000 -/+ 75.3361/72.8505 -/+ 82.9502/2.5000 0.7301 0.0736 562.7
[000:07:49] Gen 677 best/avg/worst/avg_ft/ft_div/avg_size -/+ 84.2912/95.0000 -/+ 75.2534/72.8978 -/+ 83.1418/2.5000 0.7300 0.0740 562.3
[000:07:50] Gen 678 best/avg/worst/avg_ft/ft_div/avg_size -/+ 84.2912/95.0000 -/+ 75.2889/72.7456 -/+ 83.1418/2.5000 0.7286 0.0751 563.3
[000:07:50] Gen 679 best/avg/worst/avg_ft/ft_div/avg_size -/+ 84.2912/95.0000 -/+ 75.2025/72.6373 -/+ 83.1418/2.5000 0.7274 0.0764 562.5
[000:07:51] Gen 680 best/avg/worst/avg_ft/ft_div/avg_size -/+ 84.2912/95.0000 -/+ 75.2506/72.6453 -/+ 83.1418/2.5000 0.7279 0.0758 560.8
[000:07:52] Gen 681 best/avg/worst/avg_ft/ft_div/avg_size -/+ 84.2912/95.0000 -/+ 75.1696/72.6234 -/+ 81.6092/2.5000 0.7269 0.0765 560.6
[000:07:53] Gen 682 best/avg/worst/avg_ft/ft_div/avg_size -/+ 84.2912/95.0000 -/+ 75.2763/72.5684 -/+ 89.0805/2.5000 0.7276 0.0755 561.6
[000:07:54] Gen 683 best/avg/worst/avg_ft/ft_div/avg_size -/+ 84.2912/95.0000 -/+ 75.3506/72.5211 -/+ 81.8008/2.5000 0.7273 0.0758 559.6
[000:07:54] Gen 684 best/avg/worst/avg_ft/ft_div/avg_size -/+ 84.2912/95.0000 -/+ 75.3586/72.6906 -/+ 79.8851/2.5000 0.7280 0.0756 559.8
[000:07:55] Gen 685 best/avg/worst/avg_ft/ft_div/avg_size -/+ 84.2912/95.0000 -/+ 75.2995/72.7763 -/+ 79.8851/2.5000 0.7284 0.0755 560.3
[000:07:56] Gen 686 best/avg/worst/avg_ft/ft_div/avg_size -/+ 84.2912/95.0000 -/+ 75.3185/72.9247 -/+ 79.8851/2.5000 0.7295 0.0742 556.6
[000:07:57] Gen 687 best/avg/worst/avg_ft/ft_div/avg_size -/+ 84.2912/95.0000 -/+ 75.2713/72.7303 -/+ 79.8851/2.5000 0.7279 0.0759 558.9
[000:07:58] Gen 688 best/avg/worst/avg_ft/ft_div/avg_size -/+ 84.2912/95.0000 -/+ 75.1637/73.1316 -/+ 79.8851/2.5000 0.7300 0.0610 557.5
