Experiment No: 3649
Using fitness function Classic.Using 24 CPU threads.DatasetConfig {
    dataset_neg_path: "/home/farooqkz/ww_dataset/neg/",
    dataset_pos_path: "/home/farooqkz/ww_dataset/pos/",
    test_dataset_fraction: 0.98,
    extractor_config: MfccExtractorConfig {
        sample_rate: 48000,
        samples_per_frame: 18000,
        samples_per_shift: 18000,
        num_coefficients: 100,
        pre_emphasis_coefficient: 0.97,
    },
}
FirstStageConfig {
    population: 1000,
    number_of_demes: 32,
    crossover_rate: 0.8,
    macro_mutation_rate: 0.05,
    micro_mutation_rate: 0.05,
    constant_mutation_rate: 0.02,
    changes_per_micro: 10,
    changes_per_macro: 10,
    reproduction_rate: 0.02,
    program_generation: ProgramGenerationConfig {
        range_up: 512,
        range_down: 16,
        instruction_gen: InstructionGenerationConfig {
            register_cells: 8,
            memory_cells: 132,
            jump_range: [
                1,
                32,
            ],
            instructions: [
                "Sum",
                "Multiply",
                "Load",
                "Sub",
                "CopyReg",
                "JumpZN",
                "MultiplyM",
                "SumM",
                "SubM",
                "Square",
                "JumpZP",
                "Sin",
                "Cos",
                "Sqrt",
            ],
        },
    },
    number_of_constants: 32,
    end_condition: EndCondition {
        minutes: None,
        generations: Some(
            500,
        ),
        accuracy: None,
        diversity: None,
    },
    migration_rate: 0.05,
    migration_freq: 16,
    population_injection: 0,
    selection_pressure: Some(
        3,
    ),
    bucket_size: None,
    fitness_config: FitnessConfig {
        max_program_size: Some(
            1024,
        ),
    },
}
SecondStageConfig {
    population: 1000,
    crossover_rate: 0.8,
    mutation_rate: 0.01,
    reproduction_rate: 0.1,
    fitness_config: FitnessConfig {
        max_program_size: Some(
            1024,
        ),
    },
}
Reading files from disk...
I have 6511 positive and 83547 negative samples
Constructing initial population
Constructed initial population
[000:00:00] Gen 1 best/avg/worst/avg_ft/ft_div/avg_size -/+ 84.6154/100.0000 -/+ 52.5658/55.4539 -/+ 1.9231/50.0000 0.5046 0.0994 282.6
[000:00:00] Gen 2 best/avg/worst/avg_ft/ft_div/avg_size -/+ 84.6154/100.0000 -/+ 53.6007/58.1992 -/+ 3.8462/25.0000 0.5266 0.1027 289.2
[000:00:00] Gen 3 best/avg/worst/avg_ft/ft_div/avg_size -/+ 90.3846/100.0000 -/+ 54.3783/60.1875 -/+ 1.9231/50.0000 0.5422 0.1056 294.5
[000:00:00] Gen 4 best/avg/worst/avg_ft/ft_div/avg_size -/+ 96.1538/100.0000 -/+ 55.0817/61.5227 -/+ 3.8462/25.0000 0.5530 0.1068 298.6
[000:00:00] Gen 5 best/avg/worst/avg_ft/ft_div/avg_size -/+ 96.1538/100.0000 -/+ 55.5408/62.7102 -/+ 3.8462/25.0000 0.5624 0.1081 301.8
[000:00:00] Gen 6 best/avg/worst/avg_ft/ft_div/avg_size -/+ 96.1538/100.0000 -/+ 55.9376/63.4477 -/+ 3.8462/25.0000 0.5687 0.1098 303.5
[000:00:01] Gen 7 best/avg/worst/avg_ft/ft_div/avg_size -/+ 96.1538/100.0000 -/+ 56.2109/64.3375 -/+ 9.6154/25.0000 0.5745 0.1120 304.7
[000:00:01] Gen 8 best/avg/worst/avg_ft/ft_div/avg_size -/+ 96.1538/100.0000 -/+ 56.5936/64.8648 -/+ 7.6923/50.0000 0.5794 0.1131 305.5
[000:00:01] Gen 9 best/avg/worst/avg_ft/ft_div/avg_size -/+ 96.1538/100.0000 -/+ 56.8655/65.5625 -/+ 7.6923/50.0000 0.5845 0.1149 305.2
[000:00:01] Gen 10 best/avg/worst/avg_ft/ft_div/avg_size -/+ 96.1538/100.0000 -/+ 57.2066/66.0758 -/+ 5.7692/25.0000 0.5890 0.1163 305.8
[000:00:01] Gen 11 best/avg/worst/avg_ft/ft_div/avg_size -/+ 96.1538/100.0000 -/+ 57.4998/66.6484 -/+ 5.7692/25.0000 0.5938 0.1172 305.7
[000:00:01] Gen 12 best/avg/worst/avg_ft/ft_div/avg_size -/+ 96.1538/100.0000 -/+ 57.7129/67.3984 -/+ 5.7692/25.0000 0.5987 0.1187 303.1
[000:00:01] Gen 13 best/avg/worst/avg_ft/ft_div/avg_size -/+ 96.1538/100.0000 -/+ 57.9230/68.2688 -/+ 5.7692/25.0000 0.6042 0.1197 301.7
[000:00:02] Gen 14 best/avg/worst/avg_ft/ft_div/avg_size -/+ 96.1538/100.0000 -/+ 58.2833/68.9453 -/+ 11.5385/25.0000 0.6098 0.1209 300.3
[000:00:02] Gen 15 best/avg/worst/avg_ft/ft_div/avg_size -/+ 96.1538/100.0000 -/+ 58.5320/69.6773 -/+ 9.6154/25.0000 0.6147 0.1220 298.0
[000:00:02] Gen 16 best/avg/worst/avg_ft/ft_div/avg_size -/+ 96.1538/100.0000 -/+ 58.8495/70.6047 -/+ 5.7692/25.0000 0.6209 0.1156 296.1
[000:00:02] Gen 17 best/avg/worst/avg_ft/ft_div/avg_size -/+ 96.1538/100.0000 -/+ 59.9609/71.4938 -/+ 13.4615/25.0000 0.6320 0.1193 292.5
[000:00:02] Gen 18 best/avg/worst/avg_ft/ft_div/avg_size -/+ 96.1538/100.0000 -/+ 60.0550/71.8711 -/+ 3.8462/25.0000 0.6347 0.1222 289.7
[000:00:02] Gen 19 best/avg/worst/avg_ft/ft_div/avg_size -/+ 96.1538/100.0000 -/+ 60.2079/72.7781 -/+ 5.7692/25.0000 0.6398 0.1231 286.5
[000:00:03] Gen 20 best/avg/worst/avg_ft/ft_div/avg_size -/+ 96.1538/100.0000 -/+ 60.4987/73.5477 -/+ 13.4615/25.0000 0.6452 0.1230 282.3
[000:00:03] Gen 21 best/avg/worst/avg_ft/ft_div/avg_size -/+ 96.1538/100.0000 -/+ 60.8695/74.3664 -/+ 7.6923/25.0000 0.6514 0.1231 279.2
[000:00:03] Gen 22 best/avg/worst/avg_ft/ft_div/avg_size -/+ 96.1538/100.0000 -/+ 61.1383/75.0883 -/+ 5.7692/25.0000 0.6564 0.1227 275.6
[000:00:03] Gen 23 best/avg/worst/avg_ft/ft_div/avg_size -/+ 96.1538/100.0000 -/+ 61.5623/75.7023 -/+ 5.7692/25.0000 0.6620 0.1224 272.2
[000:00:03] Gen 24 best/avg/worst/avg_ft/ft_div/avg_size -/+ 96.1538/100.0000 -/+ 62.0165/76.1719 -/+ 9.6154/25.0000 0.6669 0.1223 270.6
[000:00:03] Gen 25 best/avg/worst/avg_ft/ft_div/avg_size -/+ 96.1538/100.0000 -/+ 62.5568/76.7453 -/+ 1.9231/25.0000 0.6731 0.1215 268.7
[000:00:03] Gen 26 best/avg/worst/avg_ft/ft_div/avg_size -/+ 96.1538/100.0000 -/+ 62.9900/77.4906 -/+ 1.9231/25.0000 0.6793 0.1215 265.9
[000:00:04] Gen 27 best/avg/worst/avg_ft/ft_div/avg_size -/+ 96.1538/100.0000 -/+ 63.5901/78.1047 -/+ 9.6154/25.0000 0.6856 0.1210 264.5
[000:00:04] Gen 28 best/avg/worst/avg_ft/ft_div/avg_size -/+ 98.0769/100.0000 -/+ 64.0025/78.5836 -/+ 7.6923/25.0000 0.6903 0.1206 263.4
[000:00:04] Gen 29 best/avg/worst/avg_ft/ft_div/avg_size -/+ 98.0769/100.0000 -/+ 64.3078/79.0805 -/+ 5.7692/25.0000 0.6946 0.1205 262.1
[000:00:04] Gen 30 best/avg/worst/avg_ft/ft_div/avg_size -/+ 98.0769/100.0000 -/+ 64.6826/79.6914 -/+ 11.5385/25.0000 0.6997 0.1202 262.7
[000:00:04] Gen 31 best/avg/worst/avg_ft/ft_div/avg_size -/+ 98.0769/100.0000 -/+ 65.1145/80.2703 -/+ 9.6154/25.0000 0.7051 0.1198 262.5
[000:00:04] Gen 32 best/avg/worst/avg_ft/ft_div/avg_size -/+ 98.0769/100.0000 -/+ 65.6444/80.7164 -/+ 7.6923/25.0000 0.7105 0.1062 263.4
[000:00:04] Gen 33 best/avg/worst/avg_ft/ft_div/avg_size -/+ 98.0769/100.0000 -/+ 66.6479/81.4570 -/+ 17.3077/25.0000 0.7200 0.1148 265.5
[000:00:04] Gen 34 best/avg/worst/avg_ft/ft_div/avg_size -/+ 98.0769/100.0000 -/+ 66.6635/81.8531 -/+ 7.6923/25.0000 0.7220 0.1171 266.5
[000:00:05] Gen 35 best/avg/worst/avg_ft/ft_div/avg_size -/+ 98.0769/100.0000 -/+ 66.9141/82.1867 -/+ 7.6923/25.0000 0.7253 0.1175 267.6
[000:00:05] Gen 36 best/avg/worst/avg_ft/ft_div/avg_size -/+ 98.0769/100.0000 -/+ 67.2290/82.3594 -/+ 11.5385/25.0000 0.7279 0.1183 268.0
[000:00:05] Gen 37 best/avg/worst/avg_ft/ft_div/avg_size -/+ 98.0769/100.0000 -/+ 67.6015/82.7219 -/+ 26.9231/25.0000 0.7318 0.1178 271.3
[000:00:05] Gen 38 best/avg/worst/avg_ft/ft_div/avg_size -/+ 98.0769/100.0000 -/+ 68.0361/82.9828 -/+ 5.7692/25.0000 0.7357 0.1181 273.8
[000:00:05] Gen 39 best/avg/worst/avg_ft/ft_div/avg_size -/+ 100.0000/100.0000 -/+ 68.3322/83.4766 -/+ 5.7692/25.0000 0.7396 0.1176 275.7
[000:00:05] Gen 40 best/avg/worst/avg_ft/ft_div/avg_size -/+ 100.0000/100.0000 -/+ 68.8256/83.7461 -/+ 15.3846/25.0000 0.7440 0.1169 278.7
[000:00:05] Gen 41 best/avg/worst/avg_ft/ft_div/avg_size -/+ 100.0000/100.0000 -/+ 69.2720/83.8414 -/+ 17.3077/25.0000 0.7471 0.1176 281.1
[000:00:06] Gen 42 best/avg/worst/avg_ft/ft_div/avg_size -/+ 100.0000/100.0000 -/+ 69.6045/84.0125 -/+ 3.8462/25.0000 0.7497 0.1176 282.9
[000:00:06] Gen 43 best/avg/worst/avg_ft/ft_div/avg_size -/+ 100.0000/100.0000 -/+ 70.0072/84.4375 -/+ 3.8462/25.0000 0.7541 0.1169 285.1
[000:00:06] Gen 44 best/avg/worst/avg_ft/ft_div/avg_size -/+ 100.0000/100.0000 -/+ 70.3761/84.5797 -/+ 3.8462/25.0000 0.7568 0.1173 287.2
[000:00:06] Gen 45 best/avg/worst/avg_ft/ft_div/avg_size -/+ 100.0000/100.0000 -/+ 70.7166/84.8617 -/+ 5.7692/25.0000 0.7603 0.1174 292.0
[000:00:06] Gen 46 best/avg/worst/avg_ft/ft_div/avg_size -/+ 100.0000/100.0000 -/+ 71.1445/85.0961 -/+ 5.7692/25.0000 0.7640 0.1169 295.0
[000:00:06] Gen 47 best/avg/worst/avg_ft/ft_div/avg_size -/+ 100.0000/100.0000 -/+ 71.3856/85.4383 -/+ 11.5385/25.0000 0.7671 0.1165 297.0
[000:00:07] Gen 48 best/avg/worst/avg_ft/ft_div/avg_size -/+ 100.0000/100.0000 -/+ 71.7469/85.5227 -/+ 9.6154/25.0000 0.7694 0.1008 299.4
[000:00:07] Gen 49 best/avg/worst/avg_ft/ft_div/avg_size -/+ 100.0000/100.0000 -/+ 72.4758/86.0437 -/+ 17.3077/25.0000 0.7763 0.1124 302.5
[000:00:07] Gen 50 best/avg/worst/avg_ft/ft_div/avg_size -/+ 100.0000/100.0000 -/+ 72.6229/86.0453 -/+ 19.2308/25.0000 0.7771 0.1144 305.2
[000:00:07] Gen 51 best/avg/worst/avg_ft/ft_div/avg_size -/+ 100.0000/100.0000 -/+ 72.8333/86.0461 -/+ 7.6923/25.0000 0.7782 0.1157 307.0
[000:00:07] Gen 52 best/avg/worst/avg_ft/ft_div/avg_size -/+ 100.0000/100.0000 -/+ 73.1172/86.2328 -/+ 7.6923/25.0000 0.7806 0.1157 311.4
[000:00:07] Gen 53 best/avg/worst/avg_ft/ft_div/avg_size -/+ 100.0000/100.0000 -/+ 73.3523/86.4547 -/+ 1.9231/25.0000 0.7830 0.1156 315.2
[000:00:07] Gen 54 best/avg/worst/avg_ft/ft_div/avg_size -/+ 100.0000/100.0000 -/+ 73.6996/86.4977 -/+ 23.0769/25.0000 0.7851 0.1151 318.4
[000:00:08] Gen 55 best/avg/worst/avg_ft/ft_div/avg_size -/+ 100.0000/100.0000 -/+ 73.8952/86.4227 -/+ 7.6923/25.0000 0.7860 0.1162 322.4
[000:00:08] Gen 56 best/avg/worst/avg_ft/ft_div/avg_size -/+ 100.0000/100.0000 -/+ 74.1888/86.5188 -/+ 17.3077/25.0000 0.7880 0.1162 325.0
[000:00:08] Gen 57 best/avg/worst/avg_ft/ft_div/avg_size -/+ 100.0000/100.0000 -/+ 74.4373/86.5461 -/+ 17.3077/25.0000 0.7895 0.1166 326.8
[000:00:08] Gen 58 best/avg/worst/avg_ft/ft_div/avg_size -/+ 100.0000/100.0000 -/+ 74.7354/86.6219 -/+ 9.6154/25.0000 0.7917 0.1159 330.6
[000:00:08] Gen 59 best/avg/worst/avg_ft/ft_div/avg_size -/+ 100.0000/100.0000 -/+ 75.0731/86.6516 -/+ 5.7692/25.0000 0.7935 0.1158 333.8
[000:00:08] Gen 60 best/avg/worst/avg_ft/ft_div/avg_size -/+ 100.0000/100.0000 -/+ 75.1645/86.7891 -/+ 7.6923/25.0000 0.7948 0.1162 336.4
[000:00:09] Gen 61 best/avg/worst/avg_ft/ft_div/avg_size -/+ 100.0000/100.0000 -/+ 75.4105/86.8477 -/+ 7.6923/25.0000 0.7963 0.1165 339.9
[000:00:09] Gen 62 best/avg/worst/avg_ft/ft_div/avg_size -/+ 100.0000/100.0000 -/+ 75.5990/87.0898 -/+ 7.6923/25.0000 0.7989 0.1154 343.3
[000:00:09] Gen 63 best/avg/worst/avg_ft/ft_div/avg_size -/+ 100.0000/100.0000 -/+ 75.7778/87.1023 -/+ 7.6923/25.0000 0.7998 0.1165 347.0
[000:00:09] Gen 64 best/avg/worst/avg_ft/ft_div/avg_size -/+ 100.0000/100.0000 -/+ 76.1472/86.9797 -/+ 9.6154/25.0000 0.8012 0.0980 350.4
[000:00:09] Gen 65 best/avg/worst/avg_ft/ft_div/avg_size -/+ 100.0000/100.0000 -/+ 76.9382/87.5289 -/+ 13.4615/25.0000 0.8085 0.1107 353.3
[000:00:09] Gen 66 best/avg/worst/avg_ft/ft_div/avg_size -/+ 100.0000/100.0000 -/+ 76.8458/87.3625 -/+ 3.8462/25.0000 0.8069 0.1136 356.6
[000:00:10] Gen 67 best/avg/worst/avg_ft/ft_div/avg_size -/+ 100.0000/100.0000 -/+ 77.0584/87.3961 -/+ 5.7692/25.0000 0.8084 0.1147 357.9
[000:00:10] Gen 68 best/avg/worst/avg_ft/ft_div/avg_size -/+ 100.0000/100.0000 -/+ 77.0425/87.4203 -/+ 21.1538/25.0000 0.8086 0.1157 360.3
[000:00:10] Gen 69 best/avg/worst/avg_ft/ft_div/avg_size -/+ 100.0000/100.0000 -/+ 77.2058/87.4047 -/+ 13.4615/25.0000 0.8090 0.1164 362.9
[000:00:10] Gen 70 best/avg/worst/avg_ft/ft_div/avg_size -/+ 100.0000/100.0000 -/+ 77.4121/87.5484 -/+ 7.6923/25.0000 0.8110 0.1160 365.5
[000:00:10] Gen 71 best/avg/worst/avg_ft/ft_div/avg_size -/+ 100.0000/100.0000 -/+ 77.6761/87.8164 -/+ 9.6154/25.0000 0.8140 0.1147 368.5
[000:00:10] Gen 72 best/avg/worst/avg_ft/ft_div/avg_size -/+ 100.0000/100.0000 -/+ 77.9394/87.7602 -/+ 11.5385/25.0000 0.8150 0.1150 371.6
[000:00:11] Gen 73 best/avg/worst/avg_ft/ft_div/avg_size -/+ 100.0000/100.0000 -/+ 78.1126/87.5906 -/+ 11.5385/25.0000 0.8152 0.1156 375.8
[000:00:11] Gen 74 best/avg/worst/avg_ft/ft_div/avg_size -/+ 100.0000/100.0000 -/+ 78.3181/87.7734 -/+ 15.3846/25.0000 0.8172 0.1149 379.5
[000:00:11] Gen 75 best/avg/worst/avg_ft/ft_div/avg_size -/+ 100.0000/100.0000 -/+ 78.5361/87.8555 -/+ 15.3846/25.0000 0.8188 0.1147 380.7
[000:00:11] Gen 76 best/avg/worst/avg_ft/ft_div/avg_size -/+ 100.0000/100.0000 -/+ 78.9320/88.0773 -/+ 11.5385/25.0000 0.8221 0.1129 383.1
[000:00:11] Gen 77 best/avg/worst/avg_ft/ft_div/avg_size -/+ 100.0000/100.0000 -/+ 79.0888/88.0641 -/+ 23.0769/25.0000 0.8228 0.1131 385.6
[000:00:12] Gen 78 best/avg/worst/avg_ft/ft_div/avg_size -/+ 100.0000/100.0000 -/+ 79.3107/88.2148 -/+ 19.2308/25.0000 0.8247 0.1126 388.3
[000:00:12] Gen 79 best/avg/worst/avg_ft/ft_div/avg_size -/+ 100.0000/100.0000 -/+ 79.4972/88.3883 -/+ 23.0769/25.0000 0.8269 0.1120 391.7
[000:00:12] Gen 80 best/avg/worst/avg_ft/ft_div/avg_size -/+ 100.0000/100.0000 -/+ 79.6035/88.5453 -/+ 9.6154/25.0000 0.8281 0.0926 394.3
[000:00:12] Gen 81 best/avg/worst/avg_ft/ft_div/avg_size -/+ 100.0000/100.0000 -/+ 80.1028/88.8594 -/+ 15.3846/25.0000 0.8329 0.1082 398.1
[000:00:12] Gen 82 best/avg/worst/avg_ft/ft_div/avg_size -/+ 100.0000/100.0000 -/+ 80.0553/88.6164 -/+ 1.9231/25.0000 0.8311 0.1108 401.4
[000:00:12] Gen 83 best/avg/worst/avg_ft/ft_div/avg_size -/+ 100.0000/100.0000 -/+ 79.8949/88.5273 -/+ 1.9231/25.0000 0.8296 0.1131 403.9
[000:00:13] Gen 84 best/avg/worst/avg_ft/ft_div/avg_size -/+ 100.0000/100.0000 -/+ 80.1306/88.3508 -/+ 1.9231/25.0000 0.8299 0.1137 405.7
[000:00:13] Gen 85 best/avg/worst/avg_ft/ft_div/avg_size -/+ 100.0000/100.0000 -/+ 80.3223/88.4133 -/+ 1.9231/25.0000 0.8314 0.1129 407.8
[000:00:13] Gen 86 best/avg/worst/avg_ft/ft_div/avg_size -/+ 100.0000/100.0000 -/+ 80.5294/88.5492 -/+ 1.9231/25.0000 0.8334 0.1113 409.6
[000:00:13] Gen 87 best/avg/worst/avg_ft/ft_div/avg_size -/+ 100.0000/100.0000 -/+ 80.7269/88.5219 -/+ 1.9231/25.0000 0.8342 0.1114 411.8
[000:00:13] Gen 88 best/avg/worst/avg_ft/ft_div/avg_size -/+ 100.0000/100.0000 -/+ 80.7865/88.4688 -/+ 1.9231/25.0000 0.8341 0.1121 413.4
[000:00:14] Gen 89 best/avg/worst/avg_ft/ft_div/avg_size -/+ 100.0000/100.0000 -/+ 81.0623/88.7563 -/+ 13.4615/25.0000 0.8371 0.1103 416.5
[000:00:14] Gen 90 best/avg/worst/avg_ft/ft_div/avg_size -/+ 100.0000/100.0000 -/+ 81.1170/88.8148 -/+ 23.0769/25.0000 0.8377 0.1108 418.5
[000:00:14] Gen 91 best/avg/worst/avg_ft/ft_div/avg_size -/+ 100.0000/100.0000 -/+ 81.3635/88.6844 -/+ 13.4615/25.0000 0.8383 0.1113 419.2
[000:00:14] Gen 92 best/avg/worst/avg_ft/ft_div/avg_size -/+ 100.0000/100.0000 -/+ 81.3431/88.7023 -/+ 1.9231/25.0000 0.8383 0.1120 421.8
[000:00:14] Gen 93 best/avg/worst/avg_ft/ft_div/avg_size -/+ 100.0000/100.0000 -/+ 81.5439/88.8266 -/+ 1.9231/25.0000 0.8399 0.1114 424.5
[000:00:15] Gen 94 best/avg/worst/avg_ft/ft_div/avg_size -/+ 100.0000/100.0000 -/+ 81.7091/88.9281 -/+ 1.9231/25.0000 0.8415 0.1109 426.8
[000:00:15] Gen 95 best/avg/worst/avg_ft/ft_div/avg_size -/+ 100.0000/100.0000 -/+ 81.8506/88.9734 -/+ 11.5385/25.0000 0.8424 0.1109 430.0
[000:00:15] Gen 96 best/avg/worst/avg_ft/ft_div/avg_size -/+ 100.0000/100.0000 -/+ 81.9519/89.0594 -/+ 9.6154/25.0000 0.8433 0.0906 432.1
[000:00:15] Gen 97 best/avg/worst/avg_ft/ft_div/avg_size -/+ 100.0000/100.0000 -/+ 82.5225/89.5922 -/+ 3.8462/25.0000 0.8495 0.1053 435.8
[000:00:15] Gen 98 best/avg/worst/avg_ft/ft_div/avg_size -/+ 100.0000/100.0000 -/+ 82.2607/89.2234 -/+ 3.8462/25.0000 0.8460 0.1094 438.0
[000:00:16] Gen 99 best/avg/worst/avg_ft/ft_div/avg_size -/+ 100.0000/100.0000 -/+ 82.3931/89.1086 -/+ 5.7692/25.0000 0.8461 0.1101 439.6
[000:00:16] Gen 100 best/avg/worst/avg_ft/ft_div/avg_size -/+ 100.0000/100.0000 -/+ 82.5821/89.2109 -/+ 5.7692/25.0000 0.8477 0.1092 440.9
[000:00:16] Gen 101 best/avg/worst/avg_ft/ft_div/avg_size -/+ 100.0000/100.0000 -/+ 82.6213/89.1625 -/+ 5.7692/25.0000 0.8475 0.1100 443.7
[000:00:16] Gen 102 best/avg/worst/avg_ft/ft_div/avg_size -/+ 100.0000/100.0000 -/+ 82.7375/89.2492 -/+ 5.7692/25.0000 0.8486 0.1093 445.7
[000:00:16] Gen 103 best/avg/worst/avg_ft/ft_div/avg_size -/+ 100.0000/100.0000 -/+ 82.9134/89.2234 -/+ 5.7692/25.0000 0.8493 0.1092 448.4
[000:00:16] Gen 104 best/avg/worst/avg_ft/ft_div/avg_size -/+ 100.0000/100.0000 -/+ 83.0166/89.1242 -/+ 7.6923/25.0000 0.8494 0.1097 449.3
[000:00:17] Gen 105 best/avg/worst/avg_ft/ft_div/avg_size -/+ 100.0000/100.0000 -/+ 83.1056/89.1422 -/+ 15.3846/25.0000 0.8499 0.1099 451.6
[000:00:17] Gen 106 best/avg/worst/avg_ft/ft_div/avg_size -/+ 100.0000/100.0000 -/+ 83.1916/89.1250 -/+ 21.1538/25.0000 0.8503 0.1103 451.8
[000:00:17] Gen 107 best/avg/worst/avg_ft/ft_div/avg_size -/+ 100.0000/100.0000 -/+ 83.2505/89.2320 -/+ 7.6923/25.0000 0.8512 0.1100 454.1
[000:00:17] Gen 108 best/avg/worst/avg_ft/ft_div/avg_size -/+ 100.0000/100.0000 -/+ 83.3241/89.1039 -/+ 7.6923/25.0000 0.8508 0.1109 455.5
[000:00:17] Gen 109 best/avg/worst/avg_ft/ft_div/avg_size -/+ 100.0000/100.0000 -/+ 83.5206/89.1078 -/+ 7.6923/25.0000 0.8519 0.1104 458.9
[000:00:18] Gen 110 best/avg/worst/avg_ft/ft_div/avg_size -/+ 100.0000/100.0000 -/+ 83.5898/89.2469 -/+ 7.6923/25.0000 0.8530 0.1098 459.0
[000:00:18] Gen 111 best/avg/worst/avg_ft/ft_div/avg_size -/+ 100.0000/100.0000 -/+ 83.7358/89.3109 -/+ 5.7692/25.0000 0.8540 0.1096 461.5
[000:00:18] Gen 112 best/avg/worst/avg_ft/ft_div/avg_size -/+ 100.0000/100.0000 -/+ 83.7761/89.4414 -/+ 1.9231/25.0000 0.8550 0.0886 466.3
[000:00:18] Gen 113 best/avg/worst/avg_ft/ft_div/avg_size -/+ 100.0000/100.0000 -/+ 84.4261/90.2547 -/+ 1.9231/25.0000 0.8632 0.1026 467.2
[000:00:18] Gen 114 best/avg/worst/avg_ft/ft_div/avg_size -/+ 100.0000/100.0000 -/+ 84.2375/89.8086 -/+ 1.9231/25.0000 0.8595 0.1067 468.1
[000:00:19] Gen 115 best/avg/worst/avg_ft/ft_div/avg_size -/+ 100.0000/100.0000 -/+ 84.1678/89.5820 -/+ 5.7692/25.0000 0.8577 0.1085 470.4
[000:00:19] Gen 116 best/avg/worst/avg_ft/ft_div/avg_size -/+ 100.0000/100.0000 -/+ 84.3227/89.6711 -/+ 5.7692/25.0000 0.8590 0.1077 471.7
[000:00:19] Gen 117 best/avg/worst/avg_ft/ft_div/avg_size -/+ 100.0000/100.0000 -/+ 84.4409/89.6219 -/+ 15.3846/25.0000 0.8592 0.1085 472.1
[000:00:19] Gen 118 best/avg/worst/avg_ft/ft_div/avg_size -/+ 100.0000/100.0000 -/+ 84.4405/89.7797 -/+ 1.9231/25.0000 0.8602 0.1076 472.8
[000:00:20] Gen 119 best/avg/worst/avg_ft/ft_div/avg_size -/+ 100.0000/100.0000 -/+ 84.3238/89.8188 -/+ 1.9231/25.0000 0.8599 0.1083 472.7
[000:00:20] Gen 120 best/avg/worst/avg_ft/ft_div/avg_size -/+ 100.0000/100.0000 -/+ 84.4567/89.7359 -/+ 3.8462/25.0000 0.8598 0.1086 475.3
[000:00:20] Gen 121 best/avg/worst/avg_ft/ft_div/avg_size -/+ 100.0000/100.0000 -/+ 84.6576/89.7164 -/+ 3.8462/25.0000 0.8608 0.1078 477.1
[000:00:20] Gen 122 best/avg/worst/avg_ft/ft_div/avg_size -/+ 100.0000/100.0000 -/+ 84.8445/89.6687 -/+ 3.8462/25.0000 0.8617 0.1074 479.1
[000:00:20] Gen 123 best/avg/worst/avg_ft/ft_div/avg_size -/+ 100.0000/100.0000 -/+ 84.8919/89.8523 -/+ 3.8462/25.0000 0.8629 0.1069 480.3
[000:00:21] Gen 124 best/avg/worst/avg_ft/ft_div/avg_size -/+ 100.0000/100.0000 -/+ 85.0082/89.8125 -/+ 5.7692/25.0000 0.8631 0.1075 480.9
[000:00:21] Gen 125 best/avg/worst/avg_ft/ft_div/avg_size -/+ 100.0000/100.0000 -/+ 85.0415/89.8234 -/+ 5.7692/25.0000 0.8633 0.1078 482.3
[000:00:21] Gen 126 best/avg/worst/avg_ft/ft_div/avg_size -/+ 100.0000/100.0000 -/+ 85.1718/89.8914 -/+ 5.7692/25.0000 0.8645 0.1071 483.4
[000:00:21] Gen 127 best/avg/worst/avg_ft/ft_div/avg_size -/+ 100.0000/100.0000 -/+ 85.3596/89.7812 -/+ 5.7692/25.0000 0.8649 0.1075 484.9
[000:00:21] Gen 128 best/avg/worst/avg_ft/ft_div/avg_size -/+ 100.0000/100.0000 -/+ 85.4225/89.7211 -/+ 7.6923/25.0000 0.8648 0.0863 485.6
[000:00:22] Gen 129 best/avg/worst/avg_ft/ft_div/avg_size -/+ 100.0000/100.0000 -/+ 85.8643/90.5430 -/+ 3.8462/25.0000 0.8719 0.1014 487.9
[000:00:22] Gen 130 best/avg/worst/avg_ft/ft_div/avg_size -/+ 100.0000/100.0000 -/+ 85.7627/90.2625 -/+ 9.6154/25.0000 0.8695 0.1040 489.5
[000:00:22] Gen 131 best/avg/worst/avg_ft/ft_div/avg_size -/+ 100.0000/100.0000 -/+ 85.7108/90.1211 -/+ 9.6154/25.0000 0.8686 0.1054 489.9
[000:00:22] Gen 132 best/avg/worst/avg_ft/ft_div/avg_size -/+ 100.0000/100.0000 -/+ 85.7070/89.8672 -/+ 9.6154/25.0000 0.8672 0.1068 491.4
[000:00:22] Gen 133 best/avg/worst/avg_ft/ft_div/avg_size -/+ 100.0000/100.0000 -/+ 85.6846/89.8438 -/+ 23.0769/25.0000 0.8668 0.1076 492.5
[000:00:23] Gen 134 best/avg/worst/avg_ft/ft_div/avg_size -/+ 100.0000/100.0000 -/+ 85.7988/89.9641 -/+ 25.0000/25.0000 0.8682 0.1064 493.5
[000:00:23] Gen 135 best/avg/worst/avg_ft/ft_div/avg_size -/+ 100.0000/100.0000 -/+ 85.9366/89.9813 -/+ 1.9231/25.0000 0.8692 0.1058 495.6
[000:00:23] Gen 136 best/avg/worst/avg_ft/ft_div/avg_size -/+ 100.0000/100.0000 -/+ 85.9992/90.0500 -/+ 17.3077/25.0000 0.8698 0.1056 497.4
[000:00:23] Gen 137 best/avg/worst/avg_ft/ft_div/avg_size -/+ 100.0000/100.0000 -/+ 86.0690/90.2219 -/+ 11.5385/25.0000 0.8708 0.1050 497.9
[000:00:23] Gen 138 best/avg/worst/avg_ft/ft_div/avg_size -/+ 100.0000/100.0000 -/+ 85.9654/90.1367 -/+ 13.4615/25.0000 0.8698 0.1060 500.6
[000:00:24] Gen 139 best/avg/worst/avg_ft/ft_div/avg_size -/+ 100.0000/100.0000 -/+ 86.1439/90.1445 -/+ 3.8462/25.0000 0.8709 0.1054 500.3
[000:00:24] Gen 140 best/avg/worst/avg_ft/ft_div/avg_size -/+ 100.0000/100.0000 -/+ 86.3748/90.2953 -/+ 3.8462/25.0000 0.8730 0.1041 501.7
[000:00:24] Gen 141 best/avg/worst/avg_ft/ft_div/avg_size -/+ 100.0000/100.0000 -/+ 86.4866/90.1211 -/+ 7.6923/25.0000 0.8725 0.1050 502.9
[000:00:24] Gen 142 best/avg/worst/avg_ft/ft_div/avg_size -/+ 100.0000/100.0000 -/+ 86.6173/90.2891 -/+ 11.5385/25.0000 0.8742 0.1038 503.6
[000:00:25] Gen 143 best/avg/worst/avg_ft/ft_div/avg_size -/+ 100.0000/100.0000 -/+ 86.4995/90.2039 -/+ 5.7692/25.0000 0.8732 0.1048 504.4
[000:00:25] Gen 144 best/avg/worst/avg_ft/ft_div/avg_size -/+ 100.0000/100.0000 -/+ 86.4872/90.3258 -/+ 9.6154/25.0000 0.8737 0.0830 507.3
[000:00:25] Gen 145 best/avg/worst/avg_ft/ft_div/avg_size -/+ 100.0000/100.0000 -/+ 86.9235/91.1156 -/+ 3.8462/25.0000 0.8808 0.0981 509.2
[000:00:25] Gen 146 best/avg/worst/avg_ft/ft_div/avg_size -/+ 100.0000/100.0000 -/+ 86.7067/90.7961 -/+ 3.8462/25.0000 0.8775 0.1016 510.3
[000:00:25] Gen 147 best/avg/worst/avg_ft/ft_div/avg_size -/+ 100.0000/100.0000 -/+ 86.6176/90.4266 -/+ 1.9231/25.0000 0.8749 0.1040 509.9
[000:00:26] Gen 148 best/avg/worst/avg_ft/ft_div/avg_size -/+ 100.0000/100.0000 -/+ 86.6868/90.4781 -/+ 21.1538/25.0000 0.8754 0.1040 511.2
[000:00:26] Gen 149 best/avg/worst/avg_ft/ft_div/avg_size -/+ 100.0000/100.0000 -/+ 86.6963/90.4430 -/+ 25.0000/25.0000 0.8753 0.1042 511.5
[000:00:26] Gen 150 best/avg/worst/avg_ft/ft_div/avg_size -/+ 100.0000/100.0000 -/+ 86.8045/90.4781 -/+ 5.7692/25.0000 0.8762 0.1035 512.4
[000:00:26] Gen 151 best/avg/worst/avg_ft/ft_div/avg_size -/+ 100.0000/100.0000 -/+ 86.8247/90.2422 -/+ 26.9231/25.0000 0.8749 0.1049 514.2
[000:00:26] Gen 152 best/avg/worst/avg_ft/ft_div/avg_size -/+ 100.0000/100.0000 -/+ 86.8850/90.4172 -/+ 9.6154/25.0000 0.8763 0.1039 515.1
[000:00:27] Gen 153 best/avg/worst/avg_ft/ft_div/avg_size -/+ 100.0000/100.0000 -/+ 86.9083/90.4289 -/+ 21.1538/25.0000 0.8766 0.1038 515.3
[000:00:27] Gen 154 best/avg/worst/avg_ft/ft_div/avg_size -/+ 100.0000/100.0000 -/+ 86.9922/90.4125 -/+ 23.0769/25.0000 0.8769 0.1036 516.1
[000:00:27] Gen 155 best/avg/worst/avg_ft/ft_div/avg_size -/+ 100.0000/100.0000 -/+ 87.0855/90.5086 -/+ 23.0769/25.0000 0.8778 0.1028 518.2
[000:00:27] Gen 156 best/avg/worst/avg_ft/ft_div/avg_size -/+ 100.0000/100.0000 -/+ 87.0835/90.5773 -/+ 26.9231/25.0000 0.8783 0.1028 517.4
[000:00:27] Gen 157 best/avg/worst/avg_ft/ft_div/avg_size -/+ 100.0000/100.0000 -/+ 87.0215/90.3469 -/+ 1.9231/25.0000 0.8766 0.1043 517.5
[000:00:28] Gen 158 best/avg/worst/avg_ft/ft_div/avg_size -/+ 100.0000/100.0000 -/+ 87.0153/90.4102 -/+ 1.9231/25.0000 0.8769 0.1044 516.7
[000:00:28] Gen 159 best/avg/worst/avg_ft/ft_div/avg_size -/+ 100.0000/100.0000 -/+ 87.1568/90.5563 -/+ 3.8462/25.0000 0.8786 0.1032 517.7
[000:00:28] Gen 160 best/avg/worst/avg_ft/ft_div/avg_size -/+ 100.0000/100.0000 -/+ 87.2373/90.6211 -/+ 11.5385/25.0000 0.8792 0.0806 518.5
[000:00:28] Gen 161 best/avg/worst/avg_ft/ft_div/avg_size -/+ 100.0000/100.0000 -/+ 87.6391/91.3398 -/+ 17.3077/25.0000 0.8856 0.0968 520.0
[000:00:28] Gen 162 best/avg/worst/avg_ft/ft_div/avg_size -/+ 100.0000/100.0000 -/+ 87.6081/91.0797 -/+ 15.3846/25.0000 0.8839 0.0986 520.8
[000:00:29] Gen 163 best/avg/worst/avg_ft/ft_div/avg_size -/+ 100.0000/100.0000 -/+ 87.6103/90.7578 -/+ 26.9231/25.0000 0.8822 0.1008 520.8
[000:00:29] Gen 164 best/avg/worst/avg_ft/ft_div/avg_size -/+ 100.0000/100.0000 -/+ 87.6327/90.7594 -/+ 5.7692/25.0000 0.8824 0.1011 520.9
[000:00:29] Gen 165 best/avg/worst/avg_ft/ft_div/avg_size -/+ 100.0000/100.0000 -/+ 87.6623/90.7406 -/+ 13.4615/25.0000 0.8822 0.1014 522.1
[000:00:29] Gen 166 best/avg/worst/avg_ft/ft_div/avg_size -/+ 100.0000/100.0000 -/+ 87.4665/90.8625 -/+ 13.4615/25.0000 0.8816 0.1019 522.5
[000:00:30] Gen 167 best/avg/worst/avg_ft/ft_div/avg_size -/+ 100.0000/100.0000 -/+ 87.4846/90.6750 -/+ 3.8462/25.0000 0.8807 0.1030 522.3
[000:00:30] Gen 168 best/avg/worst/avg_ft/ft_div/avg_size -/+ 100.0000/100.0000 -/+ 87.5896/90.6164 -/+ 15.3846/25.0000 0.8810 0.1025 522.4
[000:00:30] Gen 169 best/avg/worst/avg_ft/ft_div/avg_size -/+ 100.0000/100.0000 -/+ 87.6775/90.6898 -/+ 13.4615/25.0000 0.8817 0.1022 523.9
[000:00:30] Gen 170 best/avg/worst/avg_ft/ft_div/avg_size -/+ 100.0000/100.0000 -/+ 87.7223/90.6570 -/+ 13.4615/25.0000 0.8818 0.1023 524.2
[000:00:30] Gen 171 best/avg/worst/avg_ft/ft_div/avg_size -/+ 100.0000/100.0000 -/+ 87.7998/90.6437 -/+ 13.4615/25.0000 0.8821 0.1023 525.8
[000:00:31] Gen 172 best/avg/worst/avg_ft/ft_div/avg_size -/+ 100.0000/100.0000 -/+ 87.6931/90.8328 -/+ 7.6923/25.0000 0.8827 0.1017 526.5
[000:00:31] Gen 173 best/avg/worst/avg_ft/ft_div/avg_size -/+ 100.0000/100.0000 -/+ 87.8240/90.8047 -/+ 19.2308/25.0000 0.8832 0.1010 526.0
[000:00:31] Gen 174 best/avg/worst/avg_ft/ft_div/avg_size -/+ 100.0000/100.0000 -/+ 87.9339/90.9391 -/+ 19.2308/25.0000 0.8843 0.1008 527.0
[000:00:31] Gen 175 best/avg/worst/avg_ft/ft_div/avg_size -/+ 100.0000/100.0000 -/+ 87.9386/90.8203 -/+ 1.9231/25.0000 0.8840 0.1008 528.8
[000:00:31] Gen 176 best/avg/worst/avg_ft/ft_div/avg_size -/+ 100.0000/100.0000 -/+ 88.0132/90.8992 -/+ 13.4615/25.0000 0.8847 0.0783 530.5
[000:00:32] Gen 177 best/avg/worst/avg_ft/ft_div/avg_size -/+ 100.0000/100.0000 -/+ 88.5391/91.7031 -/+ 9.6154/25.0000 0.8924 0.0935 533.3
[000:00:32] Gen 178 best/avg/worst/avg_ft/ft_div/avg_size -/+ 100.0000/100.0000 -/+ 88.3025/91.2383 -/+ 3.8462/25.0000 0.8883 0.0977 532.6
[000:00:32] Gen 179 best/avg/worst/avg_ft/ft_div/avg_size -/+ 100.0000/100.0000 -/+ 88.0704/91.0312 -/+ 15.3846/25.0000 0.8858 0.1000 532.6
[000:00:32] Gen 180 best/avg/worst/avg_ft/ft_div/avg_size -/+ 100.0000/100.0000 -/+ 88.1106/90.7695 -/+ 1.9231/25.0000 0.8845 0.1015 531.7
[000:00:32] Gen 181 best/avg/worst/avg_ft/ft_div/avg_size -/+ 100.0000/100.0000 -/+ 88.0688/90.7344 -/+ 1.9231/25.0000 0.8841 0.1020 531.5
[000:00:33] Gen 182 best/avg/worst/avg_ft/ft_div/avg_size -/+ 100.0000/100.0000 -/+ 88.0722/90.8047 -/+ 9.6154/25.0000 0.8845 0.1017 532.5
[000:00:33] Gen 183 best/avg/worst/avg_ft/ft_div/avg_size -/+ 100.0000/100.0000 -/+ 88.1591/90.8820 -/+ 9.6154/25.0000 0.8855 0.1011 532.9
[000:00:33] Gen 184 best/avg/worst/avg_ft/ft_div/avg_size -/+ 100.0000/100.0000 -/+ 88.1650/90.9172 -/+ 13.4615/25.0000 0.8856 0.1013 531.3
[000:00:33] Gen 185 best/avg/worst/avg_ft/ft_div/avg_size -/+ 100.0000/100.0000 -/+ 88.3085/90.7703 -/+ 11.5385/25.0000 0.8854 0.1016 532.9
[000:00:34] Gen 186 best/avg/worst/avg_ft/ft_div/avg_size -/+ 100.0000/100.0000 -/+ 88.3113/90.8008 -/+ 11.5385/25.0000 0.8856 0.1016 532.9
[000:00:34] Gen 187 best/avg/worst/avg_ft/ft_div/avg_size -/+ 100.0000/100.0000 -/+ 88.4412/90.8469 -/+ 3.8462/25.0000 0.8866 0.1009 533.2
[000:00:34] Gen 188 best/avg/worst/avg_ft/ft_div/avg_size -/+ 100.0000/100.0000 -/+ 88.4632/90.9992 -/+ 19.2308/25.0000 0.8877 0.1000 534.3
[000:00:34] Gen 189 best/avg/worst/avg_ft/ft_div/avg_size -/+ 100.0000/100.0000 -/+ 88.4906/91.0391 -/+ 1.9231/25.0000 0.8881 0.0994 534.6
[000:00:34] Gen 190 best/avg/worst/avg_ft/ft_div/avg_size -/+ 100.0000/100.0000 -/+ 88.5701/91.0203 -/+ 1.9231/25.0000 0.8885 0.0993 535.9
[000:00:35] Gen 191 best/avg/worst/avg_ft/ft_div/avg_size -/+ 100.0000/100.0000 -/+ 88.5055/90.8961 -/+ 1.9231/25.0000 0.8873 0.1008 536.1
[000:00:35] Gen 192 best/avg/worst/avg_ft/ft_div/avg_size -/+ 100.0000/100.0000 -/+ 88.4797/90.9469 -/+ 15.3846/25.0000 0.8874 0.0784 535.6
[000:00:35] Gen 193 best/avg/worst/avg_ft/ft_div/avg_size -/+ 100.0000/100.0000 -/+ 88.9949/91.7453 -/+ 15.3846/25.0000 0.8947 0.0942 539.2
[000:00:35] Gen 194 best/avg/worst/avg_ft/ft_div/avg_size -/+ 100.0000/100.0000 -/+ 88.7670/91.2844 -/+ 3.8462/25.0000 0.8908 0.0979 538.0
[000:00:35] Gen 195 best/avg/worst/avg_ft/ft_div/avg_size -/+ 100.0000/100.0000 -/+ 88.8596/91.2023 -/+ 3.8462/25.0000 0.8908 0.0980 538.1
[000:00:36] Gen 196 best/avg/worst/avg_ft/ft_div/avg_size -/+ 100.0000/100.0000 -/+ 88.8316/91.0313 -/+ 9.6154/25.0000 0.8897 0.0994 537.9
[000:00:36] Gen 197 best/avg/worst/avg_ft/ft_div/avg_size -/+ 100.0000/100.0000 -/+ 88.8557/91.1781 -/+ 1.9231/25.0000 0.8905 0.0989 536.5
[000:00:36] Gen 198 best/avg/worst/avg_ft/ft_div/avg_size -/+ 100.0000/100.0000 -/+ 88.9011/91.2117 -/+ 1.9231/25.0000 0.8910 0.0987 535.4
[000:00:36] Gen 199 best/avg/worst/avg_ft/ft_div/avg_size -/+ 100.0000/100.0000 -/+ 88.7912/91.1820 -/+ 9.6154/25.0000 0.8902 0.0991 536.4
[000:00:36] Gen 200 best/avg/worst/avg_ft/ft_div/avg_size -/+ 100.0000/100.0000 -/+ 88.7788/91.2078 -/+ 28.8462/25.0000 0.8902 0.0990 535.5
[000:00:37] Gen 201 best/avg/worst/avg_ft/ft_div/avg_size -/+ 100.0000/100.0000 -/+ 88.7704/91.2930 -/+ 3.8462/25.0000 0.8908 0.0987 535.0
[000:00:37] Gen 202 best/avg/worst/avg_ft/ft_div/avg_size -/+ 100.0000/100.0000 -/+ 88.7776/91.1039 -/+ 5.7692/25.0000 0.8898 0.0996 535.5
[000:00:37] Gen 203 best/avg/worst/avg_ft/ft_div/avg_size -/+ 100.0000/100.0000 -/+ 88.8275/91.1047 -/+ 17.3077/25.0000 0.8899 0.0996 535.3
[000:00:37] Gen 204 best/avg/worst/avg_ft/ft_div/avg_size -/+ 100.0000/100.0000 -/+ 88.9126/91.1625 -/+ 17.3077/25.0000 0.8908 0.0987 535.1
[000:00:38] Gen 205 best/avg/worst/avg_ft/ft_div/avg_size -/+ 100.0000/100.0000 -/+ 88.9169/91.2328 -/+ 13.4615/25.0000 0.8911 0.0984 535.9
[000:00:38] Gen 206 best/avg/worst/avg_ft/ft_div/avg_size -/+ 100.0000/100.0000 -/+ 88.8790/91.2117 -/+ 11.5385/25.0000 0.8909 0.0988 536.7
[000:00:38] Gen 207 best/avg/worst/avg_ft/ft_div/avg_size -/+ 100.0000/100.0000 -/+ 88.9460/91.2492 -/+ 11.5385/25.0000 0.8916 0.0986 535.5
[000:00:38] Gen 208 best/avg/worst/avg_ft/ft_div/avg_size -/+ 100.0000/100.0000 -/+ 89.0028/91.1359 -/+ 1.9231/25.0000 0.8912 0.0762 536.2
[000:00:38] Gen 209 best/avg/worst/avg_ft/ft_div/avg_size -/+ 100.0000/100.0000 -/+ 89.4603/91.9648 -/+ 15.3846/25.0000 0.8987 0.0919 538.3
[000:00:39] Gen 210 best/avg/worst/avg_ft/ft_div/avg_size -/+ 100.0000/100.0000 -/+ 89.2413/91.6039 -/+ 1.9231/25.0000 0.8951 0.0954 538.9
[000:00:39] Gen 211 best/avg/worst/avg_ft/ft_div/avg_size -/+ 100.0000/100.0000 -/+ 89.1744/91.4656 -/+ 1.9231/25.0000 0.8939 0.0968 540.7
[000:00:39] Gen 212 best/avg/worst/avg_ft/ft_div/avg_size -/+ 100.0000/100.0000 -/+ 89.1013/91.3227 -/+ 1.9231/25.0000 0.8929 0.0979 541.6
[000:00:39] Gen 213 best/avg/worst/avg_ft/ft_div/avg_size -/+ 100.0000/100.0000 -/+ 89.1845/91.4539 -/+ 1.9231/25.0000 0.8939 0.0971 539.9
[000:00:39] Gen 214 best/avg/worst/avg_ft/ft_div/avg_size -/+ 100.0000/100.0000 -/+ 89.0979/91.3766 -/+ 1.9231/25.0000 0.8929 0.0983 539.8
[000:00:40] Gen 215 best/avg/worst/avg_ft/ft_div/avg_size -/+ 100.0000/100.0000 -/+ 89.1504/91.3992 -/+ 1.9231/25.0000 0.8933 0.0980 539.0
[000:00:40] Gen 216 best/avg/worst/avg_ft/ft_div/avg_size -/+ 100.0000/100.0000 -/+ 89.1302/91.4102 -/+ 3.8462/25.0000 0.8933 0.0982 538.4
[000:00:40] Gen 217 best/avg/worst/avg_ft/ft_div/avg_size -/+ 100.0000/100.0000 -/+ 89.1203/91.3562 -/+ 3.8462/25.0000 0.8929 0.0987 538.1
[000:00:40] Gen 218 best/avg/worst/avg_ft/ft_div/avg_size -/+ 100.0000/100.0000 -/+ 89.2504/91.3016 -/+ 3.8462/25.0000 0.8933 0.0984 537.3
[000:00:41] Gen 219 best/avg/worst/avg_ft/ft_div/avg_size -/+ 100.0000/100.0000 -/+ 89.2900/91.4336 -/+ 3.8462/25.0000 0.8941 0.0975 538.6
[000:00:41] Gen 220 best/avg/worst/avg_ft/ft_div/avg_size -/+ 100.0000/100.0000 -/+ 89.2500/91.4266 -/+ 1.9231/25.0000 0.8940 0.0975 536.9
[000:00:41] Gen 221 best/avg/worst/avg_ft/ft_div/avg_size -/+ 100.0000/100.0000 -/+ 89.2612/91.4320 -/+ 1.9231/25.0000 0.8940 0.0977 536.7
[000:00:41] Gen 222 best/avg/worst/avg_ft/ft_div/avg_size -/+ 100.0000/100.0000 -/+ 89.3915/91.4914 -/+ 1.9231/25.0000 0.8951 0.0970 537.7
[000:00:41] Gen 223 best/avg/worst/avg_ft/ft_div/avg_size -/+ 100.0000/100.0000 -/+ 89.2409/91.3703 -/+ 3.8462/25.0000 0.8936 0.0981 537.3
[000:00:42] Gen 224 best/avg/worst/avg_ft/ft_div/avg_size -/+ 100.0000/100.0000 -/+ 89.3422/91.3719 -/+ 3.8462/25.0000 0.8941 0.0746 537.1
[000:00:42] Gen 225 best/avg/worst/avg_ft/ft_div/avg_size -/+ 100.0000/100.0000 -/+ 89.6620/92.0875 -/+ 11.5385/25.0000 0.9001 0.0922 538.7
[000:00:42] Gen 226 best/avg/worst/avg_ft/ft_div/avg_size -/+ 100.0000/100.0000 -/+ 89.4148/91.6859 -/+ 9.6154/25.0000 0.8964 0.0956 538.2
[000:00:42] Gen 227 best/avg/worst/avg_ft/ft_div/avg_size -/+ 100.0000/100.0000 -/+ 89.3103/91.3789 -/+ 5.7692/25.0000 0.8939 0.0981 539.2
[000:00:42] Gen 228 best/avg/worst/avg_ft/ft_div/avg_size -/+ 100.0000/100.0000 -/+ 89.2857/91.2664 -/+ 5.7692/25.0000 0.8932 0.0987 536.7
[000:00:43] Gen 229 best/avg/worst/avg_ft/ft_div/avg_size -/+ 100.0000/100.0000 -/+ 89.3039/91.2719 -/+ 5.7692/25.0000 0.8933 0.0984 537.4
[000:00:43] Gen 230 best/avg/worst/avg_ft/ft_div/avg_size -/+ 100.0000/100.0000 -/+ 89.3606/91.2703 -/+ 21.1538/25.0000 0.8938 0.0982 534.6
[000:00:43] Gen 231 best/avg/worst/avg_ft/ft_div/avg_size -/+ 100.0000/100.0000 -/+ 89.3707/91.2836 -/+ 21.1538/25.0000 0.8938 0.0981 534.4
[000:00:43] Gen 232 best/avg/worst/avg_ft/ft_div/avg_size -/+ 100.0000/100.0000 -/+ 89.3971/91.3266 -/+ 21.1538/25.0000 0.8940 0.0981 534.8
[000:00:43] Gen 233 best/avg/worst/avg_ft/ft_div/avg_size -/+ 100.0000/100.0000 -/+ 89.4430/91.3836 -/+ 1.9231/25.0000 0.8945 0.0979 537.1
[000:00:44] Gen 234 best/avg/worst/avg_ft/ft_div/avg_size -/+ 100.0000/100.0000 -/+ 89.5575/91.3336 -/+ 1.9231/25.0000 0.8948 0.0975 536.1
[000:00:44] Gen 235 best/avg/worst/avg_ft/ft_div/avg_size -/+ 100.0000/100.0000 -/+ 89.5371/91.3891 -/+ 1.9231/25.0000 0.8950 0.0976 538.1
[000:00:44] Gen 236 best/avg/worst/avg_ft/ft_div/avg_size -/+ 100.0000/100.0000 -/+ 89.5555/91.3469 -/+ 21.1538/25.0000 0.8951 0.0974 539.2
[000:00:44] Gen 237 best/avg/worst/avg_ft/ft_div/avg_size -/+ 100.0000/100.0000 -/+ 89.5670/91.3250 -/+ 3.8462/25.0000 0.8953 0.0972 538.1
[000:00:45] Gen 238 best/avg/worst/avg_ft/ft_div/avg_size -/+ 100.0000/100.0000 -/+ 89.4547/91.3766 -/+ 9.6154/25.0000 0.8948 0.0978 537.6
[000:00:45] Gen 239 best/avg/worst/avg_ft/ft_div/avg_size -/+ 100.0000/100.0000 -/+ 89.5925/91.3195 -/+ 3.8462/25.0000 0.8952 0.0976 537.5
[000:00:45] Gen 240 best/avg/worst/avg_ft/ft_div/avg_size -/+ 100.0000/100.0000 -/+ 89.4203/91.3352 -/+ 3.8462/25.0000 0.8943 0.0750 538.0
[000:00:45] Gen 241 best/avg/worst/avg_ft/ft_div/avg_size -/+ 100.0000/100.0000 -/+ 89.9334/92.0641 -/+ 17.3077/25.0000 0.9014 0.0917 536.9
[000:00:45] Gen 242 best/avg/worst/avg_ft/ft_div/avg_size -/+ 100.0000/100.0000 -/+ 89.6483/91.6203 -/+ 17.3077/25.0000 0.8972 0.0956 537.9
[000:00:46] Gen 243 best/avg/worst/avg_ft/ft_div/avg_size -/+ 100.0000/100.0000 -/+ 89.5493/91.4148 -/+ 7.6923/25.0000 0.8955 0.0971 536.1
[000:00:46] Gen 244 best/avg/worst/avg_ft/ft_div/avg_size -/+ 100.0000/100.0000 -/+ 89.5854/91.2969 -/+ 9.6154/25.0000 0.8950 0.0978 535.9
[000:00:46] Gen 245 best/avg/worst/avg_ft/ft_div/avg_size -/+ 100.0000/100.0000 -/+ 89.6376/91.2328 -/+ 5.7692/25.0000 0.8950 0.0977 536.2
[000:00:46] Gen 246 best/avg/worst/avg_ft/ft_div/avg_size -/+ 100.0000/100.0000 -/+ 89.7173/91.3820 -/+ 5.7692/25.0000 0.8962 0.0966 538.0
[000:00:47] Gen 247 best/avg/worst/avg_ft/ft_div/avg_size -/+ 100.0000/100.0000 -/+ 89.6798/91.4617 -/+ 1.9231/25.0000 0.8965 0.0964 536.6
[000:00:47] Gen 248 best/avg/worst/avg_ft/ft_div/avg_size -/+ 100.0000/100.0000 -/+ 89.6526/91.4102 -/+ 1.9231/25.0000 0.8960 0.0969 537.9
[000:00:47] Gen 249 best/avg/worst/avg_ft/ft_div/avg_size -/+ 100.0000/100.0000 -/+ 89.6437/91.5180 -/+ 7.6923/25.0000 0.8965 0.0967 538.9
[000:00:47] Gen 250 best/avg/worst/avg_ft/ft_div/avg_size -/+ 100.0000/100.0000 -/+ 89.7217/91.3992 -/+ 7.6923/25.0000 0.8962 0.0969 538.3
[000:00:47] Gen 251 best/avg/worst/avg_ft/ft_div/avg_size -/+ 100.0000/100.0000 -/+ 89.6270/91.3734 -/+ 3.8462/25.0000 0.8956 0.0974 537.4
[000:00:48] Gen 252 best/avg/worst/avg_ft/ft_div/avg_size -/+ 100.0000/100.0000 -/+ 89.8380/91.3977 -/+ 3.8462/25.0000 0.8971 0.0961 538.3
[000:00:48] Gen 253 best/avg/worst/avg_ft/ft_div/avg_size -/+ 100.0000/100.0000 -/+ 89.8091/91.3617 -/+ 3.8462/25.0000 0.8967 0.0965 538.8
[000:00:48] Gen 254 best/avg/worst/avg_ft/ft_div/avg_size -/+ 100.0000/100.0000 -/+ 89.8583/91.3344 -/+ 23.0769/25.0000 0.8969 0.0963 539.0
[000:00:48] Gen 255 best/avg/worst/avg_ft/ft_div/avg_size -/+ 100.0000/100.0000 -/+ 89.8087/91.3625 -/+ 32.6923/25.0000 0.8966 0.0968 537.2
[000:00:48] Gen 256 best/avg/worst/avg_ft/ft_div/avg_size -/+ 100.0000/100.0000 -/+ 89.7704/91.4086 -/+ 5.7692/25.0000 0.8965 0.0735 538.0
[000:00:49] Gen 257 best/avg/worst/avg_ft/ft_div/avg_size -/+ 100.0000/100.0000 -/+ 90.2659/92.3055 -/+ 7.6923/25.0000 0.9047 0.0890 539.2
[000:00:49] Gen 258 best/avg/worst/avg_ft/ft_div/avg_size -/+ 100.0000/100.0000 -/+ 89.9177/91.9570 -/+ 3.8462/25.0000 0.9006 0.0928 537.4
[000:00:49] Gen 259 best/avg/worst/avg_ft/ft_div/avg_size -/+ 100.0000/100.0000 -/+ 89.9037/91.7266 -/+ 17.3077/25.0000 0.8990 0.0946 537.4
[000:00:49] Gen 260 best/avg/worst/avg_ft/ft_div/avg_size -/+ 100.0000/100.0000 -/+ 89.8182/91.5484 -/+ 13.4615/25.0000 0.8975 0.0959 537.7
[000:00:49] Gen 261 best/avg/worst/avg_ft/ft_div/avg_size -/+ 100.0000/100.0000 -/+ 89.8163/91.5812 -/+ 13.4615/25.0000 0.8977 0.0959 537.5
[000:00:50] Gen 262 best/avg/worst/avg_ft/ft_div/avg_size -/+ 100.0000/100.0000 -/+ 89.7558/91.3938 -/+ 17.3077/25.0000 0.8963 0.0975 537.0
[000:00:50] Gen 263 best/avg/worst/avg_ft/ft_div/avg_size -/+ 100.0000/100.0000 -/+ 89.6410/91.4523 -/+ 7.6923/25.0000 0.8959 0.0975 535.8
[000:00:50] Gen 264 best/avg/worst/avg_ft/ft_div/avg_size -/+ 100.0000/100.0000 -/+ 89.6447/91.6406 -/+ 1.9231/25.0000 0.8971 0.0968 536.1
[000:00:50] Gen 265 best/avg/worst/avg_ft/ft_div/avg_size -/+ 100.0000/100.0000 -/+ 89.6983/91.4258 -/+ 1.9231/25.0000 0.8963 0.0975 535.6
[000:00:51] Gen 266 best/avg/worst/avg_ft/ft_div/avg_size -/+ 100.0000/100.0000 -/+ 89.8358/91.3898 -/+ 13.4615/25.0000 0.8967 0.0970 533.5
[000:00:51] Gen 267 best/avg/worst/avg_ft/ft_div/avg_size -/+ 100.0000/100.0000 -/+ 89.7474/91.4680 -/+ 7.6923/25.0000 0.8967 0.0969 531.9
[000:00:51] Gen 268 best/avg/worst/avg_ft/ft_div/avg_size -/+ 100.0000/100.0000 -/+ 89.8999/91.4578 -/+ 13.4615/25.0000 0.8976 0.0963 532.9
[000:00:51] Gen 269 best/avg/worst/avg_ft/ft_div/avg_size -/+ 100.0000/100.0000 -/+ 89.9730/91.4453 -/+ 3.8462/25.0000 0.8977 0.0962 533.6
[000:00:51] Gen 270 best/avg/worst/avg_ft/ft_div/avg_size -/+ 100.0000/100.0000 -/+ 89.9262/91.3586 -/+ 3.8462/25.0000 0.8971 0.0971 532.4
[000:00:52] Gen 271 best/avg/worst/avg_ft/ft_div/avg_size -/+ 100.0000/100.0000 -/+ 89.9390/91.3578 -/+ 3.8462/25.0000 0.8971 0.0968 534.9
[000:00:52] Gen 272 best/avg/worst/avg_ft/ft_div/avg_size -/+ 100.0000/100.0000 -/+ 89.9071/91.4461 -/+ 3.8462/25.0000 0.8974 0.0727 535.8
[000:00:52] Gen 273 best/avg/worst/avg_ft/ft_div/avg_size -/+ 100.0000/100.0000 -/+ 90.2805/92.3656 -/+ 7.6923/25.0000 0.9049 0.0891 537.5
[000:00:52] Gen 274 best/avg/worst/avg_ft/ft_div/avg_size -/+ 100.0000/100.0000 -/+ 90.0910/91.8344 -/+ 7.6923/25.0000 0.9006 0.0933 535.9
[000:00:52] Gen 275 best/avg/worst/avg_ft/ft_div/avg_size -/+ 100.0000/100.0000 -/+ 90.0112/91.7742 -/+ 7.6923/25.0000 0.8999 0.0941 535.4
[000:00:53] Gen 276 best/avg/worst/avg_ft/ft_div/avg_size -/+ 100.0000/100.0000 -/+ 89.8938/91.5414 -/+ 23.0769/25.0000 0.8980 0.0956 535.5
[000:00:53] Gen 277 best/avg/worst/avg_ft/ft_div/avg_size -/+ 100.0000/100.0000 -/+ 89.7270/91.5953 -/+ 9.6154/25.0000 0.8972 0.0966 535.3
[000:00:53] Gen 278 best/avg/worst/avg_ft/ft_div/avg_size -/+ 100.0000/100.0000 -/+ 89.7648/91.6508 -/+ 3.8462/25.0000 0.8977 0.0960 534.7
[000:00:53] Gen 279 best/avg/worst/avg_ft/ft_div/avg_size -/+ 100.0000/100.0000 -/+ 89.6713/91.4164 -/+ 3.8462/25.0000 0.8959 0.0977 533.4
[000:00:53] Gen 280 best/avg/worst/avg_ft/ft_div/avg_size -/+ 100.0000/100.0000 -/+ 89.8768/91.4602 -/+ 3.8462/25.0000 0.8973 0.0965 534.3
[000:00:54] Gen 281 best/avg/worst/avg_ft/ft_div/avg_size -/+ 100.0000/100.0000 -/+ 89.9363/91.5289 -/+ 3.8462/25.0000 0.8979 0.0963 534.6
[000:00:54] Gen 282 best/avg/worst/avg_ft/ft_div/avg_size -/+ 100.0000/100.0000 -/+ 89.9335/91.5445 -/+ 3.8462/25.0000 0.8982 0.0961 534.8
[000:00:54] Gen 283 best/avg/worst/avg_ft/ft_div/avg_size -/+ 100.0000/100.0000 -/+ 89.9517/91.6445 -/+ 3.8462/25.0000 0.8986 0.0960 535.4
[000:00:54] Gen 284 best/avg/worst/avg_ft/ft_div/avg_size -/+ 100.0000/100.0000 -/+ 89.9865/91.4656 -/+ 1.9231/25.0000 0.8978 0.0967 535.3
[000:00:55] Gen 285 best/avg/worst/avg_ft/ft_div/avg_size -/+ 100.0000/100.0000 -/+ 89.9945/91.4898 -/+ 3.8462/25.0000 0.8981 0.0963 537.0
[000:00:55] Gen 286 best/avg/worst/avg_ft/ft_div/avg_size -/+ 100.0000/100.0000 -/+ 89.8147/91.5859 -/+ 3.8462/25.0000 0.8976 0.0967 535.3
[000:00:55] Gen 287 best/avg/worst/avg_ft/ft_div/avg_size -/+ 100.0000/100.0000 -/+ 89.7422/91.5133 -/+ 1.9231/25.0000 0.8968 0.0971 535.7
[000:00:55] Gen 288 best/avg/worst/avg_ft/ft_div/avg_size -/+ 100.0000/100.0000 -/+ 89.7662/91.6023 -/+ 3.8462/25.0000 0.8976 0.0728 535.2
[000:00:55] Gen 289 best/avg/worst/avg_ft/ft_div/avg_size -/+ 100.0000/100.0000 -/+ 90.2801/92.3211 -/+ 3.8462/25.0000 0.9046 0.0900 537.2
[000:00:56] Gen 290 best/avg/worst/avg_ft/ft_div/avg_size -/+ 100.0000/100.0000 -/+ 90.0628/91.8805 -/+ 3.8462/25.0000 0.9008 0.0935 535.7
[000:00:56] Gen 291 best/avg/worst/avg_ft/ft_div/avg_size -/+ 100.0000/100.0000 -/+ 90.0167/91.5984 -/+ 1.9231/25.0000 0.8990 0.0954 535.4
[000:00:56] Gen 292 best/avg/worst/avg_ft/ft_div/avg_size -/+ 100.0000/100.0000 -/+ 89.9276/91.5508 -/+ 1.9231/25.0000 0.8982 0.0961 534.7
[000:00:56] Gen 293 best/avg/worst/avg_ft/ft_div/avg_size -/+ 100.0000/100.0000 -/+ 89.9457/91.5742 -/+ 3.8462/25.0000 0.8983 0.0963 534.1
[000:00:56] Gen 294 best/avg/worst/avg_ft/ft_div/avg_size -/+ 100.0000/100.0000 -/+ 89.9573/91.6922 -/+ 3.8462/25.0000 0.8990 0.0957 532.2
[000:00:57] Gen 295 best/avg/worst/avg_ft/ft_div/avg_size -/+ 100.0000/100.0000 -/+ 90.1541/91.6219 -/+ 3.8462/25.0000 0.8995 0.0953 532.0
[000:00:57] Gen 296 best/avg/worst/avg_ft/ft_div/avg_size -/+ 100.0000/100.0000 -/+ 90.1763/91.5375 -/+ 5.7692/25.0000 0.8993 0.0953 534.7
[000:00:57] Gen 297 best/avg/worst/avg_ft/ft_div/avg_size -/+ 100.0000/100.0000 -/+ 89.9612/91.6047 -/+ 3.8462/25.0000 0.8986 0.0957 533.7
[000:00:57] Gen 298 best/avg/worst/avg_ft/ft_div/avg_size -/+ 100.0000/100.0000 -/+ 89.9472/91.7695 -/+ 3.8462/25.0000 0.8993 0.0951 532.4
[000:00:57] Gen 299 best/avg/worst/avg_ft/ft_div/avg_size -/+ 100.0000/100.0000 -/+ 89.9370/91.7102 -/+ 21.1538/25.0000 0.8990 0.0953 533.5
[000:00:58] Gen 300 best/avg/worst/avg_ft/ft_div/avg_size -/+ 100.0000/100.0000 -/+ 90.0494/91.6312 -/+ 3.8462/25.0000 0.8991 0.0956 532.2
[000:00:58] Gen 301 best/avg/worst/avg_ft/ft_div/avg_size -/+ 100.0000/100.0000 -/+ 90.0222/91.6328 -/+ 3.8462/25.0000 0.8988 0.0957 532.3
[000:00:58] Gen 302 best/avg/worst/avg_ft/ft_div/avg_size -/+ 100.0000/100.0000 -/+ 90.1269/91.6164 -/+ 3.8462/25.0000 0.8993 0.0953 531.8
[000:00:58] Gen 303 best/avg/worst/avg_ft/ft_div/avg_size -/+ 100.0000/100.0000 -/+ 90.1832/91.6398 -/+ 3.8462/25.0000 0.8997 0.0950 531.6
[000:00:59] Gen 304 best/avg/worst/avg_ft/ft_div/avg_size -/+ 100.0000/100.0000 -/+ 90.0553/91.5852 -/+ 32.6923/25.0000 0.8988 0.0721 529.6
[000:00:59] Gen 305 best/avg/worst/avg_ft/ft_div/avg_size -/+ 100.0000/100.0000 -/+ 90.4451/92.4992 -/+ 21.1538/25.0000 0.9065 0.0885 531.2
[000:00:59] Gen 306 best/avg/worst/avg_ft/ft_div/avg_size -/+ 100.0000/100.0000 -/+ 90.3028/92.0953 -/+ 17.3077/25.0000 0.9033 0.0917 532.4
[000:00:59] Gen 307 best/avg/worst/avg_ft/ft_div/avg_size -/+ 100.0000/100.0000 -/+ 90.0419/91.8672 -/+ 7.6923/25.0000 0.9005 0.0943 531.8
[000:00:59] Gen 308 best/avg/worst/avg_ft/ft_div/avg_size -/+ 100.0000/100.0000 -/+ 90.0725/91.5906 -/+ 13.4615/25.0000 0.8990 0.0957 532.1
[000:01:00] Gen 309 best/avg/worst/avg_ft/ft_div/avg_size -/+ 100.0000/100.0000 -/+ 90.0338/91.7703 -/+ 13.4615/25.0000 0.8998 0.0950 530.0
[000:01:00] Gen 310 best/avg/worst/avg_ft/ft_div/avg_size -/+ 100.0000/100.0000 -/+ 90.0163/91.8773 -/+ 17.3077/25.0000 0.9003 0.0945 531.8
[000:01:00] Gen 311 best/avg/worst/avg_ft/ft_div/avg_size -/+ 100.0000/100.0000 -/+ 90.0742/91.7758 -/+ 13.4615/25.0000 0.9001 0.0945 531.7
[000:01:00] Gen 312 best/avg/worst/avg_ft/ft_div/avg_size -/+ 100.0000/100.0000 -/+ 90.0221/91.8273 -/+ 23.0769/25.0000 0.9001 0.0944 531.1
[000:01:00] Gen 313 best/avg/worst/avg_ft/ft_div/avg_size -/+ 100.0000/100.0000 -/+ 89.9665/91.8992 -/+ 3.8462/25.0000 0.9001 0.0944 531.5
[000:01:01] Gen 314 best/avg/worst/avg_ft/ft_div/avg_size -/+ 100.0000/100.0000 -/+ 90.0267/91.7125 -/+ 3.8462/25.0000 0.8993 0.0952 532.0
[000:01:01] Gen 315 best/avg/worst/avg_ft/ft_div/avg_size -/+ 100.0000/100.0000 -/+ 90.1082/91.6594 -/+ 3.8462/25.0000 0.8995 0.0949 530.3
[000:01:01] Gen 316 best/avg/worst/avg_ft/ft_div/avg_size -/+ 100.0000/100.0000 -/+ 90.1126/91.7523 -/+ 1.9231/25.0000 0.9001 0.0945 530.5
[000:01:01] Gen 317 best/avg/worst/avg_ft/ft_div/avg_size -/+ 100.0000/100.0000 -/+ 90.0528/91.7336 -/+ 11.5385/25.0000 0.8997 0.0946 529.3
[000:01:01] Gen 318 best/avg/worst/avg_ft/ft_div/avg_size -/+ 100.0000/100.0000 -/+ 90.1367/91.6656 -/+ 13.4615/25.0000 0.8997 0.0948 528.9
[000:01:02] Gen 319 best/avg/worst/avg_ft/ft_div/avg_size -/+ 100.0000/100.0000 -/+ 90.0466/91.7773 -/+ 21.1538/25.0000 0.8999 0.0947 529.3
[000:01:02] Gen 320 best/avg/worst/avg_ft/ft_div/avg_size -/+ 100.0000/100.0000 -/+ 89.9960/91.9328 -/+ 9.6154/25.0000 0.9004 0.0706 529.9
[000:01:02] Gen 321 best/avg/worst/avg_ft/ft_div/avg_size -/+ 100.0000/100.0000 -/+ 90.3642/92.5008 -/+ 1.9231/25.0000 0.9057 0.0892 533.8
[000:01:02] Gen 322 best/avg/worst/avg_ft/ft_div/avg_size -/+ 100.0000/100.0000 -/+ 90.2507/92.0570 -/+ 23.0769/25.0000 0.9024 0.0923 535.2
[000:01:03] Gen 323 best/avg/worst/avg_ft/ft_div/avg_size -/+ 100.0000/100.0000 -/+ 90.2307/91.9617 -/+ 3.8462/25.0000 0.9018 0.0928 534.4
[000:01:03] Gen 324 best/avg/worst/avg_ft/ft_div/avg_size -/+ 100.0000/100.0000 -/+ 90.1879/91.9961 -/+ 3.8462/25.0000 0.9019 0.0929 534.2
[000:01:03] Gen 325 best/avg/worst/avg_ft/ft_div/avg_size -/+ 100.0000/100.0000 -/+ 90.0880/91.9898 -/+ 3.8462/25.0000 0.9013 0.0935 533.9
[000:01:03] Gen 326 best/avg/worst/avg_ft/ft_div/avg_size -/+ 100.0000/100.0000 -/+ 90.1146/91.9164 -/+ 3.8462/25.0000 0.9009 0.0941 533.9
[000:01:03] Gen 327 best/avg/worst/avg_ft/ft_div/avg_size -/+ 100.0000/100.0000 -/+ 90.0489/91.7266 -/+ 3.8462/25.0000 0.8995 0.0955 532.3
[000:01:04] Gen 328 best/avg/worst/avg_ft/ft_div/avg_size -/+ 100.0000/100.0000 -/+ 90.0779/91.8297 -/+ 7.6923/25.0000 0.9003 0.0951 532.6
[000:01:04] Gen 329 best/avg/worst/avg_ft/ft_div/avg_size -/+ 100.0000/100.0000 -/+ 90.0823/91.8977 -/+ 23.0769/25.0000 0.9006 0.0947 531.5
[000:01:04] Gen 330 best/avg/worst/avg_ft/ft_div/avg_size -/+ 100.0000/100.0000 -/+ 90.1209/91.8117 -/+ 13.4615/25.0000 0.9003 0.0950 531.5
[000:01:04] Gen 331 best/avg/worst/avg_ft/ft_div/avg_size -/+ 100.0000/100.0000 -/+ 90.1413/91.8234 -/+ 30.7692/25.0000 0.9004 0.0949 532.3
[000:01:04] Gen 332 best/avg/worst/avg_ft/ft_div/avg_size -/+ 100.0000/100.0000 -/+ 90.1723/91.8687 -/+ 25.0000/25.0000 0.9009 0.0944 533.0
[000:01:05] Gen 333 best/avg/worst/avg_ft/ft_div/avg_size -/+ 100.0000/100.0000 -/+ 90.1872/91.8172 -/+ 9.6154/25.0000 0.9007 0.0946 531.6
[000:01:05] Gen 334 best/avg/worst/avg_ft/ft_div/avg_size -/+ 100.0000/100.0000 -/+ 90.2098/91.7539 -/+ 13.4615/25.0000 0.9005 0.0948 533.0
[000:01:05] Gen 335 best/avg/worst/avg_ft/ft_div/avg_size -/+ 100.0000/100.0000 -/+ 90.1276/91.7305 -/+ 13.4615/25.0000 0.8998 0.0952 532.3
[000:01:05] Gen 336 best/avg/worst/avg_ft/ft_div/avg_size -/+ 100.0000/100.0000 -/+ 90.1888/91.8297 -/+ 13.4615/25.0000 0.9008 0.0703 533.0
[000:01:05] Gen 337 best/avg/worst/avg_ft/ft_div/avg_size -/+ 100.0000/100.0000 -/+ 90.6301/92.7789 -/+ 28.8462/25.0000 0.9088 0.0866 535.0
[000:01:06] Gen 338 best/avg/worst/avg_ft/ft_div/avg_size -/+ 100.0000/100.0000 -/+ 90.3532/92.2102 -/+ 25.0000/25.0000 0.9040 0.0917 534.0
[000:01:06] Gen 339 best/avg/worst/avg_ft/ft_div/avg_size -/+ 100.0000/100.0000 -/+ 90.4061/91.9820 -/+ 9.6154/25.0000 0.9028 0.0927 534.7
[000:01:06] Gen 340 best/avg/worst/avg_ft/ft_div/avg_size -/+ 100.0000/100.0000 -/+ 90.2901/92.0781 -/+ 9.6154/25.0000 0.9027 0.0928 534.0
[000:01:06] Gen 341 best/avg/worst/avg_ft/ft_div/avg_size -/+ 100.0000/100.0000 -/+ 90.3389/92.1031 -/+ 21.1538/25.0000 0.9031 0.0925 532.0
[000:01:07] Gen 342 best/avg/worst/avg_ft/ft_div/avg_size -/+ 100.0000/100.0000 -/+ 90.3861/92.0289 -/+ 23.0769/25.0000 0.9029 0.0925 530.5
[000:01:07] Gen 343 best/avg/worst/avg_ft/ft_div/avg_size -/+ 100.0000/100.0000 -/+ 90.2017/92.0523 -/+ 26.9231/25.0000 0.9019 0.0934 531.8
[000:01:07] Gen 344 best/avg/worst/avg_ft/ft_div/avg_size -/+ 100.0000/100.0000 -/+ 90.2059/92.0484 -/+ 1.9231/25.0000 0.9020 0.0934 533.0
[000:01:07] Gen 345 best/avg/worst/avg_ft/ft_div/avg_size -/+ 100.0000/100.0000 -/+ 90.1576/92.0969 -/+ 28.8462/25.0000 0.9020 0.0933 530.6
[000:01:07] Gen 346 best/avg/worst/avg_ft/ft_div/avg_size -/+ 100.0000/100.0000 -/+ 90.1990/91.8625 -/+ 23.0769/25.0000 0.9010 0.0942 530.9
[000:01:08] Gen 347 best/avg/worst/avg_ft/ft_div/avg_size -/+ 100.0000/100.0000 -/+ 90.1239/91.9289 -/+ 9.6154/25.0000 0.9008 0.0944 530.4
[000:01:08] Gen 348 best/avg/worst/avg_ft/ft_div/avg_size -/+ 100.0000/100.0000 -/+ 90.0940/91.9320 -/+ 7.6923/25.0000 0.9008 0.0945 528.1
[000:01:08] Gen 349 best/avg/worst/avg_ft/ft_div/avg_size -/+ 100.0000/100.0000 -/+ 90.2067/91.8914 -/+ 7.6923/25.0000 0.9012 0.0941 528.8
[000:01:08] Gen 350 best/avg/worst/avg_ft/ft_div/avg_size -/+ 100.0000/100.0000 -/+ 90.1918/92.0133 -/+ 7.6923/25.0000 0.9018 0.0937 529.0
[000:01:08] Gen 351 best/avg/worst/avg_ft/ft_div/avg_size -/+ 100.0000/100.0000 -/+ 90.2147/91.8430 -/+ 5.7692/25.0000 0.9010 0.0945 530.0
[000:01:09] Gen 352 best/avg/worst/avg_ft/ft_div/avg_size -/+ 100.0000/100.0000 -/+ 90.1250/92.0141 -/+ 5.7692/25.0000 0.9014 0.0696 530.3
[000:01:09] Gen 353 best/avg/worst/avg_ft/ft_div/avg_size -/+ 100.0000/100.0000 -/+ 90.6317/92.6563 -/+ 7.6923/25.0000 0.9081 0.0873 531.0
[000:01:09] Gen 354 best/avg/worst/avg_ft/ft_div/avg_size -/+ 100.0000/100.0000 -/+ 90.3026/92.3406 -/+ 3.8462/25.0000 0.9044 0.0908 531.3
[000:01:09] Gen 355 best/avg/worst/avg_ft/ft_div/avg_size -/+ 100.0000/100.0000 -/+ 90.1513/92.2234 -/+ 13.4615/25.0000 0.9027 0.0925 532.5
[000:01:09] Gen 356 best/avg/worst/avg_ft/ft_div/avg_size -/+ 100.0000/100.0000 -/+ 90.1260/92.1352 -/+ 7.6923/25.0000 0.9021 0.0929 531.7
[000:01:10] Gen 357 best/avg/worst/avg_ft/ft_div/avg_size -/+ 100.0000/100.0000 -/+ 90.1955/91.9594 -/+ 5.7692/25.0000 0.9015 0.0936 531.2
[000:01:10] Gen 358 best/avg/worst/avg_ft/ft_div/avg_size -/+ 100.0000/100.0000 -/+ 90.2661/91.9852 -/+ 1.9231/25.0000 0.9020 0.0933 530.8
[000:01:10] Gen 359 best/avg/worst/avg_ft/ft_div/avg_size -/+ 100.0000/100.0000 -/+ 90.2597/92.0359 -/+ 1.9231/25.0000 0.9023 0.0930 532.6
[000:01:10] Gen 360 best/avg/worst/avg_ft/ft_div/avg_size -/+ 100.0000/100.0000 -/+ 90.2348/92.0719 -/+ 1.9231/25.0000 0.9024 0.0930 533.2
[000:01:11] Gen 361 best/avg/worst/avg_ft/ft_div/avg_size -/+ 100.0000/100.0000 -/+ 90.2597/92.0063 -/+ 1.9231/25.0000 0.9022 0.0932 533.4
[000:01:11] Gen 362 best/avg/worst/avg_ft/ft_div/avg_size -/+ 100.0000/100.0000 -/+ 90.2993/91.9617 -/+ 15.3846/25.0000 0.9021 0.0932 535.4
[000:01:11] Gen 363 best/avg/worst/avg_ft/ft_div/avg_size -/+ 100.0000/100.0000 -/+ 90.0980/91.8641 -/+ 15.3846/25.0000 0.9006 0.0945 534.2
[000:01:11] Gen 364 best/avg/worst/avg_ft/ft_div/avg_size -/+ 100.0000/100.0000 -/+ 90.1763/92.1031 -/+ 19.2308/25.0000 0.9023 0.0928 534.4
[000:01:11] Gen 365 best/avg/worst/avg_ft/ft_div/avg_size -/+ 100.0000/100.0000 -/+ 90.4260/92.0453 -/+ 3.8462/25.0000 0.9035 0.0917 534.1
[000:01:12] Gen 366 best/avg/worst/avg_ft/ft_div/avg_size -/+ 100.0000/100.0000 -/+ 90.3516/91.9570 -/+ 5.7692/25.0000 0.9024 0.0929 534.6
[000:01:12] Gen 367 best/avg/worst/avg_ft/ft_div/avg_size -/+ 100.0000/100.0000 -/+ 90.2359/91.9266 -/+ 15.3846/25.0000 0.9016 0.0938 533.3
[000:01:12] Gen 368 best/avg/worst/avg_ft/ft_div/avg_size -/+ 100.0000/100.0000 -/+ 90.1761/92.0359 -/+ 11.5385/25.0000 0.9020 0.0694 533.1
[000:01:12] Gen 369 best/avg/worst/avg_ft/ft_div/avg_size -/+ 100.0000/100.0000 -/+ 90.7314/92.7125 -/+ 15.3846/25.0000 0.9089 0.0866 536.4
[000:01:12] Gen 370 best/avg/worst/avg_ft/ft_div/avg_size -/+ 100.0000/100.0000 -/+ 90.6572/92.3875 -/+ 13.4615/25.0000 0.9065 0.0892 533.5
[000:01:13] Gen 371 best/avg/worst/avg_ft/ft_div/avg_size -/+ 100.0000/100.0000 -/+ 90.3990/92.1359 -/+ 13.4615/25.0000 0.9037 0.0917 534.0
[000:01:13] Gen 372 best/avg/worst/avg_ft/ft_div/avg_size -/+ 100.0000/100.0000 -/+ 90.3835/92.1023 -/+ 9.6154/25.0000 0.9034 0.0918 532.8
[000:01:13] Gen 373 best/avg/worst/avg_ft/ft_div/avg_size -/+ 100.0000/100.0000 -/+ 90.2877/92.0367 -/+ 11.5385/25.0000 0.9026 0.0925 533.2
[000:01:13] Gen 374 best/avg/worst/avg_ft/ft_div/avg_size -/+ 100.0000/100.0000 -/+ 90.3300/92.1227 -/+ 3.8462/25.0000 0.9030 0.0921 534.8
[000:01:13] Gen 375 best/avg/worst/avg_ft/ft_div/avg_size -/+ 100.0000/100.0000 -/+ 90.2686/92.1836 -/+ 1.9231/25.0000 0.9030 0.0924 535.4
[000:01:14] Gen 376 best/avg/worst/avg_ft/ft_div/avg_size -/+ 100.0000/100.0000 -/+ 90.3876/91.9953 -/+ 26.9231/25.0000 0.9025 0.0931 533.8
[000:01:14] Gen 377 best/avg/worst/avg_ft/ft_div/avg_size -/+ 100.0000/100.0000 -/+ 90.3973/92.0820 -/+ 28.8462/25.0000 0.9032 0.0923 533.8
[000:01:14] Gen 378 best/avg/worst/avg_ft/ft_div/avg_size -/+ 100.0000/100.0000 -/+ 90.3309/92.1094 -/+ 3.8462/25.0000 0.9030 0.0923 532.4
[000:01:14] Gen 379 best/avg/worst/avg_ft/ft_div/avg_size -/+ 100.0000/100.0000 -/+ 90.2329/92.1477 -/+ 3.8462/25.0000 0.9028 0.0927 530.9
[000:01:15] Gen 380 best/avg/worst/avg_ft/ft_div/avg_size -/+ 100.0000/100.0000 -/+ 90.2394/92.1023 -/+ 1.9231/25.0000 0.9026 0.0930 531.0
[000:01:15] Gen 381 best/avg/worst/avg_ft/ft_div/avg_size -/+ 100.0000/100.0000 -/+ 90.2537/92.0562 -/+ 3.8462/25.0000 0.9025 0.0929 532.3
[000:01:15] Gen 382 best/avg/worst/avg_ft/ft_div/avg_size -/+ 100.0000/100.0000 -/+ 90.3663/92.1883 -/+ 7.6923/25.0000 0.9038 0.0920 530.1
[000:01:15] Gen 383 best/avg/worst/avg_ft/ft_div/avg_size -/+ 100.0000/100.0000 -/+ 90.2546/92.1398 -/+ 7.6923/25.0000 0.9028 0.0928 530.9
[000:01:15] Gen 384 best/avg/worst/avg_ft/ft_div/avg_size -/+ 100.0000/100.0000 -/+ 90.2076/92.2047 -/+ 11.5385/25.0000 0.9029 0.0688 529.7
[000:01:16] Gen 385 best/avg/worst/avg_ft/ft_div/avg_size -/+ 100.0000/100.0000 -/+ 90.6627/92.7719 -/+ 23.0769/25.0000 0.9090 0.0870 531.6
[000:01:16] Gen 386 best/avg/worst/avg_ft/ft_div/avg_size -/+ 100.0000/100.0000 -/+ 90.4408/92.3344 -/+ 32.6923/25.0000 0.9049 0.0910 531.9
[000:01:16] Gen 387 best/avg/worst/avg_ft/ft_div/avg_size -/+ 100.0000/100.0000 -/+ 90.4827/92.1594 -/+ 23.0769/25.0000 0.9042 0.0915 530.7
[000:01:16] Gen 388 best/avg/worst/avg_ft/ft_div/avg_size -/+ 100.0000/100.0000 -/+ 90.4058/92.0531 -/+ 19.2308/25.0000 0.9031 0.0926 530.2
[000:01:17] Gen 389 best/avg/worst/avg_ft/ft_div/avg_size -/+ 100.0000/100.0000 -/+ 90.3977/92.0031 -/+ 3.8462/25.0000 0.9027 0.0929 529.9
[000:01:17] Gen 390 best/avg/worst/avg_ft/ft_div/avg_size -/+ 100.0000/100.0000 -/+ 90.3295/91.9094 -/+ 3.8462/25.0000 0.9019 0.0935 531.2
[000:01:17] Gen 391 best/avg/worst/avg_ft/ft_div/avg_size -/+ 100.0000/100.0000 -/+ 90.3043/91.9305 -/+ 3.8462/25.0000 0.9018 0.0935 532.1
[000:01:17] Gen 392 best/avg/worst/avg_ft/ft_div/avg_size -/+ 100.0000/100.0000 -/+ 90.4039/91.9641 -/+ 5.7692/25.0000 0.9026 0.0929 531.7
[000:01:17] Gen 393 best/avg/worst/avg_ft/ft_div/avg_size -/+ 100.0000/100.0000 -/+ 90.3777/91.9852 -/+ 1.9231/25.0000 0.9026 0.0926 532.3
[000:01:18] Gen 394 best/avg/worst/avg_ft/ft_div/avg_size -/+ 100.0000/100.0000 -/+ 90.3666/92.1172 -/+ 1.9231/25.0000 0.9035 0.0920 528.7
[000:01:18] Gen 395 best/avg/worst/avg_ft/ft_div/avg_size -/+ 100.0000/100.0000 -/+ 90.4700/92.1687 -/+ 17.3077/25.0000 0.9044 0.0913 529.1
[000:01:18] Gen 396 best/avg/worst/avg_ft/ft_div/avg_size -/+ 100.0000/100.0000 -/+ 90.4705/92.0836 -/+ 1.9231/25.0000 0.9038 0.0916 528.7
[000:01:18] Gen 397 best/avg/worst/avg_ft/ft_div/avg_size -/+ 100.0000/100.0000 -/+ 90.3602/92.0250 -/+ 9.6154/25.0000 0.9028 0.0924 528.9
[000:01:18] Gen 398 best/avg/worst/avg_ft/ft_div/avg_size -/+ 100.0000/100.0000 -/+ 90.3934/92.0742 -/+ 11.5385/25.0000 0.9033 0.0920 528.9
[000:01:19] Gen 399 best/avg/worst/avg_ft/ft_div/avg_size -/+ 100.0000/100.0000 -/+ 90.3052/92.0805 -/+ 19.2308/25.0000 0.9026 0.0925 529.4
[000:01:19] Gen 400 best/avg/worst/avg_ft/ft_div/avg_size -/+ 100.0000/100.0000 -/+ 90.2085/91.9648 -/+ 7.6923/25.0000 0.9014 0.0698 529.7
[000:01:19] Gen 401 best/avg/worst/avg_ft/ft_div/avg_size -/+ 100.0000/100.0000 -/+ 90.8402/92.6727 -/+ 5.7692/25.0000 0.9094 0.0861 531.5
[000:01:19] Gen 402 best/avg/worst/avg_ft/ft_div/avg_size -/+ 100.0000/100.0000 -/+ 90.5388/92.4344 -/+ 11.5385/25.0000 0.9063 0.0890 531.6
[000:01:20] Gen 403 best/avg/worst/avg_ft/ft_div/avg_size -/+ 100.0000/100.0000 -/+ 90.4039/92.2141 -/+ 15.3846/25.0000 0.9041 0.0909 531.1
[000:01:20] Gen 404 best/avg/worst/avg_ft/ft_div/avg_size -/+ 100.0000/100.0000 -/+ 90.3531/92.1000 -/+ 30.7692/25.0000 0.9032 0.0919 533.0
[000:01:20] Gen 405 best/avg/worst/avg_ft/ft_div/avg_size -/+ 100.0000/100.0000 -/+ 90.4023/92.0148 -/+ 7.6923/25.0000 0.9030 0.0922 532.7
[000:01:20] Gen 406 best/avg/worst/avg_ft/ft_div/avg_size -/+ 100.0000/100.0000 -/+ 90.3520/91.9258 -/+ 7.6923/25.0000 0.9021 0.0932 531.8
[000:01:20] Gen 407 best/avg/worst/avg_ft/ft_div/avg_size -/+ 100.0000/100.0000 -/+ 90.3557/91.9852 -/+ 3.8462/25.0000 0.9024 0.0930 530.6
[000:01:21] Gen 408 best/avg/worst/avg_ft/ft_div/avg_size -/+ 100.0000/100.0000 -/+ 90.3572/92.1438 -/+ 3.8462/25.0000 0.9032 0.0924 530.3
[000:01:21] Gen 409 best/avg/worst/avg_ft/ft_div/avg_size -/+ 100.0000/100.0000 -/+ 90.2306/92.0750 -/+ 1.9231/25.0000 0.9023 0.0930 530.7
[000:01:21] Gen 410 best/avg/worst/avg_ft/ft_div/avg_size -/+ 100.0000/100.0000 -/+ 90.3013/92.0414 -/+ 1.9231/25.0000 0.9024 0.0929 531.6
[000:01:21] Gen 411 best/avg/worst/avg_ft/ft_div/avg_size -/+ 100.0000/100.0000 -/+ 90.3474/92.0289 -/+ 1.9231/25.0000 0.9027 0.0926 532.6
[000:01:21] Gen 412 best/avg/worst/avg_ft/ft_div/avg_size -/+ 100.0000/100.0000 -/+ 90.3511/92.1078 -/+ 1.9231/25.0000 0.9031 0.0920 532.4
[000:01:22] Gen 413 best/avg/worst/avg_ft/ft_div/avg_size -/+ 100.0000/100.0000 -/+ 90.2980/92.0617 -/+ 1.9231/25.0000 0.9027 0.0924 533.1
[000:01:22] Gen 414 best/avg/worst/avg_ft/ft_div/avg_size -/+ 100.0000/100.0000 -/+ 90.3770/91.9906 -/+ 1.9231/25.0000 0.9027 0.0926 532.1
[000:01:22] Gen 415 best/avg/worst/avg_ft/ft_div/avg_size -/+ 100.0000/100.0000 -/+ 90.2788/92.1719 -/+ 1.9231/25.0000 0.9031 0.0919 532.6
[000:01:22] Gen 416 best/avg/worst/avg_ft/ft_div/avg_size -/+ 100.0000/100.0000 -/+ 90.3278/92.0211 -/+ 1.9231/25.0000 0.9024 0.0690 533.3
[000:01:23] Gen 417 best/avg/worst/avg_ft/ft_div/avg_size -/+ 100.0000/100.0000 -/+ 90.9036/92.7445 -/+ 21.1538/25.0000 0.9100 0.0858 535.5
[000:01:23] Gen 418 best/avg/worst/avg_ft/ft_div/avg_size -/+ 100.0000/100.0000 -/+ 90.5863/92.2195 -/+ 21.1538/25.0000 0.9052 0.0902 532.5
[000:01:23] Gen 419 best/avg/worst/avg_ft/ft_div/avg_size -/+ 100.0000/100.0000 -/+ 90.3904/91.9727 -/+ 9.6154/25.0000 0.9026 0.0926 532.9
[000:01:23] Gen 420 best/avg/worst/avg_ft/ft_div/avg_size -/+ 100.0000/100.0000 -/+ 90.3354/91.8477 -/+ 17.3077/25.0000 0.9015 0.0935 532.9
[000:01:23] Gen 421 best/avg/worst/avg_ft/ft_div/avg_size -/+ 100.0000/100.0000 -/+ 90.4092/91.9297 -/+ 11.5385/25.0000 0.9024 0.0927 532.3
[000:01:24] Gen 422 best/avg/worst/avg_ft/ft_div/avg_size -/+ 100.0000/100.0000 -/+ 90.4588/92.0844 -/+ 5.7692/25.0000 0.9037 0.0914 531.3
[000:01:24] Gen 423 best/avg/worst/avg_ft/ft_div/avg_size -/+ 100.0000/100.0000 -/+ 90.3354/92.1219 -/+ 9.6154/25.0000 0.9031 0.0922 530.4
[000:01:24] Gen 424 best/avg/worst/avg_ft/ft_div/avg_size -/+ 100.0000/100.0000 -/+ 90.2730/92.0352 -/+ 1.9231/25.0000 0.9026 0.0926 530.8
[000:01:24] Gen 425 best/avg/worst/avg_ft/ft_div/avg_size -/+ 100.0000/100.0000 -/+ 90.4192/92.1766 -/+ 1.9231/25.0000 0.9040 0.0913 531.0
[000:01:25] Gen 426 best/avg/worst/avg_ft/ft_div/avg_size -/+ 100.0000/100.0000 -/+ 90.4104/92.0797 -/+ 1.9231/25.0000 0.9035 0.0920 531.3
[000:01:25] Gen 427 best/avg/worst/avg_ft/ft_div/avg_size -/+ 100.0000/100.0000 -/+ 90.3240/92.0742 -/+ 7.6923/25.0000 0.9030 0.0925 531.4
[000:01:25] Gen 428 best/avg/worst/avg_ft/ft_div/avg_size -/+ 100.0000/100.0000 -/+ 90.4273/92.0797 -/+ 26.9231/25.0000 0.9036 0.0918 530.9
[000:01:25] Gen 429 best/avg/worst/avg_ft/ft_div/avg_size -/+ 100.0000/100.0000 -/+ 90.3694/92.1766 -/+ 26.9231/25.0000 0.9036 0.0921 529.6
[000:01:25] Gen 430 best/avg/worst/avg_ft/ft_div/avg_size -/+ 100.0000/100.0000 -/+ 90.3049/91.9828 -/+ 28.8462/25.0000 0.9022 0.0932 528.6
[000:01:26] Gen 431 best/avg/worst/avg_ft/ft_div/avg_size -/+ 100.0000/100.0000 -/+ 90.3712/92.1523 -/+ 5.7692/25.0000 0.9035 0.0917 528.2
[000:01:26] Gen 432 best/avg/worst/avg_ft/ft_div/avg_size -/+ 100.0000/100.0000 -/+ 90.4453/92.0508 -/+ 1.9231/25.0000 0.9035 0.0680 530.0
[000:01:26] Gen 433 best/avg/worst/avg_ft/ft_div/avg_size -/+ 100.0000/100.0000 -/+ 90.8864/92.6422 -/+ 15.3846/25.0000 0.9095 0.0860 533.1
[000:01:26] Gen 434 best/avg/worst/avg_ft/ft_div/avg_size -/+ 100.0000/100.0000 -/+ 90.6849/92.3391 -/+ 15.3846/25.0000 0.9064 0.0892 533.3
[000:01:26] Gen 435 best/avg/worst/avg_ft/ft_div/avg_size -/+ 100.0000/100.0000 -/+ 90.6707/92.2633 -/+ 13.4615/25.0000 0.9058 0.0897 532.6
[000:01:27] Gen 436 best/avg/worst/avg_ft/ft_div/avg_size -/+ 100.0000/100.0000 -/+ 90.5016/92.2148 -/+ 11.5385/25.0000 0.9046 0.0909 531.2
[000:01:27] Gen 437 best/avg/worst/avg_ft/ft_div/avg_size -/+ 100.0000/100.0000 -/+ 90.4224/92.2984 -/+ 15.3846/25.0000 0.9045 0.0910 533.1
[000:01:27] Gen 438 best/avg/worst/avg_ft/ft_div/avg_size -/+ 100.0000/100.0000 -/+ 90.3065/92.1148 -/+ 5.7692/25.0000 0.9030 0.0925 533.2
[000:01:27] Gen 439 best/avg/worst/avg_ft/ft_div/avg_size -/+ 100.0000/100.0000 -/+ 90.4293/92.0656 -/+ 5.7692/25.0000 0.9034 0.0922 533.4
[000:01:28] Gen 440 best/avg/worst/avg_ft/ft_div/avg_size -/+ 100.0000/100.0000 -/+ 90.3880/92.1859 -/+ 5.7692/25.0000 0.9037 0.0920 534.1
[000:01:28] Gen 441 best/avg/worst/avg_ft/ft_div/avg_size -/+ 100.0000/100.0000 -/+ 90.3647/92.1102 -/+ 17.3077/25.0000 0.9031 0.0924 533.6
[000:01:28] Gen 442 best/avg/worst/avg_ft/ft_div/avg_size -/+ 100.0000/100.0000 -/+ 90.3129/91.9883 -/+ 5.7692/25.0000 0.9022 0.0933 531.6
[000:01:28] Gen 443 best/avg/worst/avg_ft/ft_div/avg_size -/+ 100.0000/100.0000 -/+ 90.3600/92.1477 -/+ 5.7692/25.0000 0.9033 0.0921 532.7
[000:01:28] Gen 444 best/avg/worst/avg_ft/ft_div/avg_size -/+ 100.0000/100.0000 -/+ 90.4973/92.3094 -/+ 3.8462/25.0000 0.9051 0.0906 532.0
[000:01:29] Gen 445 best/avg/worst/avg_ft/ft_div/avg_size -/+ 100.0000/100.0000 -/+ 90.5824/92.2516 -/+ 3.8462/25.0000 0.9053 0.0904 532.1
[000:01:29] Gen 446 best/avg/worst/avg_ft/ft_div/avg_size -/+ 100.0000/100.0000 -/+ 90.4922/92.1469 -/+ 3.8462/25.0000 0.9041 0.0917 532.4
[000:01:29] Gen 447 best/avg/worst/avg_ft/ft_div/avg_size -/+ 100.0000/100.0000 -/+ 90.3350/92.2062 -/+ 1.9231/25.0000 0.9035 0.0921 530.1
[000:01:29] Gen 448 best/avg/worst/avg_ft/ft_div/avg_size -/+ 100.0000/100.0000 -/+ 90.4285/92.1805 -/+ 1.9231/25.0000 0.9039 0.0679 530.4
[000:01:29] Gen 449 best/avg/worst/avg_ft/ft_div/avg_size -/+ 100.0000/100.0000 -/+ 90.8381/92.7680 -/+ 3.8462/25.0000 0.9098 0.0860 532.4
[000:01:30] Gen 450 best/avg/worst/avg_ft/ft_div/avg_size -/+ 100.0000/100.0000 -/+ 90.6091/92.3461 -/+ 9.6154/25.0000 0.9059 0.0897 530.4
[000:01:30] Gen 451 best/avg/worst/avg_ft/ft_div/avg_size -/+ 100.0000/100.0000 -/+ 90.4618/92.3250 -/+ 3.8462/25.0000 0.9052 0.0904 529.6
[000:01:30] Gen 452 best/avg/worst/avg_ft/ft_div/avg_size -/+ 100.0000/100.0000 -/+ 90.3217/92.1984 -/+ 9.6154/25.0000 0.9036 0.0919 530.5
[000:01:30] Gen 453 best/avg/worst/avg_ft/ft_div/avg_size -/+ 100.0000/100.0000 -/+ 90.3031/92.1383 -/+ 9.6154/25.0000 0.9031 0.0923 530.0
[000:01:31] Gen 454 best/avg/worst/avg_ft/ft_div/avg_size -/+ 100.0000/100.0000 -/+ 90.4340/92.1250 -/+ 3.8462/25.0000 0.9038 0.0918 529.8
[000:01:31] Gen 455 best/avg/worst/avg_ft/ft_div/avg_size -/+ 100.0000/100.0000 -/+ 90.4531/92.2172 -/+ 3.8462/25.0000 0.9043 0.0913 530.3
[000:01:31] Gen 456 best/avg/worst/avg_ft/ft_div/avg_size -/+ 100.0000/100.0000 -/+ 90.4414/92.2703 -/+ 3.8462/25.0000 0.9045 0.0909 530.1
[000:01:31] Gen 457 best/avg/worst/avg_ft/ft_div/avg_size -/+ 100.0000/100.0000 -/+ 90.3084/92.2281 -/+ 9.6154/25.0000 0.9035 0.0922 530.8
[000:01:31] Gen 458 best/avg/worst/avg_ft/ft_div/avg_size -/+ 100.0000/100.0000 -/+ 90.4349/92.2992 -/+ 9.6154/25.0000 0.9045 0.0914 529.7
[000:01:32] Gen 459 best/avg/worst/avg_ft/ft_div/avg_size -/+ 100.0000/100.0000 -/+ 90.3814/92.2742 -/+ 1.9231/25.0000 0.9043 0.0912 530.5
[000:01:32] Gen 460 best/avg/worst/avg_ft/ft_div/avg_size -/+ 100.0000/100.0000 -/+ 90.4271/92.1836 -/+ 1.9231/25.0000 0.9040 0.0915 529.2
[000:01:32] Gen 461 best/avg/worst/avg_ft/ft_div/avg_size -/+ 100.0000/100.0000 -/+ 90.4505/92.1016 -/+ 7.6923/25.0000 0.9038 0.0920 527.8
[000:01:32] Gen 462 best/avg/worst/avg_ft/ft_div/avg_size -/+ 100.0000/100.0000 -/+ 90.4943/92.2398 -/+ 7.6923/25.0000 0.9047 0.0912 527.2
[000:01:32] Gen 463 best/avg/worst/avg_ft/ft_div/avg_size -/+ 100.0000/100.0000 -/+ 90.3686/92.2273 -/+ 3.8462/25.0000 0.9039 0.0919 526.6
[000:01:33] Gen 464 best/avg/worst/avg_ft/ft_div/avg_size -/+ 100.0000/100.0000 -/+ 90.4800/92.2039 -/+ 3.8462/25.0000 0.9044 0.0676 527.1
[000:01:33] Gen 465 best/avg/worst/avg_ft/ft_div/avg_size -/+ 100.0000/100.0000 -/+ 90.9469/92.8906 -/+ 3.8462/25.0000 0.9111 0.0850 529.6
[000:01:33] Gen 466 best/avg/worst/avg_ft/ft_div/avg_size -/+ 100.0000/100.0000 -/+ 90.7214/92.5156 -/+ 3.8462/25.0000 0.9076 0.0884 530.6
[000:01:33] Gen 467 best/avg/worst/avg_ft/ft_div/avg_size -/+ 100.0000/100.0000 -/+ 90.6007/92.3430 -/+ 7.6923/25.0000 0.9059 0.0899 530.0
[000:01:34] Gen 468 best/avg/worst/avg_ft/ft_div/avg_size -/+ 100.0000/100.0000 -/+ 90.5331/92.2891 -/+ 9.6154/25.0000 0.9052 0.0908 530.8
[000:01:34] Gen 469 best/avg/worst/avg_ft/ft_div/avg_size -/+ 100.0000/100.0000 -/+ 90.4652/92.2344 -/+ 7.6923/25.0000 0.9046 0.0913 531.1
[000:01:34] Gen 470 best/avg/worst/avg_ft/ft_div/avg_size -/+ 100.0000/100.0000 -/+ 90.4791/92.1695 -/+ 7.6923/25.0000 0.9042 0.0916 532.0
[000:01:34] Gen 471 best/avg/worst/avg_ft/ft_div/avg_size -/+ 100.0000/100.0000 -/+ 90.4460/92.2164 -/+ 9.6154/25.0000 0.9043 0.0916 532.2
[000:01:34] Gen 472 best/avg/worst/avg_ft/ft_div/avg_size -/+ 100.0000/100.0000 -/+ 90.4282/92.2695 -/+ 11.5385/25.0000 0.9047 0.0911 530.5
[000:01:35] Gen 473 best/avg/worst/avg_ft/ft_div/avg_size -/+ 100.0000/100.0000 -/+ 90.3603/91.9516 -/+ 1.9231/25.0000 0.9024 0.0933 532.9
[000:01:35] Gen 474 best/avg/worst/avg_ft/ft_div/avg_size -/+ 100.0000/100.0000 -/+ 90.3371/92.1062 -/+ 17.3077/25.0000 0.9033 0.0926 530.5
[000:01:35] Gen 475 best/avg/worst/avg_ft/ft_div/avg_size -/+ 100.0000/100.0000 -/+ 90.3823/92.0914 -/+ 15.3846/25.0000 0.9033 0.0925 529.7
[000:01:35] Gen 476 best/avg/worst/avg_ft/ft_div/avg_size -/+ 100.0000/100.0000 -/+ 90.3876/92.1227 -/+ 1.9231/25.0000 0.9035 0.0923 528.9
[000:01:36] Gen 477 best/avg/worst/avg_ft/ft_div/avg_size -/+ 100.0000/100.0000 -/+ 90.3808/92.0570 -/+ 1.9231/25.0000 0.9031 0.0928 528.5
[000:01:36] Gen 478 best/avg/worst/avg_ft/ft_div/avg_size -/+ 100.0000/100.0000 -/+ 90.4224/92.1578 -/+ 11.5385/25.0000 0.9038 0.0922 529.5
[000:01:36] Gen 479 best/avg/worst/avg_ft/ft_div/avg_size -/+ 100.0000/100.0000 -/+ 90.4459/92.0914 -/+ 15.3846/25.0000 0.9036 0.0922 530.0
[000:01:36] Gen 480 best/avg/worst/avg_ft/ft_div/avg_size -/+ 100.0000/100.0000 -/+ 90.3218/92.1422 -/+ 3.8462/25.0000 0.9034 0.0683 528.0
[000:01:36] Gen 481 best/avg/worst/avg_ft/ft_div/avg_size -/+ 100.0000/100.0000 -/+ 90.8037/92.7805 -/+ 1.9231/25.0000 0.9097 0.0862 531.0
[000:01:37] Gen 482 best/avg/worst/avg_ft/ft_div/avg_size -/+ 100.0000/100.0000 -/+ 90.6828/92.3008 -/+ 1.9231/25.0000 0.9062 0.0898 531.3
[000:01:37] Gen 483 best/avg/worst/avg_ft/ft_div/avg_size -/+ 100.0000/100.0000 -/+ 90.5948/92.2656 -/+ 1.9231/25.0000 0.9054 0.0908 532.4
[000:01:37] Gen 484 best/avg/worst/avg_ft/ft_div/avg_size -/+ 100.0000/100.0000 -/+ 90.5549/92.1875 -/+ 7.6923/25.0000 0.9049 0.0911 531.8
[000:01:37] Gen 485 best/avg/worst/avg_ft/ft_div/avg_size -/+ 100.0000/100.0000 -/+ 90.5815/92.2016 -/+ 1.9231/25.0000 0.9051 0.0911 531.6
[000:01:38] Gen 486 best/avg/worst/avg_ft/ft_div/avg_size -/+ 100.0000/100.0000 -/+ 90.3835/92.1258 -/+ 1.9231/25.0000 0.9035 0.0924 530.5
[000:01:38] Gen 487 best/avg/worst/avg_ft/ft_div/avg_size -/+ 100.0000/100.0000 -/+ 90.4773/92.0289 -/+ 3.8462/25.0000 0.9035 0.0924 530.3
[000:01:38] Gen 488 best/avg/worst/avg_ft/ft_div/avg_size -/+ 100.0000/100.0000 -/+ 90.4374/92.2047 -/+ 7.6923/25.0000 0.9042 0.0917 529.3
[000:01:38] Gen 489 best/avg/worst/avg_ft/ft_div/avg_size -/+ 100.0000/100.0000 -/+ 90.5150/92.2375 -/+ 3.8462/25.0000 0.9049 0.0911 530.0
[000:01:38] Gen 490 best/avg/worst/avg_ft/ft_div/avg_size -/+ 100.0000/100.0000 -/+ 90.3664/92.2984 -/+ 3.8462/25.0000 0.9044 0.0914 527.3
[000:01:39] Gen 491 best/avg/worst/avg_ft/ft_div/avg_size -/+ 100.0000/100.0000 -/+ 90.2759/92.2492 -/+ 1.9231/25.0000 0.9034 0.0925 528.3
[000:01:39] Gen 492 best/avg/worst/avg_ft/ft_div/avg_size -/+ 100.0000/100.0000 -/+ 90.2436/92.0992 -/+ 13.4615/25.0000 0.9023 0.0935 529.4
[000:01:39] Gen 493 best/avg/worst/avg_ft/ft_div/avg_size -/+ 100.0000/100.0000 -/+ 90.2968/92.2266 -/+ 15.3846/25.0000 0.9033 0.0924 529.0
[000:01:39] Gen 494 best/avg/worst/avg_ft/ft_div/avg_size -/+ 100.0000/100.0000 -/+ 90.4448/92.0992 -/+ 15.3846/25.0000 0.9037 0.0922 528.7
[000:01:40] Gen 495 best/avg/worst/avg_ft/ft_div/avg_size -/+ 100.0000/100.0000 -/+ 90.4230/92.2148 -/+ 1.9231/25.0000 0.9044 0.0913 527.3
[000:01:40] Gen 496 best/avg/worst/avg_ft/ft_div/avg_size -/+ 100.0000/100.0000 -/+ 90.3905/92.2695 -/+ 11.5385/25.0000 0.9043 0.0675 526.4
[000:01:40] Gen 497 best/avg/worst/avg_ft/ft_div/avg_size -/+ 100.0000/100.0000 -/+ 90.8076/92.8219 -/+ 15.3846/25.0000 0.9097 0.0862 527.2
[000:01:40] Gen 498 best/avg/worst/avg_ft/ft_div/avg_size -/+ 100.0000/100.0000 -/+ 90.4997/92.5320 -/+ 15.3846/25.0000 0.9063 0.0899 525.6
[000:01:40] Gen 499 best/avg/worst/avg_ft/ft_div/avg_size -/+ 100.0000/100.0000 -/+ 90.4628/92.4719 -/+ 9.6154/25.0000 0.9058 0.0903 525.8
[000:01:41] Gen 500 best/avg/worst/avg_ft/ft_div/avg_size -/+ 100.0000/100.0000 -/+ 90.3483/92.3609 -/+ 5.7692/25.0000 0.9045 0.0913 524.9
[000:01:41] Gen 501 best/avg/worst/avg_ft/ft_div/avg_size -/+ 100.0000/100.0000 -/+ 90.3480/92.2383 -/+ 17.3077/25.0000 0.9038 0.0919 525.7
Stack len: 75
Train accuracy: -/+ 76.8402/54.1985
Test accuracy: -/+ 79.0012/59.6238
[
Multiply(6, 7),
CopyReg(5, 4),
Load(1, 95),
Multiply(4, 7),
Load(4, 65),
Sub(7, 1),
Square(6),
Cos(1),
Load(2, 50),
JumpZP(0, 18),
CopyReg(1, 0),
Load(5, 93),
Multiply(6, 7),
Load(0, 62),
Multiply(4, 2),
Square(6),
Multiply(4, 1),
SubM(0, 8),
CopyReg(7, 2),
Sub(0, 2),
SumM(3, 11),
Sin(6),
Multiply(3, 7),
CopyReg(6, 7),
Load(4, 21),
Multiply(6, 7),
CopyReg(6, 7),
Load(1, 95),
SumM(5, 82),
Sin(1),
Sum(1, 2),
Sin(4),
Sum(1, 5),
Square(1),
Load(2, 50),
JumpZP(0, 18),
CopyReg(0, 4),
Load(6, 71),
Multiply(6, 1),
Load(0, 62),
Multiply(4, 2),
Square(6),
Multiply(3, 2),
SubM(0, 8),
Multiply(4, 2),
Square(1),
CopyReg(2, 4),
MultiplyM(3, 72),
Cos(1),
Multiply(3, 1),
Sum(1, 5),
CopyReg(3, 5),
Load(2, 50),
JumpZP(0, 18),
Sum(1, 5),
MultiplyM(1, 71),
Multiply(6, 7),
CopyReg(7, 2),
Square(5),
SumM(5, 82),
Multiply(4, 1),
SubM(0, 8),
Square(3),
Multiply(2, 3),
SumM(0, 11),
Cos(5),
Square(4),
Sum(1, 3),
Cos(7),
CopyReg(2, 6),
SumM(4, 20),
SubM(0, 9),
Square(4),
Sum(1, 3),
Cos(7),
]
[97.27459, 42.56865, 83.66617, -63.656963, 71.303215, -13.936317, 70.509445, 30.745113, -78.641525, -3.030169, 24.552584, 95.11214, 14.443302, -37.57633, 53.77989, -66.37523, -16.297615, -82.057335, -38.411118, 87.04405, -97.49588, 44.686188, -2.612555, 28.060616, 62.7921, -63.545574, -56.388115, -58.28042, 75.48759, -7.5772524, 27.573692, 42.151608]
